%YAML 1.1
%TAG !u! tag:unity3d.com,2011:
--- !u!114 &11400000
MonoBehaviour:
  m_ObjectHideFlags: 0
  m_CorrespondingSourceObject: {fileID: 0}
  m_PrefabInstance: {fileID: 0}
  m_PrefabAsset: {fileID: 0}
  m_GameObject: {fileID: 0}
  m_Enabled: 1
  m_EditorHideFlags: 0
  m_Script: {fileID: 11500000, guid: a461a1582c1e67c4b8cf1ff7f5752718, type: 3}
  m_Name: Old_Scene11B_CleanCity
  m_EditorClassIdentifier: 
  movieName: 022_A_S_city
  sceneLength: 5
  loop: 0
  waitForOperator: 0
  nextMovies: []
  prefabToCreate: {fileID: 6139295136333656668, guid: 645e302609f0d1b4aa07f7dca029cc0a,
    type: 3}
  triviaInfo:
    maxYearsToReduce: 0
    totalQuestionsInRound: 0
    totalQuestionTime: 0
    secondsPerQuestion: 0
    questionSequence: []
