%YAML 1.1
%TAG !u! tag:unity3d.com,2011:
--- !u!114 &11400000
MonoBehaviour:
  m_ObjectHideFlags: 0
  m_CorrespondingSourceObject: {fileID: 0}
  m_PrefabInstance: {fileID: 0}
  m_PrefabAsset: {fileID: 0}
  m_GameObject: {fileID: 0}
  m_Enabled: 1
  m_EditorHideFlags: 0
  m_Script: {fileID: 11500000, guid: a461a1582c1e67c4b8cf1ff7f5752718, type: 3}
  m_Name: Scene8_BonusRound_A3_Won
  m_EditorClassIdentifier: 
  movieName: 013A_3
  sceneLength: 5
  loop: 0
  nextMovies:
  - {fileID: 11400000, guid: 73d32a25f1cd687428515cb38f87b279, type: 2}
  prefabToCreate: {fileID: 0}
  triviaInfo:
    maxYearsToReduce: 0
    totalQuestionsInRound: 0
    totalQuestionTime: 0
    secondsPerQuestion: 0
    questionSequence: []
