%YAML 1.1
%TAG !u! tag:unity3d.com,2011:
--- !u!114 &11400000
MonoBehaviour:
  m_ObjectHideFlags: 0
  m_CorrespondingSourceObject: {fileID: 0}
  m_PrefabInstance: {fileID: 0}
  m_PrefabAsset: {fileID: 0}
  m_GameObject: {fileID: 0}
  m_Enabled: 1
  m_EditorHideFlags: 0
  m_Script: {fileID: 11500000, guid: a461a1582c1e67c4b8cf1ff7f5752718, type: 3}
  m_Name: Scene8_BonusRound_A1_Won_Wait_Loop
  m_EditorClassIdentifier: 
  movieName: 001_Ai_Loop
  sceneLength: -1
  loop: 1
  waitForOperator: 1
  nextMovies: []
  prefabToCreate: {fileID: 768031049462830244, guid: b8beffde7de24654bad1996fdc9eb37f,
    type: 3}
  triviaInfo:
    maxYearsToReduce: 0
    totalQuestionsInRound: 0
    totalQuestionTime: 0
    secondsPerQuestion: 0
    questionSequence: []
