%YAML 1.1
%TAG !u! tag:unity3d.com,2011:
--- !u!1 &3596316603526205791
GameObject:
  m_ObjectHideFlags: 0
  m_CorrespondingSourceObject: {fileID: 0}
  m_PrefabInstance: {fileID: 0}
  m_PrefabAsset: {fileID: 0}
  serializedVersion: 6
  m_Component:
  - component: {fileID: 1847669581856679458}
  - component: {fileID: 8410401223605880506}
  m_Layer: 0
  m_Name: OculusGoSmokeTrivia
  m_TagString: Untagged
  m_Icon: {fileID: 0}
  m_NavMeshLayer: 0
  m_StaticEditorFlags: 0
  m_IsActive: 1
--- !u!4 &1847669581856679458
Transform:
  m_ObjectHideFlags: 0
  m_CorrespondingSourceObject: {fileID: 0}
  m_PrefabInstance: {fileID: 0}
  m_PrefabAsset: {fileID: 0}
  m_GameObject: {fileID: 3596316603526205791}
  m_LocalRotation: {x: -0, y: 1.1641534e-10, z: 1.10730994e-10, w: 1}
  m_LocalPosition: {x: 0, y: 0, z: 0}
  m_LocalScale: {x: 1, y: 1, z: 1}
  m_Children:
  - {fileID: 6631010248998409988}
  m_Father: {fileID: 0}
  m_RootOrder: 0
  m_LocalEulerAnglesHint: {x: 0, y: 0, z: 0}
--- !u!114 &8410401223605880506
MonoBehaviour:
  m_ObjectHideFlags: 0
  m_CorrespondingSourceObject: {fileID: 0}
  m_PrefabInstance: {fileID: 0}
  m_PrefabAsset: {fileID: 0}
  m_GameObject: {fileID: 3596316603526205791}
  m_Enabled: 1
  m_EditorHideFlags: 0
  m_Script: {fileID: 11500000, guid: c0a50608476d2694a9e50b8f2a89bfeb, type: 3}
  m_Name: 
  m_EditorClassIdentifier: 
  dontWaitInEditor: 0
  movieEvents: []
  waitForGuiToAppear: -1
  guiStopAt: -1
  guiChild: {fileID: 1848404660903460857}
--- !u!1001 &5582258601619820893
PrefabInstance:
  m_ObjectHideFlags: 0
  serializedVersion: 2
  m_Modification:
    m_TransformParent: {fileID: 1847669581856679458}
    m_Modifications:
    - target: {fileID: 6115589921244229284, guid: da0da17efe9213b4eb60d9087f537e14,
        type: 3}
      propertyPath: m_Name
      value: NewTrivia
      objectReference: {fileID: 0}
    - target: {fileID: 6115589921244229284, guid: da0da17efe9213b4eb60d9087f537e14,
        type: 3}
      propertyPath: m_IsActive
      value: 0
      objectReference: {fileID: 0}
    - target: {fileID: 1260513317704517209, guid: da0da17efe9213b4eb60d9087f537e14,
        type: 3}
      propertyPath: m_LocalPosition.x
      value: 0
      objectReference: {fileID: 0}
    - target: {fileID: 1260513317704517209, guid: da0da17efe9213b4eb60d9087f537e14,
        type: 3}
      propertyPath: m_LocalPosition.y
      value: 0
      objectReference: {fileID: 0}
    - target: {fileID: 1260513317704517209, guid: da0da17efe9213b4eb60d9087f537e14,
        type: 3}
      propertyPath: m_LocalPosition.z
      value: 0
      objectReference: {fileID: 0}
    - target: {fileID: 1260513317704517209, guid: da0da17efe9213b4eb60d9087f537e14,
        type: 3}
      propertyPath: m_LocalRotation.x
      value: -0
      objectReference: {fileID: 0}
    - target: {fileID: 1260513317704517209, guid: da0da17efe9213b4eb60d9087f537e14,
        type: 3}
      propertyPath: m_LocalRotation.y
      value: -0
      objectReference: {fileID: 0}
    - target: {fileID: 1260513317704517209, guid: da0da17efe9213b4eb60d9087f537e14,
        type: 3}
      propertyPath: m_LocalRotation.z
      value: -0
      objectReference: {fileID: 0}
    - target: {fileID: 1260513317704517209, guid: da0da17efe9213b4eb60d9087f537e14,
        type: 3}
      propertyPath: m_LocalRotation.w
      value: 1
      objectReference: {fileID: 0}
    - target: {fileID: 1260513317704517209, guid: da0da17efe9213b4eb60d9087f537e14,
        type: 3}
      propertyPath: m_RootOrder
      value: 0
      objectReference: {fileID: 0}
    - target: {fileID: 1260513317704517209, guid: da0da17efe9213b4eb60d9087f537e14,
        type: 3}
      propertyPath: m_LocalEulerAnglesHint.x
      value: 0
      objectReference: {fileID: 0}
    - target: {fileID: 1260513317704517209, guid: da0da17efe9213b4eb60d9087f537e14,
        type: 3}
      propertyPath: m_LocalEulerAnglesHint.y
      value: 0
      objectReference: {fileID: 0}
    - target: {fileID: 1260513317704517209, guid: da0da17efe9213b4eb60d9087f537e14,
        type: 3}
      propertyPath: m_LocalEulerAnglesHint.z
      value: 0
      objectReference: {fileID: 0}
    - target: {fileID: 5732595286191605623, guid: da0da17efe9213b4eb60d9087f537e14,
        type: 3}
      propertyPath: m_IsActive
      value: 0
      objectReference: {fileID: 0}
    - target: {fileID: 5571837559313053995, guid: da0da17efe9213b4eb60d9087f537e14,
        type: 3}
      propertyPath: m_havePropertiesChanged
      value: 0
      objectReference: {fileID: 0}
    - target: {fileID: 5571837559313053995, guid: da0da17efe9213b4eb60d9087f537e14,
        type: 3}
      propertyPath: m_isInputParsingRequired
      value: 0
      objectReference: {fileID: 0}
    - target: {fileID: 6597875189609075297, guid: da0da17efe9213b4eb60d9087f537e14,
        type: 3}
      propertyPath: m_havePropertiesChanged
      value: 0
      objectReference: {fileID: 0}
    - target: {fileID: 6597875189609075297, guid: da0da17efe9213b4eb60d9087f537e14,
        type: 3}
      propertyPath: m_isInputParsingRequired
      value: 0
      objectReference: {fileID: 0}
    - target: {fileID: 7807146934336169214, guid: da0da17efe9213b4eb60d9087f537e14,
        type: 3}
      propertyPath: OutputAudioMixerGroup
      value: 
      objectReference: {fileID: 243952309033162424, guid: fddccf714a8bf5643abe89a8ef3b134e,
        type: 2}
    - target: {fileID: 7807146934869486075, guid: da0da17efe9213b4eb60d9087f537e14,
        type: 3}
      propertyPath: OutputAudioMixerGroup
      value: 
      objectReference: {fileID: 243952309033162424, guid: fddccf714a8bf5643abe89a8ef3b134e,
        type: 2}
    - target: {fileID: 7807146933496951144, guid: da0da17efe9213b4eb60d9087f537e14,
        type: 3}
      propertyPath: OutputAudioMixerGroup
      value: 
      objectReference: {fileID: 243952309033162424, guid: fddccf714a8bf5643abe89a8ef3b134e,
        type: 2}
    - target: {fileID: 7807146933696617242, guid: da0da17efe9213b4eb60d9087f537e14,
        type: 3}
      propertyPath: OutputAudioMixerGroup
      value: 
      objectReference: {fileID: 243952309033162424, guid: fddccf714a8bf5643abe89a8ef3b134e,
        type: 2}
    - target: {fileID: 7807146933870529043, guid: da0da17efe9213b4eb60d9087f537e14,
        type: 3}
      propertyPath: OutputAudioMixerGroup
      value: 
      objectReference: {fileID: 243952309033162424, guid: fddccf714a8bf5643abe89a8ef3b134e,
        type: 2}
    - target: {fileID: 8498522943114683286, guid: da0da17efe9213b4eb60d9087f537e14,
        type: 3}
      propertyPath: m_havePropertiesChanged
      value: 0
      objectReference: {fileID: 0}
    - target: {fileID: 8498522943114683286, guid: da0da17efe9213b4eb60d9087f537e14,
        type: 3}
      propertyPath: m_isInputParsingRequired
      value: 0
      objectReference: {fileID: 0}
    - target: {fileID: 2139345577932040454, guid: da0da17efe9213b4eb60d9087f537e14,
        type: 3}
      propertyPath: m_havePropertiesChanged
      value: 0
      objectReference: {fileID: 0}
    - target: {fileID: 2139345577932040454, guid: da0da17efe9213b4eb60d9087f537e14,
        type: 3}
      propertyPath: m_isInputParsingRequired
      value: 0
      objectReference: {fileID: 0}
    - target: {fileID: 2880033775966562820, guid: da0da17efe9213b4eb60d9087f537e14,
        type: 3}
      propertyPath: m_havePropertiesChanged
      value: 0
      objectReference: {fileID: 0}
    - target: {fileID: 2880033775966562820, guid: da0da17efe9213b4eb60d9087f537e14,
        type: 3}
      propertyPath: m_isInputParsingRequired
      value: 0
      objectReference: {fileID: 0}
    - target: {fileID: 3925734748010185578, guid: da0da17efe9213b4eb60d9087f537e14,
        type: 3}
      propertyPath: m_havePropertiesChanged
      value: 0
      objectReference: {fileID: 0}
    - target: {fileID: 3925734748010185578, guid: da0da17efe9213b4eb60d9087f537e14,
        type: 3}
      propertyPath: m_isInputParsingRequired
      value: 0
      objectReference: {fileID: 0}
    - target: {fileID: 5571837559313053993, guid: da0da17efe9213b4eb60d9087f537e14,
        type: 3}
      propertyPath: m_Mesh
      value: 
      objectReference: {fileID: 0}
    - target: {fileID: 4635348897009139138, guid: da0da17efe9213b4eb60d9087f537e14,
        type: 3}
      propertyPath: m_havePropertiesChanged
      value: 0
      objectReference: {fileID: 0}
    - target: {fileID: 4635348897009139138, guid: da0da17efe9213b4eb60d9087f537e14,
        type: 3}
      propertyPath: m_isInputParsingRequired
      value: 0
      objectReference: {fileID: 0}
    - target: {fileID: 4635348897009139132, guid: da0da17efe9213b4eb60d9087f537e14,
        type: 3}
      propertyPath: m_Mesh
      value: 
      objectReference: {fileID: 0}
    - target: {fileID: 2880033775966562818, guid: da0da17efe9213b4eb60d9087f537e14,
        type: 3}
      propertyPath: m_Mesh
      value: 
      objectReference: {fileID: 0}
    - target: {fileID: 6597875189609075299, guid: da0da17efe9213b4eb60d9087f537e14,
        type: 3}
      propertyPath: m_Mesh
      value: 
      objectReference: {fileID: 0}
    - target: {fileID: 8498522943114683284, guid: da0da17efe9213b4eb60d9087f537e14,
        type: 3}
      propertyPath: m_Mesh
      value: 
      objectReference: {fileID: 0}
    - target: {fileID: 2139345577932040452, guid: da0da17efe9213b4eb60d9087f537e14,
        type: 3}
      propertyPath: m_Mesh
      value: 
      objectReference: {fileID: 0}
    - target: {fileID: 3925734748010185576, guid: da0da17efe9213b4eb60d9087f537e14,
        type: 3}
      propertyPath: m_Mesh
      value: 
      objectReference: {fileID: 0}
    m_RemovedComponents: []
  m_SourcePrefab: {fileID: 100100000, guid: da0da17efe9213b4eb60d9087f537e14, type: 3}
--- !u!1 &1848404660903460857 stripped
GameObject:
  m_CorrespondingSourceObject: {fileID: 6115589921244229284, guid: da0da17efe9213b4eb60d9087f537e14,
    type: 3}
  m_PrefabInstance: {fileID: 5582258601619820893}
  m_PrefabAsset: {fileID: 0}
--- !u!4 &6631010248998409988 stripped
Transform:
  m_CorrespondingSourceObject: {fileID: 1260513317704517209, guid: da0da17efe9213b4eb60d9087f537e14,
    type: 3}
  m_PrefabInstance: {fileID: 5582258601619820893}
  m_PrefabAsset: {fileID: 0}
