%YAML 1.1
%TAG !u! tag:unity3d.com,2011:
--- !u!78 &1
TagManager:
  serializedVersion: 2
  tags:
  - DomeVR
  - ClimateChangeQuestion
  - BonusRoundQuestion
  - PlasticSoupQuestion
  - GuiDome
  - EqualityQuestion
  - SmokeCityQuestion
  - EualityQuestion
  - SmokCityQuestion
  - SmokeGroup
  - InteractiveSmokeGroup
  - JLeftQuestion
  - JLeftSwiper
  - Brush
  - GarbageCan
  - DotMark
  - Garbage1
  - Garbage2
  - Garbage3
  - Garbage4
  - Garbage5
  - Image
  - RenderTextureAvatar
  - GuiPivotCalibrated
  layers:
  - Default
  - TransparentFX
  - Ignore Raycast
  - 
  - Water
  - UI
  - 
  - 
  - PostProcessing
  - CalculatingDome
  - AimingDome
  - Buttons
  - DirtyLayer
  - AimingDot
  - GuiSetupDome
  - GamePhysics
  - GamePhysicsWall
  - GarbageItem
  - Video
  - 
  - 
  - 
  - 
  - 
  - 
  - 
  - 
  - 
  - 
  - 
  - 
  - 
  m_SortingLayers:
  - name: Default
    uniqueID: 0
    locked: 0
