%YAML 1.1
%TAG !u! tag:unity3d.com,2011:
--- !u!74 &7400000
AnimationClip:
  m_ObjectHideFlags: 0
  m_CorrespondingSourceObject: {fileID: 0}
  m_PrefabInstance: {fileID: 0}
  m_PrefabAsset: {fileID: 0}
  m_Name: 011I
  serializedVersion: 6
  m_Legacy: 0
  m_Compressed: 0
  m_UseHighQualityCurve: 1
  m_RotationCurves: []
  m_CompressedRotationCurves: []
  m_EulerCurves: []
  m_PositionCurves: []
  m_ScaleCurves: []
  m_FloatCurves: []
  m_PPtrCurves:
  - curve:
    - time: 0
      value: {fileID: 21300000, guid: 0e068e18816a80a499e6185f7d5db97e, type: 3}
    - time: 0.033333335
      value: {fileID: 21300000, guid: a5975c44d8c4a9e4ebef63b05db631ed, type: 3}
    - time: 0.06666667
      value: {fileID: 21300000, guid: 20e49fd27f5cefe4f8973721861bf415, type: 3}
    - time: 0.1
      value: {fileID: 21300000, guid: 3aaee087842763c488ed18fede711646, type: 3}
    - time: 0.13333334
      value: {fileID: 21300000, guid: bd1da71725162874fbe441c451282fd6, type: 3}
    - time: 0.16666667
      value: {fileID: 21300000, guid: 78302d6dc615dcd4885c27ebcf36c352, type: 3}
    - time: 0.2
      value: {fileID: 21300000, guid: 6c5d12559ebc26d4a8b69db73507cd3f, type: 3}
    - time: 0.23333333
      value: {fileID: 21300000, guid: a106889052eac964988fae5534529f3e, type: 3}
    - time: 0.26666668
      value: {fileID: 21300000, guid: add703f71e8a6c44f9fb11da1a7589fc, type: 3}
    - time: 0.3
      value: {fileID: 21300000, guid: 1899c4da57c887244b27dfff3ed4afd9, type: 3}
    - time: 0.33333334
      value: {fileID: 21300000, guid: 9f048cc0af4a3494d9c58c483efef438, type: 3}
    - time: 0.36666667
      value: {fileID: 21300000, guid: aeb5a865f124c6d45ba2aca94ea0507b, type: 3}
    - time: 0.4
      value: {fileID: 21300000, guid: 4842a166fca50864693b6b674e26e300, type: 3}
    - time: 0.43333334
      value: {fileID: 21300000, guid: af3920711b8e03c4a984933a56ee37f8, type: 3}
    - time: 0.46666667
      value: {fileID: 21300000, guid: c65d48e472b8c5e4281efbf44f57dd16, type: 3}
    - time: 0.5
      value: {fileID: 21300000, guid: e1db436f75bd260478136e725966f085, type: 3}
    - time: 0.53333336
      value: {fileID: 21300000, guid: 71f5b09a3a38b884d8b392a73cf25fe2, type: 3}
    - time: 0.56666666
      value: {fileID: 21300000, guid: bbda4ac45dc32634a8cf83fa49a87146, type: 3}
    - time: 0.6
      value: {fileID: 21300000, guid: 336257dafbc6caa468afd60807aaea4b, type: 3}
    - time: 0.6333333
      value: {fileID: 21300000, guid: d017528379684904a8677a683db6987a, type: 3}
    - time: 0.6666667
      value: {fileID: 21300000, guid: 4fbf5b42df6a2764687920c0cccad2ec, type: 3}
    - time: 0.7
      value: {fileID: 21300000, guid: 69294041aed397948b9f0f766a86123d, type: 3}
    - time: 0.73333335
      value: {fileID: 21300000, guid: 6da0f23a5974c8347b54cd74757422f9, type: 3}
    - time: 0.76666665
      value: {fileID: 21300000, guid: cf94cfe46fcaa5741ae50b4fcfbecae0, type: 3}
    - time: 0.8
      value: {fileID: 21300000, guid: fc57565b760c70a4f8b1462a89e2b08a, type: 3}
    - time: 0.8333333
      value: {fileID: 21300000, guid: 9c5859dc8ec58f54f8a07f2d4c2a79c5, type: 3}
    - time: 0.8666667
      value: {fileID: 21300000, guid: 240eb779c6a1de9408a6f893f2f496b7, type: 3}
    - time: 0.9
      value: {fileID: 21300000, guid: b229a5306ee8be04e9d2f3fbffbdcc7c, type: 3}
    - time: 0.93333334
      value: {fileID: 21300000, guid: 509751e780c7e6444a95a8a938b4ca96, type: 3}
    - time: 0.96666664
      value: {fileID: 21300000, guid: d8dc6943d4868bb429b99eb9f39f32a4, type: 3}
    - time: 1
      value: {fileID: 21300000, guid: 2b59e86124e58a74c8202793d4f22a44, type: 3}
    - time: 1.0333333
      value: {fileID: 21300000, guid: 04c87209010feda47a4d74f67e8998af, type: 3}
    - time: 1.0666667
      value: {fileID: 21300000, guid: 1954f3c648ad80b489d2a7d147bdbdbc, type: 3}
    - time: 1.1
      value: {fileID: 21300000, guid: 288a5cde4f86b1d4e9a96df1d7202b2a, type: 3}
    - time: 1.1333333
      value: {fileID: 21300000, guid: bc882fc8d9b9c5047a0544b50e6e33ac, type: 3}
    - time: 1.1666666
      value: {fileID: 21300000, guid: de61838f66124264591cff26c9ef12a1, type: 3}
    - time: 1.2
      value: {fileID: 21300000, guid: 6204cd7f9ee19d34789e6b5da60aeedd, type: 3}
    - time: 1.2333333
      value: {fileID: 21300000, guid: 20e85c18cc4bbe14795b892d86fec4f8, type: 3}
    - time: 1.2666667
      value: {fileID: 21300000, guid: 0e94126475584444c823421383bb1d86, type: 3}
    - time: 1.3
      value: {fileID: 21300000, guid: 34a48cfdde403d148a0cac6884eb1290, type: 3}
    - time: 1.3333334
      value: {fileID: 21300000, guid: e6ae448dc415bc1409238dded9e3b69f, type: 3}
    - time: 1.3666667
      value: {fileID: 21300000, guid: 7c40dc9c6a874ff49ac3a6e1ba7ebe01, type: 3}
    - time: 1.4
      value: {fileID: 21300000, guid: 098516ed174684d489d8ad5ff98fdbce, type: 3}
    - time: 1.4333333
      value: {fileID: 21300000, guid: 7f1e9fdd0e739d44f80f11e29cdb8761, type: 3}
    - time: 1.4666667
      value: {fileID: 21300000, guid: b42e15f18ac2d8a4abac02d8c1f4e99e, type: 3}
    - time: 1.5
      value: {fileID: 21300000, guid: 31c5090fe12f0c4488de71c2211f185b, type: 3}
    - time: 1.5333333
      value: {fileID: 21300000, guid: 916bbc24302ac3b4e8becacbcf6c758f, type: 3}
    - time: 1.5666667
      value: {fileID: 21300000, guid: 2e39be561e3e5354088468a956ab14e2, type: 3}
    - time: 1.6
      value: {fileID: 21300000, guid: bad3ad2e15a71d54998270297183b46e, type: 3}
    - time: 1.6333333
      value: {fileID: 21300000, guid: 17901e847a2864248a7ab2803a7965dc, type: 3}
    - time: 1.6666666
      value: {fileID: 21300000, guid: 7c1ab4df019c525418befabaded6881b, type: 3}
    - time: 1.7
      value: {fileID: 21300000, guid: da859c218ee747040beade3ea224358e, type: 3}
    - time: 1.7333333
      value: {fileID: 21300000, guid: 9dca2463741fb6244a08e94099f9a3bc, type: 3}
    - time: 1.7666667
      value: {fileID: 21300000, guid: 4507d5152a2d5444d86961a31c2f9f8f, type: 3}
    - time: 1.8
      value: {fileID: 21300000, guid: bb4cbe51dc79ea249a0d6851b99f24e5, type: 3}
    - time: 1.8333334
      value: {fileID: 21300000, guid: 89810e3af5cb3d1499958d6bbc4e76bf, type: 3}
    - time: 1.8666667
      value: {fileID: 21300000, guid: a22ecf8434db0b341ad16efe7642210a, type: 3}
    - time: 1.9
      value: {fileID: 21300000, guid: 1a4d440bc0a3f2d418f58971952cb4f3, type: 3}
    - time: 1.9333333
      value: {fileID: 21300000, guid: 7cb74e2012f97b94596126d756f22b8f, type: 3}
    - time: 1.9666667
      value: {fileID: 21300000, guid: d00bb31e018dd004f8ad174a158e143b, type: 3}
    - time: 2
      value: {fileID: 21300000, guid: 0404beb85ec0e0349ad2d54efeef1f63, type: 3}
    - time: 2.0333333
      value: {fileID: 21300000, guid: b15fdac2aef380f459a75c26bda2cf61, type: 3}
    - time: 2.0666666
      value: {fileID: 21300000, guid: 9270153ed8de27b45817fd79db4c11e6, type: 3}
    - time: 2.1
      value: {fileID: 21300000, guid: c037c74a9cb22a34295695780a550e26, type: 3}
    - time: 2.1333334
      value: {fileID: 21300000, guid: 931493bc8be09504aab8bbd22179f995, type: 3}
    - time: 2.1666667
      value: {fileID: 21300000, guid: 16970cf5db6eab84c9fb1da7de540c95, type: 3}
    - time: 2.2
      value: {fileID: 21300000, guid: 010ffac6b0fc02f45986104be8580250, type: 3}
    - time: 2.2333333
      value: {fileID: 21300000, guid: 987f65edf387d704e966fef41cd9f19f, type: 3}
    - time: 2.2666667
      value: {fileID: 21300000, guid: 430142ba070ba054aba9797e84debf4e, type: 3}
    - time: 2.3
      value: {fileID: 21300000, guid: 8ad98122d2db1af47ac7ebd3e020b023, type: 3}
    - time: 2.3333333
      value: {fileID: 21300000, guid: 4ee0d31d40ea8f445bf3837539dcf28b, type: 3}
    - time: 2.3666666
      value: {fileID: 21300000, guid: 4e77e9a3e8bbc3240b67bb9a4695a12f, type: 3}
    - time: 2.4
      value: {fileID: 21300000, guid: 9a1d9214801bedc47b66b8f21d048a5d, type: 3}
    - time: 2.4333334
      value: {fileID: 21300000, guid: b44859fc7f0eae943ae4e566b363c65b, type: 3}
    - time: 2.4666667
      value: {fileID: 21300000, guid: b59d0deaa3d892048964c6f0aac9d273, type: 3}
    - time: 2.5
      value: {fileID: 21300000, guid: 336cb16ec4ae4c548a400b415d382d4f, type: 3}
    - time: 2.5333333
      value: {fileID: 21300000, guid: 80448f96d26a0f94f9807f3fa9b791a7, type: 3}
    - time: 2.5666666
      value: {fileID: 21300000, guid: 46ed700045f73de449d9378610d24074, type: 3}
    - time: 2.6
      value: {fileID: 21300000, guid: 959f086d83c0fb54bb1c7b0545281abc, type: 3}
    - time: 2.6333334
      value: {fileID: 21300000, guid: 473345537bf0fde4dbe3b6ad997caea3, type: 3}
    - time: 2.6666667
      value: {fileID: 21300000, guid: b4ec83859e745d94bb121e98f91cfdd6, type: 3}
    - time: 2.7
      value: {fileID: 21300000, guid: 64e2ed87925103c43a8190785c74c4a4, type: 3}
    - time: 2.7333333
      value: {fileID: 21300000, guid: 09bf503cb4199d54bb1b698c0991a51a, type: 3}
    - time: 2.7666667
      value: {fileID: 21300000, guid: dbdc43849e0667d499f72c333155ac11, type: 3}
    - time: 2.8
      value: {fileID: 21300000, guid: 2fddf4cc9a7564c49b85faaf144c9a55, type: 3}
    - time: 2.8333333
      value: {fileID: 21300000, guid: 2ec07dcd124065a489cfb0c0baed12ad, type: 3}
    - time: 2.8666666
      value: {fileID: 21300000, guid: f701a4c32d86dcd4e8158ffdf676f1e0, type: 3}
    - time: 2.9
      value: {fileID: 21300000, guid: 3fc4ccaf6e4794949ad5862f26f74b02, type: 3}
    - time: 2.9333334
      value: {fileID: 21300000, guid: 0c9362928f487a341b821c6d5cadb937, type: 3}
    - time: 2.9666667
      value: {fileID: 21300000, guid: daae40b96e23d84459a50a5158fc218e, type: 3}
    - time: 3
      value: {fileID: 21300000, guid: 0b721c0db401e1146bac8aee97c95004, type: 3}
    - time: 3.0333333
      value: {fileID: 21300000, guid: 09a5632fc65381f448bde0bcba8bb187, type: 3}
    - time: 3.0666666
      value: {fileID: 21300000, guid: c27e946132e64d946b9c601e10a49dca, type: 3}
    - time: 3.1
      value: {fileID: 21300000, guid: 3d56ec93ca979574aae47881ab859b71, type: 3}
    - time: 3.1333334
      value: {fileID: 21300000, guid: 2fc6a30348a81c54fb2daa3f71db128a, type: 3}
    - time: 3.1666667
      value: {fileID: 21300000, guid: 3b09338dca6a63a44a3458108f32235c, type: 3}
    - time: 3.2
      value: {fileID: 21300000, guid: 3ab2d3f11620a8e46adfda99d404b6f9, type: 3}
    - time: 3.2333333
      value: {fileID: 21300000, guid: 5cb87bd8b0e5fa048a2f11f6e7703ecc, type: 3}
    - time: 3.2666667
      value: {fileID: 21300000, guid: 6b0e8704e603ba649aaf2163ee230e46, type: 3}
    - time: 3.3
      value: {fileID: 21300000, guid: aaba53972ec7ab6498e2fbebfae508cd, type: 3}
    - time: 3.3333333
      value: {fileID: 21300000, guid: 754f412c14b9e4b42b781eec82389931, type: 3}
    - time: 3.3666666
      value: {fileID: 21300000, guid: e7f00b008e2257f4683cdaf10a1a6bb3, type: 3}
    - time: 3.4
      value: {fileID: 21300000, guid: 631743c62ef89444eb9608d82399bb0d, type: 3}
    - time: 3.4333334
      value: {fileID: 21300000, guid: 08c724d62f5e76648aef73dd0e35409f, type: 3}
    - time: 3.4666667
      value: {fileID: 21300000, guid: b83977228046e0c4f9f8f07e258c2604, type: 3}
    - time: 3.5
      value: {fileID: 21300000, guid: bbbb3927772059b45930cd0a235449ef, type: 3}
    - time: 3.5333333
      value: {fileID: 21300000, guid: 6b2616ab0a6b2204db68cbfa6b242104, type: 3}
    - time: 3.5666666
      value: {fileID: 21300000, guid: 8b48c7be0e3a3504e903f831fdb15cea, type: 3}
    - time: 3.6
      value: {fileID: 21300000, guid: a9aef505af3ba3d4991b28ea12affcb3, type: 3}
    - time: 3.6333334
      value: {fileID: 21300000, guid: e0ff9c007cd9a314181d6b8233639be5, type: 3}
    - time: 3.6666667
      value: {fileID: 21300000, guid: 51374c2142d2d5e4185b811fbaf3d3db, type: 3}
    - time: 3.7
      value: {fileID: 21300000, guid: f07130e20a3ee254a97911d3efa4e765, type: 3}
    - time: 3.7333333
      value: {fileID: 21300000, guid: c79162837257a7d45bd19172238a0197, type: 3}
    - time: 3.7666667
      value: {fileID: 21300000, guid: a5b679afec520014087405c75ba9f0c1, type: 3}
    - time: 3.8
      value: {fileID: 21300000, guid: 04719082e13c49e48891a199277fee66, type: 3}
    - time: 3.8333333
      value: {fileID: 21300000, guid: 44b6abf8d91549747b4218135c386ac1, type: 3}
    - time: 3.8666666
      value: {fileID: 21300000, guid: 0826162ed4a5c994fa57a79d68af8291, type: 3}
    - time: 3.9
      value: {fileID: 21300000, guid: a505523e6dafea340a240dd16db83f1a, type: 3}
    - time: 3.9333334
      value: {fileID: 21300000, guid: e73d9796a7aafda40b8e2193b076c5c9, type: 3}
    - time: 3.9666667
      value: {fileID: 21300000, guid: d71a43eb5df09a340a1c60b9b7db995f, type: 3}
    - time: 4
      value: {fileID: 21300000, guid: cbe2c76e4f7971f408f4ebc7673bc463, type: 3}
    - time: 4.0333333
      value: {fileID: 21300000, guid: 3da9eb13abb46e8449ddc0ecf760ff6c, type: 3}
    - time: 4.0666666
      value: {fileID: 21300000, guid: 1246d299d8a42c746a06118cbdbea74c, type: 3}
    - time: 4.1
      value: {fileID: 21300000, guid: 8a1a27f718db220439fb4f3f531ff4f6, type: 3}
    - time: 4.133333
      value: {fileID: 21300000, guid: 0f84b69c89379034b84a2991edae135f, type: 3}
    - time: 4.1666665
      value: {fileID: 21300000, guid: 8b0f3acb99bb1a649ad90f5b7b2715a4, type: 3}
    - time: 4.2
      value: {fileID: 21300000, guid: b8f6a4e67eb328a4c81f060c0ffe5111, type: 3}
    - time: 4.233333
      value: {fileID: 21300000, guid: 6468afa4ac6079c4f824a0982290a4da, type: 3}
    - time: 4.266667
      value: {fileID: 21300000, guid: 3d03ff9d2e55ba34695884124bc89ae9, type: 3}
    - time: 4.3
      value: {fileID: 21300000, guid: 8cae6552b439a354096d18542bc954b1, type: 3}
    - time: 4.3333335
      value: {fileID: 21300000, guid: cbe0d89e12d07c6428aa69be2b2a16f7, type: 3}
    - time: 4.366667
      value: {fileID: 21300000, guid: 5034829f08b0776478ae278f9a375759, type: 3}
    - time: 4.4
      value: {fileID: 21300000, guid: c136d097ee081e94293e94bdd802c2f5, type: 3}
    - time: 4.4333334
      value: {fileID: 21300000, guid: fe99bb92e5e7bb84baaf19cc9feb203b, type: 3}
    - time: 4.4666667
      value: {fileID: 21300000, guid: d73681b96f3340b408f407a6385aa0e4, type: 3}
    - time: 4.5
      value: {fileID: 21300000, guid: 164e03a9a56559143ad139ca54398f72, type: 3}
    - time: 4.5333333
      value: {fileID: 21300000, guid: 0a698919adcbe704b84922efea27a9fa, type: 3}
    - time: 4.5666666
      value: {fileID: 21300000, guid: a71b2983714111845b4685e4ec883f9f, type: 3}
    - time: 4.6
      value: {fileID: 21300000, guid: e9135fc918cacd44088d9dbec67b7f13, type: 3}
    - time: 4.633333
      value: {fileID: 21300000, guid: 7df91ed0c36b8c242bc95586f66ec293, type: 3}
    - time: 4.6666665
      value: {fileID: 21300000, guid: 8e3f6ecc055bea44fa03af7b685225d3, type: 3}
    - time: 4.7
      value: {fileID: 21300000, guid: f49c57ce9d78b8a45afc94bc8b816e1b, type: 3}
    - time: 4.733333
      value: {fileID: 21300000, guid: 38d61b49e3b832b418e900f728485c9a, type: 3}
    - time: 4.766667
      value: {fileID: 21300000, guid: 68d8a2dded56dc648afa46590bf07ba7, type: 3}
    - time: 4.8
      value: {fileID: 21300000, guid: 10e58b4685601e447b496d3439dce913, type: 3}
    - time: 4.8333335
      value: {fileID: 21300000, guid: 4b8e1a81b36c71d42b4c06b3fef2c862, type: 3}
    - time: 4.866667
      value: {fileID: 21300000, guid: 89d328d6ceb1b404583d1dfec289de8e, type: 3}
    - time: 4.9
      value: {fileID: 21300000, guid: df32a43784f0290469bac9b49c2e1457, type: 3}
    - time: 4.9333334
      value: {fileID: 21300000, guid: 6fd8d8c102cfcba4b937caf9d325e935, type: 3}
    - time: 4.9666667
      value: {fileID: 21300000, guid: d1056cfe5cf624f45b23577401e7e414, type: 3}
    - time: 5
      value: {fileID: 21300000, guid: cbf09ea850209be46a5d87b89b541a96, type: 3}
    - time: 5.0333333
      value: {fileID: 21300000, guid: 3e3930b7d83336643acd1d7eb9136c69, type: 3}
    - time: 5.0666666
      value: {fileID: 21300000, guid: 925d0fbcb60e15148a6d663a83ff39bd, type: 3}
    - time: 5.1
      value: {fileID: 21300000, guid: 272951c36401a974db5ebecdf61fd068, type: 3}
    - time: 5.133333
      value: {fileID: 21300000, guid: 1d252fa3f3e36804c9ae77d87e04d920, type: 3}
    - time: 5.1666665
      value: {fileID: 21300000, guid: 747c450820abec24fbe6dbf5f8c0aea0, type: 3}
    - time: 5.2
      value: {fileID: 21300000, guid: bb145aa4fd542cd41a51b363a194cead, type: 3}
    - time: 5.233333
      value: {fileID: 21300000, guid: 19ac85b62fbbfee4fb3e3414a14d4e75, type: 3}
    - time: 5.266667
      value: {fileID: 21300000, guid: f2d632c37d12f5a4db21ceee11852078, type: 3}
    - time: 5.3
      value: {fileID: 21300000, guid: 4c8460411321c3048a3aea1cd20a8350, type: 3}
    - time: 5.3333335
      value: {fileID: 21300000, guid: 4e29cdb971d6baf4aa6c492f33123c1b, type: 3}
    - time: 5.366667
      value: {fileID: 21300000, guid: 0b1cb0ec79ba2a84aa933f621f474873, type: 3}
    - time: 5.4
      value: {fileID: 21300000, guid: 8259d2b5d18c99f40a2d563cdd848cfb, type: 3}
    - time: 5.4333334
      value: {fileID: 21300000, guid: 3f6bb887b1bb8de44bc4efab8218dd4a, type: 3}
    - time: 5.4666667
      value: {fileID: 21300000, guid: 77d5fca0deaddad42aa68da318c0a8f4, type: 3}
    - time: 5.5
      value: {fileID: 21300000, guid: 08035ca6fee575d47bae57e208ba2a11, type: 3}
    - time: 5.5333333
      value: {fileID: 21300000, guid: 0e7541eb0010dff47bcf37fb103ab6a8, type: 3}
    - time: 5.5666666
      value: {fileID: 21300000, guid: fdf286a41685a8e4c9aa2c6afa0e852b, type: 3}
    - time: 5.6
      value: {fileID: 21300000, guid: 862569327d8959c4e8ddf2148748bc0d, type: 3}
    - time: 5.633333
      value: {fileID: 21300000, guid: 5e0d584314bbc77429b0f94c04f79a16, type: 3}
    - time: 5.6666665
      value: {fileID: 21300000, guid: 90b1c99c98a43a94398366a153552592, type: 3}
    - time: 5.7
      value: {fileID: 21300000, guid: ae541aff28fb5d745972a22680be27c4, type: 3}
    - time: 5.733333
      value: {fileID: 21300000, guid: f4706a10f00e3694db53f618c2d739e8, type: 3}
    - time: 5.766667
      value: {fileID: 21300000, guid: 6dc1595b9076c5f459a25294e2e727b5, type: 3}
    - time: 5.8
      value: {fileID: 21300000, guid: 402a214688b9f324285d66efbe07b967, type: 3}
    - time: 5.8333335
      value: {fileID: 21300000, guid: 684c4c4f04a14864584c9ddb8fd70b90, type: 3}
    - time: 5.866667
      value: {fileID: 21300000, guid: 81871fa75be07c344b5973bf6f1107de, type: 3}
    - time: 5.9
      value: {fileID: 21300000, guid: 6f1e1e628bea6754b8f4565b50571b8c, type: 3}
    - time: 5.9333334
      value: {fileID: 21300000, guid: 638ab2146e1cfaf48bc33ee6d62b5e58, type: 3}
    - time: 5.9666667
      value: {fileID: 21300000, guid: b840286b6a9ed01419a4d5f2505b1a56, type: 3}
    - time: 6
      value: {fileID: 21300000, guid: 9539690ab41b3c640849a4009af833c2, type: 3}
    - time: 6.0333333
      value: {fileID: 21300000, guid: 0f12e306bc1deae448664c6c3b760b89, type: 3}
    - time: 6.0666666
      value: {fileID: 21300000, guid: 24781b914d5826f489e39b49e7bee7e6, type: 3}
    - time: 6.1
      value: {fileID: 21300000, guid: 5e0be15365f22a14ea3375aee06551cb, type: 3}
    - time: 6.133333
      value: {fileID: 21300000, guid: 9e2d10d59c19d7541a9ad14b286a6e02, type: 3}
    - time: 6.1666665
      value: {fileID: 21300000, guid: 1f3e1e9fb3b4107488807a4ebc67da21, type: 3}
    - time: 6.2
      value: {fileID: 21300000, guid: db678b1cc987a0640b63896a83f0dfe7, type: 3}
    - time: 6.233333
      value: {fileID: 21300000, guid: 90b224e255aca07418a271e4e53e2772, type: 3}
    - time: 6.266667
      value: {fileID: 21300000, guid: 7e62ed8d5b7fb844e8e354724ec206a2, type: 3}
    - time: 6.3
      value: {fileID: 21300000, guid: 19fcb2fde0d104b4081086d850633d92, type: 3}
    - time: 6.3333335
      value: {fileID: 21300000, guid: 9db4ccfe296e55c4ea3a6156667a8ed7, type: 3}
    attribute: m_Sprite
    path: 
    classID: 212
    script: {fileID: 0}
  m_SampleRate: 30
  m_WrapMode: 0
  m_Bounds:
    m_Center: {x: 0, y: 0, z: 0}
    m_Extent: {x: 0, y: 0, z: 0}
  m_ClipBindingConstant:
    genericBindings:
    - serializedVersion: 2
      path: 0
      attribute: 0
      script: {fileID: 0}
      typeID: 212
      customType: 23
      isPPtrCurve: 1
    pptrCurveMapping:
    - {fileID: 21300000, guid: 0e068e18816a80a499e6185f7d5db97e, type: 3}
    - {fileID: 21300000, guid: a5975c44d8c4a9e4ebef63b05db631ed, type: 3}
    - {fileID: 21300000, guid: 20e49fd27f5cefe4f8973721861bf415, type: 3}
    - {fileID: 21300000, guid: 3aaee087842763c488ed18fede711646, type: 3}
    - {fileID: 21300000, guid: bd1da71725162874fbe441c451282fd6, type: 3}
    - {fileID: 21300000, guid: 78302d6dc615dcd4885c27ebcf36c352, type: 3}
    - {fileID: 21300000, guid: 6c5d12559ebc26d4a8b69db73507cd3f, type: 3}
    - {fileID: 21300000, guid: a106889052eac964988fae5534529f3e, type: 3}
    - {fileID: 21300000, guid: add703f71e8a6c44f9fb11da1a7589fc, type: 3}
    - {fileID: 21300000, guid: 1899c4da57c887244b27dfff3ed4afd9, type: 3}
    - {fileID: 21300000, guid: 9f048cc0af4a3494d9c58c483efef438, type: 3}
    - {fileID: 21300000, guid: aeb5a865f124c6d45ba2aca94ea0507b, type: 3}
    - {fileID: 21300000, guid: 4842a166fca50864693b6b674e26e300, type: 3}
    - {fileID: 21300000, guid: af3920711b8e03c4a984933a56ee37f8, type: 3}
    - {fileID: 21300000, guid: c65d48e472b8c5e4281efbf44f57dd16, type: 3}
    - {fileID: 21300000, guid: e1db436f75bd260478136e725966f085, type: 3}
    - {fileID: 21300000, guid: 71f5b09a3a38b884d8b392a73cf25fe2, type: 3}
    - {fileID: 21300000, guid: bbda4ac45dc32634a8cf83fa49a87146, type: 3}
    - {fileID: 21300000, guid: 336257dafbc6caa468afd60807aaea4b, type: 3}
    - {fileID: 21300000, guid: d017528379684904a8677a683db6987a, type: 3}
    - {fileID: 21300000, guid: 4fbf5b42df6a2764687920c0cccad2ec, type: 3}
    - {fileID: 21300000, guid: 69294041aed397948b9f0f766a86123d, type: 3}
    - {fileID: 21300000, guid: 6da0f23a5974c8347b54cd74757422f9, type: 3}
    - {fileID: 21300000, guid: cf94cfe46fcaa5741ae50b4fcfbecae0, type: 3}
    - {fileID: 21300000, guid: fc57565b760c70a4f8b1462a89e2b08a, type: 3}
    - {fileID: 21300000, guid: 9c5859dc8ec58f54f8a07f2d4c2a79c5, type: 3}
    - {fileID: 21300000, guid: 240eb779c6a1de9408a6f893f2f496b7, type: 3}
    - {fileID: 21300000, guid: b229a5306ee8be04e9d2f3fbffbdcc7c, type: 3}
    - {fileID: 21300000, guid: 509751e780c7e6444a95a8a938b4ca96, type: 3}
    - {fileID: 21300000, guid: d8dc6943d4868bb429b99eb9f39f32a4, type: 3}
    - {fileID: 21300000, guid: 2b59e86124e58a74c8202793d4f22a44, type: 3}
    - {fileID: 21300000, guid: 04c87209010feda47a4d74f67e8998af, type: 3}
    - {fileID: 21300000, guid: 1954f3c648ad80b489d2a7d147bdbdbc, type: 3}
    - {fileID: 21300000, guid: 288a5cde4f86b1d4e9a96df1d7202b2a, type: 3}
    - {fileID: 21300000, guid: bc882fc8d9b9c5047a0544b50e6e33ac, type: 3}
    - {fileID: 21300000, guid: de61838f66124264591cff26c9ef12a1, type: 3}
    - {fileID: 21300000, guid: 6204cd7f9ee19d34789e6b5da60aeedd, type: 3}
    - {fileID: 21300000, guid: 20e85c18cc4bbe14795b892d86fec4f8, type: 3}
    - {fileID: 21300000, guid: 0e94126475584444c823421383bb1d86, type: 3}
    - {fileID: 21300000, guid: 34a48cfdde403d148a0cac6884eb1290, type: 3}
    - {fileID: 21300000, guid: e6ae448dc415bc1409238dded9e3b69f, type: 3}
    - {fileID: 21300000, guid: 7c40dc9c6a874ff49ac3a6e1ba7ebe01, type: 3}
    - {fileID: 21300000, guid: 098516ed174684d489d8ad5ff98fdbce, type: 3}
    - {fileID: 21300000, guid: 7f1e9fdd0e739d44f80f11e29cdb8761, type: 3}
    - {fileID: 21300000, guid: b42e15f18ac2d8a4abac02d8c1f4e99e, type: 3}
    - {fileID: 21300000, guid: 31c5090fe12f0c4488de71c2211f185b, type: 3}
    - {fileID: 21300000, guid: 916bbc24302ac3b4e8becacbcf6c758f, type: 3}
    - {fileID: 21300000, guid: 2e39be561e3e5354088468a956ab14e2, type: 3}
    - {fileID: 21300000, guid: bad3ad2e15a71d54998270297183b46e, type: 3}
    - {fileID: 21300000, guid: 17901e847a2864248a7ab2803a7965dc, type: 3}
    - {fileID: 21300000, guid: 7c1ab4df019c525418befabaded6881b, type: 3}
    - {fileID: 21300000, guid: da859c218ee747040beade3ea224358e, type: 3}
    - {fileID: 21300000, guid: 9dca2463741fb6244a08e94099f9a3bc, type: 3}
    - {fileID: 21300000, guid: 4507d5152a2d5444d86961a31c2f9f8f, type: 3}
    - {fileID: 21300000, guid: bb4cbe51dc79ea249a0d6851b99f24e5, type: 3}
    - {fileID: 21300000, guid: 89810e3af5cb3d1499958d6bbc4e76bf, type: 3}
    - {fileID: 21300000, guid: a22ecf8434db0b341ad16efe7642210a, type: 3}
    - {fileID: 21300000, guid: 1a4d440bc0a3f2d418f58971952cb4f3, type: 3}
    - {fileID: 21300000, guid: 7cb74e2012f97b94596126d756f22b8f, type: 3}
    - {fileID: 21300000, guid: d00bb31e018dd004f8ad174a158e143b, type: 3}
    - {fileID: 21300000, guid: 0404beb85ec0e0349ad2d54efeef1f63, type: 3}
    - {fileID: 21300000, guid: b15fdac2aef380f459a75c26bda2cf61, type: 3}
    - {fileID: 21300000, guid: 9270153ed8de27b45817fd79db4c11e6, type: 3}
    - {fileID: 21300000, guid: c037c74a9cb22a34295695780a550e26, type: 3}
    - {fileID: 21300000, guid: 931493bc8be09504aab8bbd22179f995, type: 3}
    - {fileID: 21300000, guid: 16970cf5db6eab84c9fb1da7de540c95, type: 3}
    - {fileID: 21300000, guid: 010ffac6b0fc02f45986104be8580250, type: 3}
    - {fileID: 21300000, guid: 987f65edf387d704e966fef41cd9f19f, type: 3}
    - {fileID: 21300000, guid: 430142ba070ba054aba9797e84debf4e, type: 3}
    - {fileID: 21300000, guid: 8ad98122d2db1af47ac7ebd3e020b023, type: 3}
    - {fileID: 21300000, guid: 4ee0d31d40ea8f445bf3837539dcf28b, type: 3}
    - {fileID: 21300000, guid: 4e77e9a3e8bbc3240b67bb9a4695a12f, type: 3}
    - {fileID: 21300000, guid: 9a1d9214801bedc47b66b8f21d048a5d, type: 3}
    - {fileID: 21300000, guid: b44859fc7f0eae943ae4e566b363c65b, type: 3}
    - {fileID: 21300000, guid: b59d0deaa3d892048964c6f0aac9d273, type: 3}
    - {fileID: 21300000, guid: 336cb16ec4ae4c548a400b415d382d4f, type: 3}
    - {fileID: 21300000, guid: 80448f96d26a0f94f9807f3fa9b791a7, type: 3}
    - {fileID: 21300000, guid: 46ed700045f73de449d9378610d24074, type: 3}
    - {fileID: 21300000, guid: 959f086d83c0fb54bb1c7b0545281abc, type: 3}
    - {fileID: 21300000, guid: 473345537bf0fde4dbe3b6ad997caea3, type: 3}
    - {fileID: 21300000, guid: b4ec83859e745d94bb121e98f91cfdd6, type: 3}
    - {fileID: 21300000, guid: 64e2ed87925103c43a8190785c74c4a4, type: 3}
    - {fileID: 21300000, guid: 09bf503cb4199d54bb1b698c0991a51a, type: 3}
    - {fileID: 21300000, guid: dbdc43849e0667d499f72c333155ac11, type: 3}
    - {fileID: 21300000, guid: 2fddf4cc9a7564c49b85faaf144c9a55, type: 3}
    - {fileID: 21300000, guid: 2ec07dcd124065a489cfb0c0baed12ad, type: 3}
    - {fileID: 21300000, guid: f701a4c32d86dcd4e8158ffdf676f1e0, type: 3}
    - {fileID: 21300000, guid: 3fc4ccaf6e4794949ad5862f26f74b02, type: 3}
    - {fileID: 21300000, guid: 0c9362928f487a341b821c6d5cadb937, type: 3}
    - {fileID: 21300000, guid: daae40b96e23d84459a50a5158fc218e, type: 3}
    - {fileID: 21300000, guid: 0b721c0db401e1146bac8aee97c95004, type: 3}
    - {fileID: 21300000, guid: 09a5632fc65381f448bde0bcba8bb187, type: 3}
    - {fileID: 21300000, guid: c27e946132e64d946b9c601e10a49dca, type: 3}
    - {fileID: 21300000, guid: 3d56ec93ca979574aae47881ab859b71, type: 3}
    - {fileID: 21300000, guid: 2fc6a30348a81c54fb2daa3f71db128a, type: 3}
    - {fileID: 21300000, guid: 3b09338dca6a63a44a3458108f32235c, type: 3}
    - {fileID: 21300000, guid: 3ab2d3f11620a8e46adfda99d404b6f9, type: 3}
    - {fileID: 21300000, guid: 5cb87bd8b0e5fa048a2f11f6e7703ecc, type: 3}
    - {fileID: 21300000, guid: 6b0e8704e603ba649aaf2163ee230e46, type: 3}
    - {fileID: 21300000, guid: aaba53972ec7ab6498e2fbebfae508cd, type: 3}
    - {fileID: 21300000, guid: 754f412c14b9e4b42b781eec82389931, type: 3}
    - {fileID: 21300000, guid: e7f00b008e2257f4683cdaf10a1a6bb3, type: 3}
    - {fileID: 21300000, guid: 631743c62ef89444eb9608d82399bb0d, type: 3}
    - {fileID: 21300000, guid: 08c724d62f5e76648aef73dd0e35409f, type: 3}
    - {fileID: 21300000, guid: b83977228046e0c4f9f8f07e258c2604, type: 3}
    - {fileID: 21300000, guid: bbbb3927772059b45930cd0a235449ef, type: 3}
    - {fileID: 21300000, guid: 6b2616ab0a6b2204db68cbfa6b242104, type: 3}
    - {fileID: 21300000, guid: 8b48c7be0e3a3504e903f831fdb15cea, type: 3}
    - {fileID: 21300000, guid: a9aef505af3ba3d4991b28ea12affcb3, type: 3}
    - {fileID: 21300000, guid: e0ff9c007cd9a314181d6b8233639be5, type: 3}
    - {fileID: 21300000, guid: 51374c2142d2d5e4185b811fbaf3d3db, type: 3}
    - {fileID: 21300000, guid: f07130e20a3ee254a97911d3efa4e765, type: 3}
    - {fileID: 21300000, guid: c79162837257a7d45bd19172238a0197, type: 3}
    - {fileID: 21300000, guid: a5b679afec520014087405c75ba9f0c1, type: 3}
    - {fileID: 21300000, guid: 04719082e13c49e48891a199277fee66, type: 3}
    - {fileID: 21300000, guid: 44b6abf8d91549747b4218135c386ac1, type: 3}
    - {fileID: 21300000, guid: 0826162ed4a5c994fa57a79d68af8291, type: 3}
    - {fileID: 21300000, guid: a505523e6dafea340a240dd16db83f1a, type: 3}
    - {fileID: 21300000, guid: e73d9796a7aafda40b8e2193b076c5c9, type: 3}
    - {fileID: 21300000, guid: d71a43eb5df09a340a1c60b9b7db995f, type: 3}
    - {fileID: 21300000, guid: cbe2c76e4f7971f408f4ebc7673bc463, type: 3}
    - {fileID: 21300000, guid: 3da9eb13abb46e8449ddc0ecf760ff6c, type: 3}
    - {fileID: 21300000, guid: 1246d299d8a42c746a06118cbdbea74c, type: 3}
    - {fileID: 21300000, guid: 8a1a27f718db220439fb4f3f531ff4f6, type: 3}
    - {fileID: 21300000, guid: 0f84b69c89379034b84a2991edae135f, type: 3}
    - {fileID: 21300000, guid: 8b0f3acb99bb1a649ad90f5b7b2715a4, type: 3}
    - {fileID: 21300000, guid: b8f6a4e67eb328a4c81f060c0ffe5111, type: 3}
    - {fileID: 21300000, guid: 6468afa4ac6079c4f824a0982290a4da, type: 3}
    - {fileID: 21300000, guid: 3d03ff9d2e55ba34695884124bc89ae9, type: 3}
    - {fileID: 21300000, guid: 8cae6552b439a354096d18542bc954b1, type: 3}
    - {fileID: 21300000, guid: cbe0d89e12d07c6428aa69be2b2a16f7, type: 3}
    - {fileID: 21300000, guid: 5034829f08b0776478ae278f9a375759, type: 3}
    - {fileID: 21300000, guid: c136d097ee081e94293e94bdd802c2f5, type: 3}
    - {fileID: 21300000, guid: fe99bb92e5e7bb84baaf19cc9feb203b, type: 3}
    - {fileID: 21300000, guid: d73681b96f3340b408f407a6385aa0e4, type: 3}
    - {fileID: 21300000, guid: 164e03a9a56559143ad139ca54398f72, type: 3}
    - {fileID: 21300000, guid: 0a698919adcbe704b84922efea27a9fa, type: 3}
    - {fileID: 21300000, guid: a71b2983714111845b4685e4ec883f9f, type: 3}
    - {fileID: 21300000, guid: e9135fc918cacd44088d9dbec67b7f13, type: 3}
    - {fileID: 21300000, guid: 7df91ed0c36b8c242bc95586f66ec293, type: 3}
    - {fileID: 21300000, guid: 8e3f6ecc055bea44fa03af7b685225d3, type: 3}
    - {fileID: 21300000, guid: f49c57ce9d78b8a45afc94bc8b816e1b, type: 3}
    - {fileID: 21300000, guid: 38d61b49e3b832b418e900f728485c9a, type: 3}
    - {fileID: 21300000, guid: 68d8a2dded56dc648afa46590bf07ba7, type: 3}
    - {fileID: 21300000, guid: 10e58b4685601e447b496d3439dce913, type: 3}
    - {fileID: 21300000, guid: 4b8e1a81b36c71d42b4c06b3fef2c862, type: 3}
    - {fileID: 21300000, guid: 89d328d6ceb1b404583d1dfec289de8e, type: 3}
    - {fileID: 21300000, guid: df32a43784f0290469bac9b49c2e1457, type: 3}
    - {fileID: 21300000, guid: 6fd8d8c102cfcba4b937caf9d325e935, type: 3}
    - {fileID: 21300000, guid: d1056cfe5cf624f45b23577401e7e414, type: 3}
    - {fileID: 21300000, guid: cbf09ea850209be46a5d87b89b541a96, type: 3}
    - {fileID: 21300000, guid: 3e3930b7d83336643acd1d7eb9136c69, type: 3}
    - {fileID: 21300000, guid: 925d0fbcb60e15148a6d663a83ff39bd, type: 3}
    - {fileID: 21300000, guid: 272951c36401a974db5ebecdf61fd068, type: 3}
    - {fileID: 21300000, guid: 1d252fa3f3e36804c9ae77d87e04d920, type: 3}
    - {fileID: 21300000, guid: 747c450820abec24fbe6dbf5f8c0aea0, type: 3}
    - {fileID: 21300000, guid: bb145aa4fd542cd41a51b363a194cead, type: 3}
    - {fileID: 21300000, guid: 19ac85b62fbbfee4fb3e3414a14d4e75, type: 3}
    - {fileID: 21300000, guid: f2d632c37d12f5a4db21ceee11852078, type: 3}
    - {fileID: 21300000, guid: 4c8460411321c3048a3aea1cd20a8350, type: 3}
    - {fileID: 21300000, guid: 4e29cdb971d6baf4aa6c492f33123c1b, type: 3}
    - {fileID: 21300000, guid: 0b1cb0ec79ba2a84aa933f621f474873, type: 3}
    - {fileID: 21300000, guid: 8259d2b5d18c99f40a2d563cdd848cfb, type: 3}
    - {fileID: 21300000, guid: 3f6bb887b1bb8de44bc4efab8218dd4a, type: 3}
    - {fileID: 21300000, guid: 77d5fca0deaddad42aa68da318c0a8f4, type: 3}
    - {fileID: 21300000, guid: 08035ca6fee575d47bae57e208ba2a11, type: 3}
    - {fileID: 21300000, guid: 0e7541eb0010dff47bcf37fb103ab6a8, type: 3}
    - {fileID: 21300000, guid: fdf286a41685a8e4c9aa2c6afa0e852b, type: 3}
    - {fileID: 21300000, guid: 862569327d8959c4e8ddf2148748bc0d, type: 3}
    - {fileID: 21300000, guid: 5e0d584314bbc77429b0f94c04f79a16, type: 3}
    - {fileID: 21300000, guid: 90b1c99c98a43a94398366a153552592, type: 3}
    - {fileID: 21300000, guid: ae541aff28fb5d745972a22680be27c4, type: 3}
    - {fileID: 21300000, guid: f4706a10f00e3694db53f618c2d739e8, type: 3}
    - {fileID: 21300000, guid: 6dc1595b9076c5f459a25294e2e727b5, type: 3}
    - {fileID: 21300000, guid: 402a214688b9f324285d66efbe07b967, type: 3}
    - {fileID: 21300000, guid: 684c4c4f04a14864584c9ddb8fd70b90, type: 3}
    - {fileID: 21300000, guid: 81871fa75be07c344b5973bf6f1107de, type: 3}
    - {fileID: 21300000, guid: 6f1e1e628bea6754b8f4565b50571b8c, type: 3}
    - {fileID: 21300000, guid: 638ab2146e1cfaf48bc33ee6d62b5e58, type: 3}
    - {fileID: 21300000, guid: b840286b6a9ed01419a4d5f2505b1a56, type: 3}
    - {fileID: 21300000, guid: 9539690ab41b3c640849a4009af833c2, type: 3}
    - {fileID: 21300000, guid: 0f12e306bc1deae448664c6c3b760b89, type: 3}
    - {fileID: 21300000, guid: 24781b914d5826f489e39b49e7bee7e6, type: 3}
    - {fileID: 21300000, guid: 5e0be15365f22a14ea3375aee06551cb, type: 3}
    - {fileID: 21300000, guid: 9e2d10d59c19d7541a9ad14b286a6e02, type: 3}
    - {fileID: 21300000, guid: 1f3e1e9fb3b4107488807a4ebc67da21, type: 3}
    - {fileID: 21300000, guid: db678b1cc987a0640b63896a83f0dfe7, type: 3}
    - {fileID: 21300000, guid: 90b224e255aca07418a271e4e53e2772, type: 3}
    - {fileID: 21300000, guid: 7e62ed8d5b7fb844e8e354724ec206a2, type: 3}
    - {fileID: 21300000, guid: 19fcb2fde0d104b4081086d850633d92, type: 3}
    - {fileID: 21300000, guid: 9db4ccfe296e55c4ea3a6156667a8ed7, type: 3}
  m_AnimationClipSettings:
    serializedVersion: 2
    m_AdditiveReferencePoseClip: {fileID: 0}
    m_AdditiveReferencePoseTime: 0
    m_StartTime: 0
    m_StopTime: 6.366667
    m_OrientationOffsetY: 0
    m_Level: 0
    m_CycleOffset: 0
    m_HasAdditiveReferencePose: 0
    m_LoopTime: 0
    m_LoopBlend: 0
    m_LoopBlendOrientation: 0
    m_LoopBlendPositionY: 0
    m_LoopBlendPositionXZ: 0
    m_KeepOriginalOrientation: 0
    m_KeepOriginalPositionY: 1
    m_KeepOriginalPositionXZ: 0
    m_HeightFromFeet: 0
    m_Mirror: 0
  m_EditorCurves: []
  m_EulerEditorCurves: []
  m_HasGenericRootTransform: 0
  m_HasMotionFloatCurves: 0
  m_Events: []
