%YAML 1.1
%TAG !u! tag:unity3d.com,2011:
--- !u!74 &7400000
AnimationClip:
  m_ObjectHideFlags: 0
  m_CorrespondingSourceObject: {fileID: 0}
  m_PrefabInstance: {fileID: 0}
  m_PrefabAsset: {fileID: 0}
  m_Name: 011L
  serializedVersion: 6
  m_Legacy: 0
  m_Compressed: 0
  m_UseHighQualityCurve: 1
  m_RotationCurves: []
  m_CompressedRotationCurves: []
  m_EulerCurves: []
  m_PositionCurves: []
  m_ScaleCurves: []
  m_FloatCurves: []
  m_PPtrCurves:
  - curve:
    - time: 0
      value: {fileID: 21300000, guid: 896b6972ad3c97540bb59b65114fca09, type: 3}
    - time: 0.033333335
      value: {fileID: 21300000, guid: 0cd36e168559a2d42aa900adde2cc2f1, type: 3}
    - time: 0.06666667
      value: {fileID: 21300000, guid: b095f12dff0472243b341308f9714a75, type: 3}
    - time: 0.1
      value: {fileID: 21300000, guid: 90e97dd8fac43784a8c7c2405a493706, type: 3}
    - time: 0.13333334
      value: {fileID: 21300000, guid: 2454f60db41607b4f8cc7e93a3adb335, type: 3}
    - time: 0.16666667
      value: {fileID: 21300000, guid: b23b3fe3a7bc193478b7e98bcd78e631, type: 3}
    - time: 0.2
      value: {fileID: 21300000, guid: 5de91aef1f019cf4bb5410f171979479, type: 3}
    - time: 0.23333333
      value: {fileID: 21300000, guid: 772b8c64efb93b142b87c6dc7fa0d2ff, type: 3}
    - time: 0.26666668
      value: {fileID: 21300000, guid: 3db82cbf33829a74e9d7f545d94fe608, type: 3}
    - time: 0.3
      value: {fileID: 21300000, guid: 1af9670c3b46fa54ea42714d5244b0ea, type: 3}
    - time: 0.33333334
      value: {fileID: 21300000, guid: 0a3a36308ac7c7e4691078cca61808a7, type: 3}
    - time: 0.36666667
      value: {fileID: 21300000, guid: d9cd1a8ddbc7e104bac6f575e459d33c, type: 3}
    - time: 0.4
      value: {fileID: 21300000, guid: 7a3471d492a73e54594b833a95a7283c, type: 3}
    - time: 0.43333334
      value: {fileID: 21300000, guid: 957c487a44af77545a4246d17339521f, type: 3}
    - time: 0.46666667
      value: {fileID: 21300000, guid: 945e5a4db975eaf4ea01fe9dd9d21784, type: 3}
    - time: 0.5
      value: {fileID: 21300000, guid: 8b01e242900619f45b319d5cbbfa52f9, type: 3}
    - time: 0.53333336
      value: {fileID: 21300000, guid: 8d89ee13114ee8f4b9a914329468939e, type: 3}
    - time: 0.56666666
      value: {fileID: 21300000, guid: 011a727b01c06e4448573c5b2c6d47eb, type: 3}
    - time: 0.6
      value: {fileID: 21300000, guid: b20d2f4a96b14a44294d3b6bf97ae62e, type: 3}
    - time: 0.6333333
      value: {fileID: 21300000, guid: a71d0880d53b96748b957af3c7b07c8b, type: 3}
    - time: 0.6666667
      value: {fileID: 21300000, guid: f896cbd3a281bc74ba3d6f4c6f619ebe, type: 3}
    - time: 0.7
      value: {fileID: 21300000, guid: ee1511bd057b7f9488b67af11113a587, type: 3}
    - time: 0.73333335
      value: {fileID: 21300000, guid: 7c3a068960847134591a5837133770e7, type: 3}
    - time: 0.76666665
      value: {fileID: 21300000, guid: f4aeb2afd4fdc404093155b45f30bb32, type: 3}
    - time: 0.8
      value: {fileID: 21300000, guid: 533fc19e7051da642abb74fe8cec3b29, type: 3}
    - time: 0.8333333
      value: {fileID: 21300000, guid: 9fbe53e7716e062489c766f6295c17a2, type: 3}
    - time: 0.8666667
      value: {fileID: 21300000, guid: c5371ffa34378cf489c1ca396f6ceddd, type: 3}
    - time: 0.9
      value: {fileID: 21300000, guid: cbb8853ca60343c41864de1f83451441, type: 3}
    - time: 0.93333334
      value: {fileID: 21300000, guid: 5cc5b55457fda4b4791339fabb5c8025, type: 3}
    - time: 0.96666664
      value: {fileID: 21300000, guid: 9e79b0361c3be5949acf755338857b35, type: 3}
    - time: 1
      value: {fileID: 21300000, guid: 4b22dfa765fd9b94cab4ef1b0c4062e1, type: 3}
    - time: 1.0333333
      value: {fileID: 21300000, guid: 13f2fa46cd4a98b42b6e72d2801d6ed0, type: 3}
    - time: 1.0666667
      value: {fileID: 21300000, guid: 2bbc3a7d1c9a1c644bb92444cd389944, type: 3}
    - time: 1.1
      value: {fileID: 21300000, guid: 7a599a92dc54a7e42b6bb1c97a8c06ca, type: 3}
    - time: 1.1333333
      value: {fileID: 21300000, guid: e17c3d08b0eeaf34f8bcc5fd4655a6ee, type: 3}
    - time: 1.1666666
      value: {fileID: 21300000, guid: 300b469bd673ad2438240d1da949cc70, type: 3}
    - time: 1.2
      value: {fileID: 21300000, guid: 05f0337633dd92b4a918833bc041481a, type: 3}
    - time: 1.2333333
      value: {fileID: 21300000, guid: 3ced96dcddad5174a865dbcbe8e42fd9, type: 3}
    - time: 1.2666667
      value: {fileID: 21300000, guid: 7a045eb856b69194281d41351e03e032, type: 3}
    - time: 1.3
      value: {fileID: 21300000, guid: b174c17339b2a854592f6b1ed586067d, type: 3}
    - time: 1.3333334
      value: {fileID: 21300000, guid: 24f3f5be027a1c742b7de49b808a5213, type: 3}
    - time: 1.3666667
      value: {fileID: 21300000, guid: dfab436a6a4276c438285a023a1f0d3f, type: 3}
    - time: 1.4
      value: {fileID: 21300000, guid: 1c643e14d8e234942958a2db730391e4, type: 3}
    - time: 1.4333333
      value: {fileID: 21300000, guid: e6cbf0a5c7ecb6649b69afc0efb47d22, type: 3}
    - time: 1.4666667
      value: {fileID: 21300000, guid: fdbd4e3a6a224ef4b9e269ba3f56a748, type: 3}
    - time: 1.5
      value: {fileID: 21300000, guid: f092d0b9854ad7e409af3b3310333098, type: 3}
    - time: 1.5333333
      value: {fileID: 21300000, guid: 200631b79d65b1f44b8a611c1bdafc8e, type: 3}
    - time: 1.5666667
      value: {fileID: 21300000, guid: f419ab582a5ddb34189e8051f5368857, type: 3}
    - time: 1.6
      value: {fileID: 21300000, guid: f898ad35faf304744a9c4fa22fed270d, type: 3}
    - time: 1.6333333
      value: {fileID: 21300000, guid: b5752cc75a565d148aa5f013f860391a, type: 3}
    - time: 1.6666666
      value: {fileID: 21300000, guid: 58a2b5895a7254144952eea9115b5837, type: 3}
    - time: 1.7
      value: {fileID: 21300000, guid: aa1ac29e23e59ce42bc1aa4e5bb13c0f, type: 3}
    - time: 1.7333333
      value: {fileID: 21300000, guid: a2d85a8eb2ff1a2408b3b013cbe8240d, type: 3}
    - time: 1.7666667
      value: {fileID: 21300000, guid: 748ca8065afe835419e27aa92fb87f6a, type: 3}
    - time: 1.8
      value: {fileID: 21300000, guid: c41a9901cc2e86a4e8969f4d46a4753d, type: 3}
    - time: 1.8333334
      value: {fileID: 21300000, guid: 789f6275a0ac8a14089cf99668363bfd, type: 3}
    - time: 1.8666667
      value: {fileID: 21300000, guid: 753caeb5ad9c29641be4d6541777389c, type: 3}
    - time: 1.9
      value: {fileID: 21300000, guid: 60e86cea34cdb3c48830dc868e8da17f, type: 3}
    - time: 1.9333333
      value: {fileID: 21300000, guid: d732d5fcafeead24e9405f7bb5189193, type: 3}
    - time: 1.9666667
      value: {fileID: 21300000, guid: 6126c6c96dbc16640bc1b93c1ac6f0c1, type: 3}
    - time: 2
      value: {fileID: 21300000, guid: b30e08dd8fc49964e854774f32096ce2, type: 3}
    - time: 2.0333333
      value: {fileID: 21300000, guid: 3ac5d062caa03b84eae9fe96d1540aa3, type: 3}
    - time: 2.0666666
      value: {fileID: 21300000, guid: ba5e3e93614477a40918aa28e4748648, type: 3}
    - time: 2.1
      value: {fileID: 21300000, guid: a75989838d34df44391c6c5e2687429d, type: 3}
    - time: 2.1333334
      value: {fileID: 21300000, guid: a4d540bb55cf1934e9eaafb5963fd757, type: 3}
    - time: 2.1666667
      value: {fileID: 21300000, guid: 4fc5ef97cb61b5344b7516231e6f4647, type: 3}
    - time: 2.2
      value: {fileID: 21300000, guid: 945e7e74849bd6d4bbdc96a217e7eafa, type: 3}
    - time: 2.2333333
      value: {fileID: 21300000, guid: 146286f717b1b0e48aa414e256ba9efd, type: 3}
    - time: 2.2666667
      value: {fileID: 21300000, guid: d7cb6c509d89410419c1c80e92cd94c6, type: 3}
    - time: 2.3
      value: {fileID: 21300000, guid: 749b16647e6d0a74dbdaa7dd5ee3cf54, type: 3}
    - time: 2.3333333
      value: {fileID: 21300000, guid: 7d2349fc085b4df48bcc82fceff25bce, type: 3}
    - time: 2.3666666
      value: {fileID: 21300000, guid: f8133346a728ba74ea779c07a33d60af, type: 3}
    - time: 2.4
      value: {fileID: 21300000, guid: 10d27c84e77d8ca4e8743a3239c41f36, type: 3}
    - time: 2.4333334
      value: {fileID: 21300000, guid: 0e7d7bec8ff6e0e41a795941a21cb12c, type: 3}
    - time: 2.4666667
      value: {fileID: 21300000, guid: 186a6a3b5bd4d0d4683a4993b8520836, type: 3}
    - time: 2.5
      value: {fileID: 21300000, guid: eb2df21f7e259f44590a471e7abe11bc, type: 3}
    - time: 2.5333333
      value: {fileID: 21300000, guid: 98edc3a5522581740a9428ed56b552e7, type: 3}
    - time: 2.5666666
      value: {fileID: 21300000, guid: cbcdf2c6fbcaac5469a3212462e9b39f, type: 3}
    - time: 2.6
      value: {fileID: 21300000, guid: e01479383cc02fe4fa3a7336573c09cc, type: 3}
    - time: 2.6333334
      value: {fileID: 21300000, guid: f665c43207cbed1479900f70bb8914d6, type: 3}
    - time: 2.6666667
      value: {fileID: 21300000, guid: b942c0d6c2893b84fb817f82fdfc1d45, type: 3}
    - time: 2.7
      value: {fileID: 21300000, guid: 20854c61bc8d9ea4e9660832c9f69fb2, type: 3}
    - time: 2.7333333
      value: {fileID: 21300000, guid: 61dd195b2d42967488ee375a5fd9424e, type: 3}
    - time: 2.7666667
      value: {fileID: 21300000, guid: dfbbd48ac3e38e54188a02289ba12935, type: 3}
    - time: 2.8
      value: {fileID: 21300000, guid: ebb14eac1601f2643950fd5da674f246, type: 3}
    - time: 2.8333333
      value: {fileID: 21300000, guid: e5a320f08e55f1041999036c58638121, type: 3}
    - time: 2.8666666
      value: {fileID: 21300000, guid: c4fa87994c679ee4a9e10fafd34a0f2d, type: 3}
    - time: 2.9
      value: {fileID: 21300000, guid: d6b5931ba50b62f4796077f73f6303c0, type: 3}
    - time: 2.9333334
      value: {fileID: 21300000, guid: 70e9ad66e4ccb0542ade33b1c3e20dbf, type: 3}
    - time: 2.9666667
      value: {fileID: 21300000, guid: 61eeb64c40cc0114390529d6b8445017, type: 3}
    - time: 3
      value: {fileID: 21300000, guid: 4725f912ca04b4843afa98172a5f2433, type: 3}
    - time: 3.0333333
      value: {fileID: 21300000, guid: 44329518965fc4e41b692392c3fae3f3, type: 3}
    - time: 3.0666666
      value: {fileID: 21300000, guid: 4c4a7cb920d26a649979eb8e970c87a7, type: 3}
    - time: 3.1
      value: {fileID: 21300000, guid: a2af4630b6d24754f8e998bf721ddf9c, type: 3}
    - time: 3.1333334
      value: {fileID: 21300000, guid: 535ec6f22753e5d4f879278bb602ad8f, type: 3}
    - time: 3.1666667
      value: {fileID: 21300000, guid: 1cc686c7b849f0e4cbac19830221a2b4, type: 3}
    - time: 3.2
      value: {fileID: 21300000, guid: 5e8e92632a689f74d94c49a9d5797ae9, type: 3}
    - time: 3.2333333
      value: {fileID: 21300000, guid: 1aa534af97d19fe4395a1f404421f1b6, type: 3}
    - time: 3.2666667
      value: {fileID: 21300000, guid: 9c2b6a954c4e6cf42b977d98febfdf07, type: 3}
    - time: 3.3
      value: {fileID: 21300000, guid: 7945eed78a1634e4e92682264d37a96b, type: 3}
    - time: 3.3333333
      value: {fileID: 21300000, guid: 349c68f9eb1b0ba4a9a7431b0ce20487, type: 3}
    - time: 3.3666666
      value: {fileID: 21300000, guid: 77fc143581bd3524da918703eacb67c7, type: 3}
    - time: 3.4
      value: {fileID: 21300000, guid: cf45b69a5ab17f0449a5b07eea6f84a2, type: 3}
    - time: 3.4333334
      value: {fileID: 21300000, guid: 54f90cd33a76e1c4390893bec5386b4a, type: 3}
    - time: 3.4666667
      value: {fileID: 21300000, guid: 76691f16fbbe10b408b3b246979f6378, type: 3}
    - time: 3.5
      value: {fileID: 21300000, guid: 91e0d28580c58734bbe67fb4fa667963, type: 3}
    - time: 3.5333333
      value: {fileID: 21300000, guid: fadcc988d1686e740b038dc4a8bd57d2, type: 3}
    - time: 3.5666666
      value: {fileID: 21300000, guid: 08e03a95c9e44464791a600dd84f574b, type: 3}
    - time: 3.6
      value: {fileID: 21300000, guid: 6c2b6551390038f47bc51bed1e031c9a, type: 3}
    - time: 3.6333334
      value: {fileID: 21300000, guid: f73224e2dc2ba2c42b816258d4599369, type: 3}
    - time: 3.6666667
      value: {fileID: 21300000, guid: 6dca1bed8e8f24b408fffe60c57fa208, type: 3}
    - time: 3.7
      value: {fileID: 21300000, guid: 48091f8595d503148aa8ad4728cfa7ed, type: 3}
    - time: 3.7333333
      value: {fileID: 21300000, guid: 4e884aa671bff4147b4e602b47c724ae, type: 3}
    - time: 3.7666667
      value: {fileID: 21300000, guid: 50ce5f35d121d1543a8e6f370368a630, type: 3}
    - time: 3.8
      value: {fileID: 21300000, guid: 34def30a37a4458418129a871dcd1c2a, type: 3}
    - time: 3.8333333
      value: {fileID: 21300000, guid: 9b24062dde745434cb6da874583bfda6, type: 3}
    - time: 3.8666666
      value: {fileID: 21300000, guid: 1674ee787574d5449a5eb077587ea0aa, type: 3}
    - time: 3.9
      value: {fileID: 21300000, guid: e97f9fc26bba4bf42867940f0b28a1a6, type: 3}
    - time: 3.9333334
      value: {fileID: 21300000, guid: 7256c3ce868b20149a0144067de6654e, type: 3}
    - time: 3.9666667
      value: {fileID: 21300000, guid: f75bb79beacb331469e3852af2ee8fb6, type: 3}
    - time: 4
      value: {fileID: 21300000, guid: 3916d297bc71d3047b84a85775f068b2, type: 3}
    - time: 4.0333333
      value: {fileID: 21300000, guid: 6fc0bb8dbd2da9d40a339c1b95f3579d, type: 3}
    - time: 4.0666666
      value: {fileID: 21300000, guid: 35a33676fb034214e88f91dec79e8ef7, type: 3}
    - time: 4.1
      value: {fileID: 21300000, guid: 3e7d49c191f19fb41bb9f8bbac5f8b61, type: 3}
    - time: 4.133333
      value: {fileID: 21300000, guid: 3c1df40eca5601a49afbe18d48cdcd55, type: 3}
    - time: 4.1666665
      value: {fileID: 21300000, guid: fb69ce4b5e669074f8121ab4e8ab2935, type: 3}
    - time: 4.2
      value: {fileID: 21300000, guid: f81a1fc57fa2dc049950a9524ed376b6, type: 3}
    - time: 4.233333
      value: {fileID: 21300000, guid: 223ed4b025aa47e40b9760bb96ab5f7f, type: 3}
    - time: 4.266667
      value: {fileID: 21300000, guid: dc16ab989d5398e438fa1a3a00bc595c, type: 3}
    - time: 4.3
      value: {fileID: 21300000, guid: 633dcbab897c13a4d83d86ce8723d6b2, type: 3}
    - time: 4.3333335
      value: {fileID: 21300000, guid: b930d5587245bac48ae7ba0a69414027, type: 3}
    - time: 4.366667
      value: {fileID: 21300000, guid: 0190e90bdbf2ead4ba4adf838c16c127, type: 3}
    - time: 4.4
      value: {fileID: 21300000, guid: 81dff039d1d65db4790a41af1ce35bce, type: 3}
    - time: 4.4333334
      value: {fileID: 21300000, guid: 99ec4c1656437f14ebebb4df17dccbe0, type: 3}
    - time: 4.4666667
      value: {fileID: 21300000, guid: 22f1de48737f00642a5f8844e2317e78, type: 3}
    - time: 4.5
      value: {fileID: 21300000, guid: 884446e6866facc4a8631aa69e59b522, type: 3}
    - time: 4.5333333
      value: {fileID: 21300000, guid: b4546d9e42782de4792bb580164e0f1f, type: 3}
    - time: 4.5666666
      value: {fileID: 21300000, guid: 3707d1c87294caf40b87fe4502e91744, type: 3}
    - time: 4.6
      value: {fileID: 21300000, guid: 0a99dc394c04fe249affb9423011bf71, type: 3}
    - time: 4.633333
      value: {fileID: 21300000, guid: 05a82c2c5a00fac4b8ab09546e93a7d0, type: 3}
    - time: 4.6666665
      value: {fileID: 21300000, guid: db8e741816b87c6429192946e7e5aaec, type: 3}
    - time: 4.7
      value: {fileID: 21300000, guid: d177cff28ff8b904f866beafaab56d62, type: 3}
    - time: 4.733333
      value: {fileID: 21300000, guid: b28b2cf3eed4bce4783b8b31872dc8ea, type: 3}
    - time: 4.766667
      value: {fileID: 21300000, guid: 5c2a017bf76ab2741b2489e8c28f2352, type: 3}
    - time: 4.8
      value: {fileID: 21300000, guid: c47a32998e415b64a84f39098d87e62e, type: 3}
    - time: 4.8333335
      value: {fileID: 21300000, guid: 85ba65493dba7a440aa5e524db2b9ae9, type: 3}
    - time: 4.866667
      value: {fileID: 21300000, guid: 4812d84c25e42fc4a8abb9e48dbeeb26, type: 3}
    - time: 4.9
      value: {fileID: 21300000, guid: 17df2d9989da5c3498b402e3f1f40ab5, type: 3}
    - time: 4.9333334
      value: {fileID: 21300000, guid: 537801726aadc454e9137db9b470ba12, type: 3}
    - time: 4.9666667
      value: {fileID: 21300000, guid: 074bccbc24011734cb43a857d5e5455e, type: 3}
    - time: 5
      value: {fileID: 21300000, guid: b56d183cc6d2e6c47832757a1a799a5f, type: 3}
    - time: 5.0333333
      value: {fileID: 21300000, guid: b53cd8605c899424d983797df33a69b7, type: 3}
    - time: 5.0666666
      value: {fileID: 21300000, guid: d6bd16965a973684d837d44265a547a2, type: 3}
    - time: 5.1
      value: {fileID: 21300000, guid: 659cf8262d4b13d42870b9d18870cbb2, type: 3}
    - time: 5.133333
      value: {fileID: 21300000, guid: 28186673e0741c047a5bd8140162a3eb, type: 3}
    - time: 5.1666665
      value: {fileID: 21300000, guid: 2bc50f84442c7f342b8a7c37f0f3a3f7, type: 3}
    - time: 5.2
      value: {fileID: 21300000, guid: ef3f9e0342a513046886208c1ccdcd02, type: 3}
    - time: 5.233333
      value: {fileID: 21300000, guid: 905cb4bab8f52124f84ed63c6c790937, type: 3}
    - time: 5.266667
      value: {fileID: 21300000, guid: 632acf94b28305949ad92af83882861c, type: 3}
    - time: 5.3
      value: {fileID: 21300000, guid: aaa1c16546f36af4a8b3d444a18f9217, type: 3}
    - time: 5.3333335
      value: {fileID: 21300000, guid: 25fb49b2a98c03a408717fdc1d840ac8, type: 3}
    - time: 5.366667
      value: {fileID: 21300000, guid: c11e5d2c7fc1fcc42b8048ccca7e31c4, type: 3}
    - time: 5.4
      value: {fileID: 21300000, guid: 1aae20b2d374f594f99a5b70c45d315e, type: 3}
    - time: 5.4333334
      value: {fileID: 21300000, guid: ad8b8a299d5a471418aa7a13c98064d2, type: 3}
    - time: 5.4666667
      value: {fileID: 21300000, guid: 297495a90f73a014eb483cd72102ff5d, type: 3}
    - time: 5.5
      value: {fileID: 21300000, guid: 7320af335c621ed4b99510f67eca5bf6, type: 3}
    - time: 5.5333333
      value: {fileID: 21300000, guid: 9cbf1f333ad3f314693f9b0de1b9cdd7, type: 3}
    - time: 5.5666666
      value: {fileID: 21300000, guid: 93c3fd7822dd6c24092cc718aefe1079, type: 3}
    - time: 5.6
      value: {fileID: 21300000, guid: 88aba02c271f6274a9613e8f14acaa1a, type: 3}
    - time: 5.633333
      value: {fileID: 21300000, guid: 2da461308cd62a24da531dfefc1dad72, type: 3}
    - time: 5.6666665
      value: {fileID: 21300000, guid: 42a5fb231ccab1944ac3c2f061d95ad7, type: 3}
    - time: 5.7
      value: {fileID: 21300000, guid: 576a71e99798f2f47ba3401f3c7a8a42, type: 3}
    - time: 5.733333
      value: {fileID: 21300000, guid: 431a1c4316a04cc48a34e289f56224bc, type: 3}
    - time: 5.766667
      value: {fileID: 21300000, guid: 171ff2e22a4762f45958dea94dda496b, type: 3}
    - time: 5.8
      value: {fileID: 21300000, guid: b4b0979755e0bbe4a9ba252e6e5207ad, type: 3}
    - time: 5.8333335
      value: {fileID: 21300000, guid: 579d6b5ecb7a8b643b3c053ca9ad3bb3, type: 3}
    - time: 5.866667
      value: {fileID: 21300000, guid: 3abcfe8fd78e1d94f9e646db755d502f, type: 3}
    - time: 5.9
      value: {fileID: 21300000, guid: 936de52005561784da969a5518487c65, type: 3}
    - time: 5.9333334
      value: {fileID: 21300000, guid: 7aac4f971072cf6419940b983d9e98f6, type: 3}
    - time: 5.9666667
      value: {fileID: 21300000, guid: 445511d20bacb5d45b14e022db601a16, type: 3}
    - time: 6
      value: {fileID: 21300000, guid: e516efc195fdc5e498fb9bf9c9b12e23, type: 3}
    - time: 6.0333333
      value: {fileID: 21300000, guid: c2f881a78fdda3d4f941ecdc61b13795, type: 3}
    - time: 6.0666666
      value: {fileID: 21300000, guid: dfb19c71beae0404ab8ba1e8f73a0725, type: 3}
    - time: 6.1
      value: {fileID: 21300000, guid: a83b0a80a424f3e4ea93d7a990bc58d9, type: 3}
    - time: 6.133333
      value: {fileID: 21300000, guid: c722adb0199f949449c062a10ae1cb20, type: 3}
    - time: 6.1666665
      value: {fileID: 21300000, guid: da926505a3592894799ee329dfabc6c2, type: 3}
    - time: 6.2
      value: {fileID: 21300000, guid: dfb5ef5f5c6312341aec7f662d16c418, type: 3}
    - time: 6.233333
      value: {fileID: 21300000, guid: 7423957a135fdb8408c71379193c75bf, type: 3}
    - time: 6.266667
      value: {fileID: 21300000, guid: 5a4979ef1596c804085813cbb943ccef, type: 3}
    - time: 6.3
      value: {fileID: 21300000, guid: 1cf8affe0d6b9ec44af4bb396aff5b76, type: 3}
    - time: 6.3333335
      value: {fileID: 21300000, guid: ef0c783e80e88fe47a0d1e73e300e9e7, type: 3}
    - time: 6.366667
      value: {fileID: 21300000, guid: 61a389fd91b34b64c8ec687ede2e9d5c, type: 3}
    - time: 6.4
      value: {fileID: 21300000, guid: fca50ad6958156b4d9f59b9c433ef3c1, type: 3}
    - time: 6.4333334
      value: {fileID: 21300000, guid: 2cbf10c2f28c936488d94f50110ea941, type: 3}
    - time: 6.4666667
      value: {fileID: 21300000, guid: fd9a023010c0c524fbf9709a8e0fce53, type: 3}
    - time: 6.5
      value: {fileID: 21300000, guid: 8087ce65831aac44c9d4f5cb6eed0460, type: 3}
    - time: 6.5333333
      value: {fileID: 21300000, guid: 30d81223b23754c4c97f3773a3c91e4b, type: 3}
    - time: 6.5666666
      value: {fileID: 21300000, guid: 8d89924b9e708e9499cf2ccfa71f6449, type: 3}
    - time: 6.6
      value: {fileID: 21300000, guid: 259cfc4f9243e4349b56095a4fbd360b, type: 3}
    - time: 6.633333
      value: {fileID: 21300000, guid: 8dd6084d39e356d4aa3cfaaaa4b146a4, type: 3}
    - time: 6.6666665
      value: {fileID: 21300000, guid: b28e78626e313dd4a9fbb837e02085b7, type: 3}
    - time: 6.7
      value: {fileID: 21300000, guid: 07d91385a730fe748b435ded98a68327, type: 3}
    - time: 6.733333
      value: {fileID: 21300000, guid: 4b825325fc351f2448b1c06548446690, type: 3}
    - time: 6.766667
      value: {fileID: 21300000, guid: 3d91a5f5732276e4a92c9e9abf99dd79, type: 3}
    - time: 6.8
      value: {fileID: 21300000, guid: cb4477eda3116da4eac499657a11c4f2, type: 3}
    - time: 6.8333335
      value: {fileID: 21300000, guid: 9ea79858c10fca443a12b682c7c3090d, type: 3}
    - time: 6.866667
      value: {fileID: 21300000, guid: 6a5c62008f8beac4e89acabf1bb98175, type: 3}
    - time: 6.9
      value: {fileID: 21300000, guid: 619ab84c33fffab4dbc2fcbf841e8c03, type: 3}
    - time: 6.9333334
      value: {fileID: 21300000, guid: f56b7e3190cec924b8a921a72b7dc359, type: 3}
    - time: 6.9666667
      value: {fileID: 21300000, guid: 85d46afb9dce43640b5dbf556ab22483, type: 3}
    - time: 7
      value: {fileID: 21300000, guid: 296751d258953c943a6b158b928f6531, type: 3}
    - time: 7.0333333
      value: {fileID: 21300000, guid: 7a0c57e7c24d5c645b555a57800ac4c8, type: 3}
    - time: 7.0666666
      value: {fileID: 21300000, guid: bea224a5702fd9046a3f2998c01a324f, type: 3}
    - time: 7.1
      value: {fileID: 21300000, guid: 76de9455ce1f34548808a4d4ed08c872, type: 3}
    - time: 7.133333
      value: {fileID: 21300000, guid: bfbbf26e45e0e474bac8ee5bbd3bd6bb, type: 3}
    - time: 7.1666665
      value: {fileID: 21300000, guid: 2e22c8312203d4c4cad5ddfd0c5b4e7b, type: 3}
    - time: 7.2
      value: {fileID: 21300000, guid: b6a6aa6d900d1464d97058930fd59a00, type: 3}
    - time: 7.233333
      value: {fileID: 21300000, guid: ed1bad89130b3a44e94a02cb99b7dfa5, type: 3}
    - time: 7.266667
      value: {fileID: 21300000, guid: de4bb72629690a8438b76e350d4623fb, type: 3}
    - time: 7.3
      value: {fileID: 21300000, guid: 4bbd0e9030e59bd499b5301de2066ddb, type: 3}
    attribute: m_Sprite
    path: 
    classID: 212
    script: {fileID: 0}
  m_SampleRate: 30
  m_WrapMode: 0
  m_Bounds:
    m_Center: {x: 0, y: 0, z: 0}
    m_Extent: {x: 0, y: 0, z: 0}
  m_ClipBindingConstant:
    genericBindings:
    - serializedVersion: 2
      path: 0
      attribute: 0
      script: {fileID: 0}
      typeID: 212
      customType: 23
      isPPtrCurve: 1
    pptrCurveMapping:
    - {fileID: 21300000, guid: 896b6972ad3c97540bb59b65114fca09, type: 3}
    - {fileID: 21300000, guid: 0cd36e168559a2d42aa900adde2cc2f1, type: 3}
    - {fileID: 21300000, guid: b095f12dff0472243b341308f9714a75, type: 3}
    - {fileID: 21300000, guid: 90e97dd8fac43784a8c7c2405a493706, type: 3}
    - {fileID: 21300000, guid: 2454f60db41607b4f8cc7e93a3adb335, type: 3}
    - {fileID: 21300000, guid: b23b3fe3a7bc193478b7e98bcd78e631, type: 3}
    - {fileID: 21300000, guid: 5de91aef1f019cf4bb5410f171979479, type: 3}
    - {fileID: 21300000, guid: 772b8c64efb93b142b87c6dc7fa0d2ff, type: 3}
    - {fileID: 21300000, guid: 3db82cbf33829a74e9d7f545d94fe608, type: 3}
    - {fileID: 21300000, guid: 1af9670c3b46fa54ea42714d5244b0ea, type: 3}
    - {fileID: 21300000, guid: 0a3a36308ac7c7e4691078cca61808a7, type: 3}
    - {fileID: 21300000, guid: d9cd1a8ddbc7e104bac6f575e459d33c, type: 3}
    - {fileID: 21300000, guid: 7a3471d492a73e54594b833a95a7283c, type: 3}
    - {fileID: 21300000, guid: 957c487a44af77545a4246d17339521f, type: 3}
    - {fileID: 21300000, guid: 945e5a4db975eaf4ea01fe9dd9d21784, type: 3}
    - {fileID: 21300000, guid: 8b01e242900619f45b319d5cbbfa52f9, type: 3}
    - {fileID: 21300000, guid: 8d89ee13114ee8f4b9a914329468939e, type: 3}
    - {fileID: 21300000, guid: 011a727b01c06e4448573c5b2c6d47eb, type: 3}
    - {fileID: 21300000, guid: b20d2f4a96b14a44294d3b6bf97ae62e, type: 3}
    - {fileID: 21300000, guid: a71d0880d53b96748b957af3c7b07c8b, type: 3}
    - {fileID: 21300000, guid: f896cbd3a281bc74ba3d6f4c6f619ebe, type: 3}
    - {fileID: 21300000, guid: ee1511bd057b7f9488b67af11113a587, type: 3}
    - {fileID: 21300000, guid: 7c3a068960847134591a5837133770e7, type: 3}
    - {fileID: 21300000, guid: f4aeb2afd4fdc404093155b45f30bb32, type: 3}
    - {fileID: 21300000, guid: 533fc19e7051da642abb74fe8cec3b29, type: 3}
    - {fileID: 21300000, guid: 9fbe53e7716e062489c766f6295c17a2, type: 3}
    - {fileID: 21300000, guid: c5371ffa34378cf489c1ca396f6ceddd, type: 3}
    - {fileID: 21300000, guid: cbb8853ca60343c41864de1f83451441, type: 3}
    - {fileID: 21300000, guid: 5cc5b55457fda4b4791339fabb5c8025, type: 3}
    - {fileID: 21300000, guid: 9e79b0361c3be5949acf755338857b35, type: 3}
    - {fileID: 21300000, guid: 4b22dfa765fd9b94cab4ef1b0c4062e1, type: 3}
    - {fileID: 21300000, guid: 13f2fa46cd4a98b42b6e72d2801d6ed0, type: 3}
    - {fileID: 21300000, guid: 2bbc3a7d1c9a1c644bb92444cd389944, type: 3}
    - {fileID: 21300000, guid: 7a599a92dc54a7e42b6bb1c97a8c06ca, type: 3}
    - {fileID: 21300000, guid: e17c3d08b0eeaf34f8bcc5fd4655a6ee, type: 3}
    - {fileID: 21300000, guid: 300b469bd673ad2438240d1da949cc70, type: 3}
    - {fileID: 21300000, guid: 05f0337633dd92b4a918833bc041481a, type: 3}
    - {fileID: 21300000, guid: 3ced96dcddad5174a865dbcbe8e42fd9, type: 3}
    - {fileID: 21300000, guid: 7a045eb856b69194281d41351e03e032, type: 3}
    - {fileID: 21300000, guid: b174c17339b2a854592f6b1ed586067d, type: 3}
    - {fileID: 21300000, guid: 24f3f5be027a1c742b7de49b808a5213, type: 3}
    - {fileID: 21300000, guid: dfab436a6a4276c438285a023a1f0d3f, type: 3}
    - {fileID: 21300000, guid: 1c643e14d8e234942958a2db730391e4, type: 3}
    - {fileID: 21300000, guid: e6cbf0a5c7ecb6649b69afc0efb47d22, type: 3}
    - {fileID: 21300000, guid: fdbd4e3a6a224ef4b9e269ba3f56a748, type: 3}
    - {fileID: 21300000, guid: f092d0b9854ad7e409af3b3310333098, type: 3}
    - {fileID: 21300000, guid: 200631b79d65b1f44b8a611c1bdafc8e, type: 3}
    - {fileID: 21300000, guid: f419ab582a5ddb34189e8051f5368857, type: 3}
    - {fileID: 21300000, guid: f898ad35faf304744a9c4fa22fed270d, type: 3}
    - {fileID: 21300000, guid: b5752cc75a565d148aa5f013f860391a, type: 3}
    - {fileID: 21300000, guid: 58a2b5895a7254144952eea9115b5837, type: 3}
    - {fileID: 21300000, guid: aa1ac29e23e59ce42bc1aa4e5bb13c0f, type: 3}
    - {fileID: 21300000, guid: a2d85a8eb2ff1a2408b3b013cbe8240d, type: 3}
    - {fileID: 21300000, guid: 748ca8065afe835419e27aa92fb87f6a, type: 3}
    - {fileID: 21300000, guid: c41a9901cc2e86a4e8969f4d46a4753d, type: 3}
    - {fileID: 21300000, guid: 789f6275a0ac8a14089cf99668363bfd, type: 3}
    - {fileID: 21300000, guid: 753caeb5ad9c29641be4d6541777389c, type: 3}
    - {fileID: 21300000, guid: 60e86cea34cdb3c48830dc868e8da17f, type: 3}
    - {fileID: 21300000, guid: d732d5fcafeead24e9405f7bb5189193, type: 3}
    - {fileID: 21300000, guid: 6126c6c96dbc16640bc1b93c1ac6f0c1, type: 3}
    - {fileID: 21300000, guid: b30e08dd8fc49964e854774f32096ce2, type: 3}
    - {fileID: 21300000, guid: 3ac5d062caa03b84eae9fe96d1540aa3, type: 3}
    - {fileID: 21300000, guid: ba5e3e93614477a40918aa28e4748648, type: 3}
    - {fileID: 21300000, guid: a75989838d34df44391c6c5e2687429d, type: 3}
    - {fileID: 21300000, guid: a4d540bb55cf1934e9eaafb5963fd757, type: 3}
    - {fileID: 21300000, guid: 4fc5ef97cb61b5344b7516231e6f4647, type: 3}
    - {fileID: 21300000, guid: 945e7e74849bd6d4bbdc96a217e7eafa, type: 3}
    - {fileID: 21300000, guid: 146286f717b1b0e48aa414e256ba9efd, type: 3}
    - {fileID: 21300000, guid: d7cb6c509d89410419c1c80e92cd94c6, type: 3}
    - {fileID: 21300000, guid: 749b16647e6d0a74dbdaa7dd5ee3cf54, type: 3}
    - {fileID: 21300000, guid: 7d2349fc085b4df48bcc82fceff25bce, type: 3}
    - {fileID: 21300000, guid: f8133346a728ba74ea779c07a33d60af, type: 3}
    - {fileID: 21300000, guid: 10d27c84e77d8ca4e8743a3239c41f36, type: 3}
    - {fileID: 21300000, guid: 0e7d7bec8ff6e0e41a795941a21cb12c, type: 3}
    - {fileID: 21300000, guid: 186a6a3b5bd4d0d4683a4993b8520836, type: 3}
    - {fileID: 21300000, guid: eb2df21f7e259f44590a471e7abe11bc, type: 3}
    - {fileID: 21300000, guid: 98edc3a5522581740a9428ed56b552e7, type: 3}
    - {fileID: 21300000, guid: cbcdf2c6fbcaac5469a3212462e9b39f, type: 3}
    - {fileID: 21300000, guid: e01479383cc02fe4fa3a7336573c09cc, type: 3}
    - {fileID: 21300000, guid: f665c43207cbed1479900f70bb8914d6, type: 3}
    - {fileID: 21300000, guid: b942c0d6c2893b84fb817f82fdfc1d45, type: 3}
    - {fileID: 21300000, guid: 20854c61bc8d9ea4e9660832c9f69fb2, type: 3}
    - {fileID: 21300000, guid: 61dd195b2d42967488ee375a5fd9424e, type: 3}
    - {fileID: 21300000, guid: dfbbd48ac3e38e54188a02289ba12935, type: 3}
    - {fileID: 21300000, guid: ebb14eac1601f2643950fd5da674f246, type: 3}
    - {fileID: 21300000, guid: e5a320f08e55f1041999036c58638121, type: 3}
    - {fileID: 21300000, guid: c4fa87994c679ee4a9e10fafd34a0f2d, type: 3}
    - {fileID: 21300000, guid: d6b5931ba50b62f4796077f73f6303c0, type: 3}
    - {fileID: 21300000, guid: 70e9ad66e4ccb0542ade33b1c3e20dbf, type: 3}
    - {fileID: 21300000, guid: 61eeb64c40cc0114390529d6b8445017, type: 3}
    - {fileID: 21300000, guid: 4725f912ca04b4843afa98172a5f2433, type: 3}
    - {fileID: 21300000, guid: 44329518965fc4e41b692392c3fae3f3, type: 3}
    - {fileID: 21300000, guid: 4c4a7cb920d26a649979eb8e970c87a7, type: 3}
    - {fileID: 21300000, guid: a2af4630b6d24754f8e998bf721ddf9c, type: 3}
    - {fileID: 21300000, guid: 535ec6f22753e5d4f879278bb602ad8f, type: 3}
    - {fileID: 21300000, guid: 1cc686c7b849f0e4cbac19830221a2b4, type: 3}
    - {fileID: 21300000, guid: 5e8e92632a689f74d94c49a9d5797ae9, type: 3}
    - {fileID: 21300000, guid: 1aa534af97d19fe4395a1f404421f1b6, type: 3}
    - {fileID: 21300000, guid: 9c2b6a954c4e6cf42b977d98febfdf07, type: 3}
    - {fileID: 21300000, guid: 7945eed78a1634e4e92682264d37a96b, type: 3}
    - {fileID: 21300000, guid: 349c68f9eb1b0ba4a9a7431b0ce20487, type: 3}
    - {fileID: 21300000, guid: 77fc143581bd3524da918703eacb67c7, type: 3}
    - {fileID: 21300000, guid: cf45b69a5ab17f0449a5b07eea6f84a2, type: 3}
    - {fileID: 21300000, guid: 54f90cd33a76e1c4390893bec5386b4a, type: 3}
    - {fileID: 21300000, guid: 76691f16fbbe10b408b3b246979f6378, type: 3}
    - {fileID: 21300000, guid: 91e0d28580c58734bbe67fb4fa667963, type: 3}
    - {fileID: 21300000, guid: fadcc988d1686e740b038dc4a8bd57d2, type: 3}
    - {fileID: 21300000, guid: 08e03a95c9e44464791a600dd84f574b, type: 3}
    - {fileID: 21300000, guid: 6c2b6551390038f47bc51bed1e031c9a, type: 3}
    - {fileID: 21300000, guid: f73224e2dc2ba2c42b816258d4599369, type: 3}
    - {fileID: 21300000, guid: 6dca1bed8e8f24b408fffe60c57fa208, type: 3}
    - {fileID: 21300000, guid: 48091f8595d503148aa8ad4728cfa7ed, type: 3}
    - {fileID: 21300000, guid: 4e884aa671bff4147b4e602b47c724ae, type: 3}
    - {fileID: 21300000, guid: 50ce5f35d121d1543a8e6f370368a630, type: 3}
    - {fileID: 21300000, guid: 34def30a37a4458418129a871dcd1c2a, type: 3}
    - {fileID: 21300000, guid: 9b24062dde745434cb6da874583bfda6, type: 3}
    - {fileID: 21300000, guid: 1674ee787574d5449a5eb077587ea0aa, type: 3}
    - {fileID: 21300000, guid: e97f9fc26bba4bf42867940f0b28a1a6, type: 3}
    - {fileID: 21300000, guid: 7256c3ce868b20149a0144067de6654e, type: 3}
    - {fileID: 21300000, guid: f75bb79beacb331469e3852af2ee8fb6, type: 3}
    - {fileID: 21300000, guid: 3916d297bc71d3047b84a85775f068b2, type: 3}
    - {fileID: 21300000, guid: 6fc0bb8dbd2da9d40a339c1b95f3579d, type: 3}
    - {fileID: 21300000, guid: 35a33676fb034214e88f91dec79e8ef7, type: 3}
    - {fileID: 21300000, guid: 3e7d49c191f19fb41bb9f8bbac5f8b61, type: 3}
    - {fileID: 21300000, guid: 3c1df40eca5601a49afbe18d48cdcd55, type: 3}
    - {fileID: 21300000, guid: fb69ce4b5e669074f8121ab4e8ab2935, type: 3}
    - {fileID: 21300000, guid: f81a1fc57fa2dc049950a9524ed376b6, type: 3}
    - {fileID: 21300000, guid: 223ed4b025aa47e40b9760bb96ab5f7f, type: 3}
    - {fileID: 21300000, guid: dc16ab989d5398e438fa1a3a00bc595c, type: 3}
    - {fileID: 21300000, guid: 633dcbab897c13a4d83d86ce8723d6b2, type: 3}
    - {fileID: 21300000, guid: b930d5587245bac48ae7ba0a69414027, type: 3}
    - {fileID: 21300000, guid: 0190e90bdbf2ead4ba4adf838c16c127, type: 3}
    - {fileID: 21300000, guid: 81dff039d1d65db4790a41af1ce35bce, type: 3}
    - {fileID: 21300000, guid: 99ec4c1656437f14ebebb4df17dccbe0, type: 3}
    - {fileID: 21300000, guid: 22f1de48737f00642a5f8844e2317e78, type: 3}
    - {fileID: 21300000, guid: 884446e6866facc4a8631aa69e59b522, type: 3}
    - {fileID: 21300000, guid: b4546d9e42782de4792bb580164e0f1f, type: 3}
    - {fileID: 21300000, guid: 3707d1c87294caf40b87fe4502e91744, type: 3}
    - {fileID: 21300000, guid: 0a99dc394c04fe249affb9423011bf71, type: 3}
    - {fileID: 21300000, guid: 05a82c2c5a00fac4b8ab09546e93a7d0, type: 3}
    - {fileID: 21300000, guid: db8e741816b87c6429192946e7e5aaec, type: 3}
    - {fileID: 21300000, guid: d177cff28ff8b904f866beafaab56d62, type: 3}
    - {fileID: 21300000, guid: b28b2cf3eed4bce4783b8b31872dc8ea, type: 3}
    - {fileID: 21300000, guid: 5c2a017bf76ab2741b2489e8c28f2352, type: 3}
    - {fileID: 21300000, guid: c47a32998e415b64a84f39098d87e62e, type: 3}
    - {fileID: 21300000, guid: 85ba65493dba7a440aa5e524db2b9ae9, type: 3}
    - {fileID: 21300000, guid: 4812d84c25e42fc4a8abb9e48dbeeb26, type: 3}
    - {fileID: 21300000, guid: 17df2d9989da5c3498b402e3f1f40ab5, type: 3}
    - {fileID: 21300000, guid: 537801726aadc454e9137db9b470ba12, type: 3}
    - {fileID: 21300000, guid: 074bccbc24011734cb43a857d5e5455e, type: 3}
    - {fileID: 21300000, guid: b56d183cc6d2e6c47832757a1a799a5f, type: 3}
    - {fileID: 21300000, guid: b53cd8605c899424d983797df33a69b7, type: 3}
    - {fileID: 21300000, guid: d6bd16965a973684d837d44265a547a2, type: 3}
    - {fileID: 21300000, guid: 659cf8262d4b13d42870b9d18870cbb2, type: 3}
    - {fileID: 21300000, guid: 28186673e0741c047a5bd8140162a3eb, type: 3}
    - {fileID: 21300000, guid: 2bc50f84442c7f342b8a7c37f0f3a3f7, type: 3}
    - {fileID: 21300000, guid: ef3f9e0342a513046886208c1ccdcd02, type: 3}
    - {fileID: 21300000, guid: 905cb4bab8f52124f84ed63c6c790937, type: 3}
    - {fileID: 21300000, guid: 632acf94b28305949ad92af83882861c, type: 3}
    - {fileID: 21300000, guid: aaa1c16546f36af4a8b3d444a18f9217, type: 3}
    - {fileID: 21300000, guid: 25fb49b2a98c03a408717fdc1d840ac8, type: 3}
    - {fileID: 21300000, guid: c11e5d2c7fc1fcc42b8048ccca7e31c4, type: 3}
    - {fileID: 21300000, guid: 1aae20b2d374f594f99a5b70c45d315e, type: 3}
    - {fileID: 21300000, guid: ad8b8a299d5a471418aa7a13c98064d2, type: 3}
    - {fileID: 21300000, guid: 297495a90f73a014eb483cd72102ff5d, type: 3}
    - {fileID: 21300000, guid: 7320af335c621ed4b99510f67eca5bf6, type: 3}
    - {fileID: 21300000, guid: 9cbf1f333ad3f314693f9b0de1b9cdd7, type: 3}
    - {fileID: 21300000, guid: 93c3fd7822dd6c24092cc718aefe1079, type: 3}
    - {fileID: 21300000, guid: 88aba02c271f6274a9613e8f14acaa1a, type: 3}
    - {fileID: 21300000, guid: 2da461308cd62a24da531dfefc1dad72, type: 3}
    - {fileID: 21300000, guid: 42a5fb231ccab1944ac3c2f061d95ad7, type: 3}
    - {fileID: 21300000, guid: 576a71e99798f2f47ba3401f3c7a8a42, type: 3}
    - {fileID: 21300000, guid: 431a1c4316a04cc48a34e289f56224bc, type: 3}
    - {fileID: 21300000, guid: 171ff2e22a4762f45958dea94dda496b, type: 3}
    - {fileID: 21300000, guid: b4b0979755e0bbe4a9ba252e6e5207ad, type: 3}
    - {fileID: 21300000, guid: 579d6b5ecb7a8b643b3c053ca9ad3bb3, type: 3}
    - {fileID: 21300000, guid: 3abcfe8fd78e1d94f9e646db755d502f, type: 3}
    - {fileID: 21300000, guid: 936de52005561784da969a5518487c65, type: 3}
    - {fileID: 21300000, guid: 7aac4f971072cf6419940b983d9e98f6, type: 3}
    - {fileID: 21300000, guid: 445511d20bacb5d45b14e022db601a16, type: 3}
    - {fileID: 21300000, guid: e516efc195fdc5e498fb9bf9c9b12e23, type: 3}
    - {fileID: 21300000, guid: c2f881a78fdda3d4f941ecdc61b13795, type: 3}
    - {fileID: 21300000, guid: dfb19c71beae0404ab8ba1e8f73a0725, type: 3}
    - {fileID: 21300000, guid: a83b0a80a424f3e4ea93d7a990bc58d9, type: 3}
    - {fileID: 21300000, guid: c722adb0199f949449c062a10ae1cb20, type: 3}
    - {fileID: 21300000, guid: da926505a3592894799ee329dfabc6c2, type: 3}
    - {fileID: 21300000, guid: dfb5ef5f5c6312341aec7f662d16c418, type: 3}
    - {fileID: 21300000, guid: 7423957a135fdb8408c71379193c75bf, type: 3}
    - {fileID: 21300000, guid: 5a4979ef1596c804085813cbb943ccef, type: 3}
    - {fileID: 21300000, guid: 1cf8affe0d6b9ec44af4bb396aff5b76, type: 3}
    - {fileID: 21300000, guid: ef0c783e80e88fe47a0d1e73e300e9e7, type: 3}
    - {fileID: 21300000, guid: 61a389fd91b34b64c8ec687ede2e9d5c, type: 3}
    - {fileID: 21300000, guid: fca50ad6958156b4d9f59b9c433ef3c1, type: 3}
    - {fileID: 21300000, guid: 2cbf10c2f28c936488d94f50110ea941, type: 3}
    - {fileID: 21300000, guid: fd9a023010c0c524fbf9709a8e0fce53, type: 3}
    - {fileID: 21300000, guid: 8087ce65831aac44c9d4f5cb6eed0460, type: 3}
    - {fileID: 21300000, guid: 30d81223b23754c4c97f3773a3c91e4b, type: 3}
    - {fileID: 21300000, guid: 8d89924b9e708e9499cf2ccfa71f6449, type: 3}
    - {fileID: 21300000, guid: 259cfc4f9243e4349b56095a4fbd360b, type: 3}
    - {fileID: 21300000, guid: 8dd6084d39e356d4aa3cfaaaa4b146a4, type: 3}
    - {fileID: 21300000, guid: b28e78626e313dd4a9fbb837e02085b7, type: 3}
    - {fileID: 21300000, guid: 07d91385a730fe748b435ded98a68327, type: 3}
    - {fileID: 21300000, guid: 4b825325fc351f2448b1c06548446690, type: 3}
    - {fileID: 21300000, guid: 3d91a5f5732276e4a92c9e9abf99dd79, type: 3}
    - {fileID: 21300000, guid: cb4477eda3116da4eac499657a11c4f2, type: 3}
    - {fileID: 21300000, guid: 9ea79858c10fca443a12b682c7c3090d, type: 3}
    - {fileID: 21300000, guid: 6a5c62008f8beac4e89acabf1bb98175, type: 3}
    - {fileID: 21300000, guid: 619ab84c33fffab4dbc2fcbf841e8c03, type: 3}
    - {fileID: 21300000, guid: f56b7e3190cec924b8a921a72b7dc359, type: 3}
    - {fileID: 21300000, guid: 85d46afb9dce43640b5dbf556ab22483, type: 3}
    - {fileID: 21300000, guid: 296751d258953c943a6b158b928f6531, type: 3}
    - {fileID: 21300000, guid: 7a0c57e7c24d5c645b555a57800ac4c8, type: 3}
    - {fileID: 21300000, guid: bea224a5702fd9046a3f2998c01a324f, type: 3}
    - {fileID: 21300000, guid: 76de9455ce1f34548808a4d4ed08c872, type: 3}
    - {fileID: 21300000, guid: bfbbf26e45e0e474bac8ee5bbd3bd6bb, type: 3}
    - {fileID: 21300000, guid: 2e22c8312203d4c4cad5ddfd0c5b4e7b, type: 3}
    - {fileID: 21300000, guid: b6a6aa6d900d1464d97058930fd59a00, type: 3}
    - {fileID: 21300000, guid: ed1bad89130b3a44e94a02cb99b7dfa5, type: 3}
    - {fileID: 21300000, guid: de4bb72629690a8438b76e350d4623fb, type: 3}
    - {fileID: 21300000, guid: 4bbd0e9030e59bd499b5301de2066ddb, type: 3}
  m_AnimationClipSettings:
    serializedVersion: 2
    m_AdditiveReferencePoseClip: {fileID: 0}
    m_AdditiveReferencePoseTime: 0
    m_StartTime: 0
    m_StopTime: 7.3333335
    m_OrientationOffsetY: 0
    m_Level: 0
    m_CycleOffset: 0
    m_HasAdditiveReferencePose: 0
    m_LoopTime: 0
    m_LoopBlend: 0
    m_LoopBlendOrientation: 0
    m_LoopBlendPositionY: 0
    m_LoopBlendPositionXZ: 0
    m_KeepOriginalOrientation: 0
    m_KeepOriginalPositionY: 1
    m_KeepOriginalPositionXZ: 0
    m_HeightFromFeet: 0
    m_Mirror: 0
  m_EditorCurves: []
  m_EulerEditorCurves: []
  m_HasGenericRootTransform: 0
  m_HasMotionFloatCurves: 0
  m_Events: []
