%YAML 1.1
%TAG !u! tag:unity3d.com,2011:
--- !u!74 &7400000
AnimationClip:
  m_ObjectHideFlags: 0
  m_CorrespondingSourceObject: {fileID: 0}
  m_PrefabInstance: {fileID: 0}
  m_PrefabAsset: {fileID: 0}
  m_Name: AILoop
  serializedVersion: 6
  m_Legacy: 0
  m_Compressed: 0
  m_UseHighQualityCurve: 1
  m_RotationCurves: []
  m_CompressedRotationCurves: []
  m_EulerCurves: []
  m_PositionCurves: []
  m_ScaleCurves: []
  m_FloatCurves: []
  m_PPtrCurves:
  - curve:
    - time: 0
      value: {fileID: 21300000, guid: f2285eaf61a17b9459f68fe106b7a3b5, type: 3}
    - time: 0.033333335
      value: {fileID: 21300000, guid: 7b2f59cecdd2b784bb6ee0d098ae920f, type: 3}
    - time: 0.06666667
      value: {fileID: 21300000, guid: cb4ee7f594b82b64cbd990972703a633, type: 3}
    - time: 0.1
      value: {fileID: 21300000, guid: 92c3112e67a934b48b214c5dcc4acab6, type: 3}
    - time: 0.13333334
      value: {fileID: 21300000, guid: 6a72c5f15af16fd429166b1a88c25095, type: 3}
    - time: 0.16666667
      value: {fileID: 21300000, guid: 8369f25e592f1004bb70b279132965a4, type: 3}
    - time: 0.2
      value: {fileID: 21300000, guid: 1eb79aca796bf49468928fd025758789, type: 3}
    - time: 0.23333333
      value: {fileID: 21300000, guid: 61a62e937ecf93d4fa88b4864a2b6279, type: 3}
    - time: 0.26666668
      value: {fileID: 21300000, guid: f547858e1710af74f82a644528ec9271, type: 3}
    - time: 0.3
      value: {fileID: 21300000, guid: 257189f4f09f2fe49911ea18b90d328e, type: 3}
    - time: 0.33333334
      value: {fileID: 21300000, guid: 848eccb0a8659fe45b10df9f074203fa, type: 3}
    - time: 0.36666667
      value: {fileID: 21300000, guid: 52ff7d3a5729abb4f86630b6406d4b16, type: 3}
    - time: 0.4
      value: {fileID: 21300000, guid: 00a63849044bfb64d934f41082fd053d, type: 3}
    - time: 0.43333334
      value: {fileID: 21300000, guid: 78408f17ff5cd77408e02d1061441a12, type: 3}
    - time: 0.46666667
      value: {fileID: 21300000, guid: 77b42e60ee7f1104792c1f0dee12fa5f, type: 3}
    - time: 0.5
      value: {fileID: 21300000, guid: daaa74d322833ff43a265b186c98daa9, type: 3}
    - time: 0.53333336
      value: {fileID: 21300000, guid: e2703cf767068804c97ab153db9655e9, type: 3}
    - time: 0.56666666
      value: {fileID: 21300000, guid: 958582cb401ee1d48bf4d5cda6d09a81, type: 3}
    - time: 0.6
      value: {fileID: 21300000, guid: 8d6971438fc874a43b273a24f24d000e, type: 3}
    - time: 0.6333333
      value: {fileID: 21300000, guid: eaef8dbfca953014db37cfeede8f4680, type: 3}
    - time: 0.6666667
      value: {fileID: 21300000, guid: 459cd6c4e48b6ff45be2a466f9490937, type: 3}
    - time: 0.7
      value: {fileID: 21300000, guid: 26ef1306beac72246bb6a6e52873b104, type: 3}
    - time: 0.73333335
      value: {fileID: 21300000, guid: 660206ad3fe3a3b4badf269b1a38f4ba, type: 3}
    - time: 0.76666665
      value: {fileID: 21300000, guid: 7ee7e844699a03641b3034bc31a9ad3d, type: 3}
    - time: 0.8
      value: {fileID: 21300000, guid: a935fe38d2c15f64ea61db2a485e48e5, type: 3}
    - time: 0.8333333
      value: {fileID: 21300000, guid: 72505b391cf4bd44cab4ac3ff6569e78, type: 3}
    - time: 0.8666667
      value: {fileID: 21300000, guid: f4451edb134cb9448b4b87fec18581df, type: 3}
    - time: 0.9
      value: {fileID: 21300000, guid: ccd172bd36332bf4db1d0c14b428b2e4, type: 3}
    - time: 0.93333334
      value: {fileID: 21300000, guid: 8f77d6510a8e21249a1b8f6109c3ddbd, type: 3}
    - time: 0.96666664
      value: {fileID: 21300000, guid: d9200eed509c26044a3094eafe26955c, type: 3}
    - time: 1
      value: {fileID: 21300000, guid: 1a408734a93a0034795f9b0651367f35, type: 3}
    - time: 1.0333333
      value: {fileID: 21300000, guid: 476e9b941ac45fd4db3693f09099c173, type: 3}
    - time: 1.0666667
      value: {fileID: 21300000, guid: affc69b8bbcd4c249a014b4c52af7868, type: 3}
    - time: 1.1
      value: {fileID: 21300000, guid: a4293ea8b351d894c8383113b07826d4, type: 3}
    - time: 1.1333333
      value: {fileID: 21300000, guid: c66cbc00cb8afe448aa8e10e558f5584, type: 3}
    - time: 1.1666666
      value: {fileID: 21300000, guid: d0b88e469b8d5ae4aa1c17f5c5ac928d, type: 3}
    - time: 1.2
      value: {fileID: 21300000, guid: 90f779b15861fab40ae45b47d2e38a44, type: 3}
    - time: 1.2333333
      value: {fileID: 21300000, guid: 8e3077ce948221c49aa82f3b85372f5b, type: 3}
    - time: 1.2666667
      value: {fileID: 21300000, guid: 48973b29f88beaf458e0084ba08d34ec, type: 3}
    - time: 1.3
      value: {fileID: 21300000, guid: ec2ff05c833bb6042b1525bc341e0780, type: 3}
    - time: 1.3333334
      value: {fileID: 21300000, guid: b726dc28e6803fe4784b18cbd031c41e, type: 3}
    - time: 1.3666667
      value: {fileID: 21300000, guid: f9848c5f7b6febc42b96498d5bc35344, type: 3}
    - time: 1.4
      value: {fileID: 21300000, guid: 914d74dd6e98efd4792cafeb4194d520, type: 3}
    - time: 1.4333333
      value: {fileID: 21300000, guid: 0c0454e74c245624080bc9e7ec31343e, type: 3}
    - time: 1.4666667
      value: {fileID: 21300000, guid: 2ff60ca7a8719d040a1ecbf9ff14e305, type: 3}
    - time: 1.5
      value: {fileID: 21300000, guid: 32068af720a6ed340982ca860df357f8, type: 3}
    - time: 1.5333333
      value: {fileID: 21300000, guid: a2129ac35c1719f4c8aa4e0da7c9a783, type: 3}
    - time: 1.5666667
      value: {fileID: 21300000, guid: 8cf8779c2ccd0434980d79ec3563fd5f, type: 3}
    - time: 1.6
      value: {fileID: 21300000, guid: 64737bbec8bccc94abb8decc2f1c3065, type: 3}
    - time: 1.6333333
      value: {fileID: 21300000, guid: 925e209043f02954685b540c418ef10e, type: 3}
    - time: 1.6666666
      value: {fileID: 21300000, guid: c99b3ade4a642d64981f26a5f36c46f3, type: 3}
    - time: 1.7
      value: {fileID: 21300000, guid: 6c642ef61bcce1940838753b5d7ecfe4, type: 3}
    - time: 1.7333333
      value: {fileID: 21300000, guid: 50e03e4bf00196640bc1d315ce49f5ce, type: 3}
    - time: 1.7666667
      value: {fileID: 21300000, guid: 642657e2dda364e41b7160ed3b511d4a, type: 3}
    - time: 1.8
      value: {fileID: 21300000, guid: 8d67d7bd902176b4b9b238395c2f405f, type: 3}
    - time: 1.8333334
      value: {fileID: 21300000, guid: 3bd2adeb90fbf164997d52db04d73188, type: 3}
    - time: 1.8666667
      value: {fileID: 21300000, guid: cfb5807a01966364d89a66382d3be2cd, type: 3}
    - time: 1.9
      value: {fileID: 21300000, guid: da30502e43d1ba64894a07c65f7e4b8a, type: 3}
    - time: 1.9333333
      value: {fileID: 21300000, guid: 0467007908eb80b4c83c9e98de725aef, type: 3}
    - time: 1.9666667
      value: {fileID: 21300000, guid: 4e07e3e1a7aa9a44c98484c7d4c57537, type: 3}
    - time: 2
      value: {fileID: 21300000, guid: f709c48c72fb4284caed6172c54266d5, type: 3}
    - time: 2.0333333
      value: {fileID: 21300000, guid: e8c677ef924697a45b4d063dbb3b8b3a, type: 3}
    - time: 2.0666666
      value: {fileID: 21300000, guid: e17301401782c78458668d5f9df1ac21, type: 3}
    - time: 2.1
      value: {fileID: 21300000, guid: ef2d682c9201d2848953dae795cac1c5, type: 3}
    - time: 2.1333334
      value: {fileID: 21300000, guid: 03bf455cc3d1b2448991a4ca10cac6b2, type: 3}
    - time: 2.1666667
      value: {fileID: 21300000, guid: 689646b0ad6730744bacbce80ba73bb5, type: 3}
    - time: 2.2
      value: {fileID: 21300000, guid: 6ecb78a38633ee644a24a2320c24a44c, type: 3}
    - time: 2.2333333
      value: {fileID: 21300000, guid: a0bf71579cfcc3948aeb23ec711a3257, type: 3}
    - time: 2.2666667
      value: {fileID: 21300000, guid: 74e86b09be0629946accf1a15b7e1a0c, type: 3}
    - time: 2.3
      value: {fileID: 21300000, guid: b4bbe767c742b1a44ae75a98f2e7f1ce, type: 3}
    - time: 2.3333333
      value: {fileID: 21300000, guid: 781750727c1a64e46bd7d5541e31c03e, type: 3}
    - time: 2.3666666
      value: {fileID: 21300000, guid: 428e3e25acc1ece4b89e8ef66227a4c9, type: 3}
    - time: 2.4
      value: {fileID: 21300000, guid: 0fb8e264a6c6f094aba222eca61b1812, type: 3}
    - time: 2.4333334
      value: {fileID: 21300000, guid: 8715a47e088fba5439093419c357a740, type: 3}
    - time: 2.4666667
      value: {fileID: 21300000, guid: f3cd3343a9460404e95b0ee8353e2358, type: 3}
    - time: 2.5
      value: {fileID: 21300000, guid: dc0a91dc88226c940b044b56d5d4f8c0, type: 3}
    - time: 2.5333333
      value: {fileID: 21300000, guid: ae7e5aab7303ddf4183db1b5e61b3992, type: 3}
    - time: 2.5666666
      value: {fileID: 21300000, guid: e19586e79ba83b84b8ae6b544cfc32d4, type: 3}
    - time: 2.6
      value: {fileID: 21300000, guid: dd120527d7cd4904bafe61be840732c8, type: 3}
    - time: 2.6333334
      value: {fileID: 21300000, guid: 57b7b43dd31352e4ebce05ce4b170b28, type: 3}
    - time: 2.6666667
      value: {fileID: 21300000, guid: d8c437bfff6163848894338635f89bc6, type: 3}
    - time: 2.7
      value: {fileID: 21300000, guid: db0bf252136ffd34e856fc5fdeb108e5, type: 3}
    - time: 2.7333333
      value: {fileID: 21300000, guid: 146270f555c6ee545bbf604cdf755598, type: 3}
    - time: 2.7666667
      value: {fileID: 21300000, guid: 5ce031fc1ced5b14ebf05053e26dc2d7, type: 3}
    - time: 2.8
      value: {fileID: 21300000, guid: 12418a3ce15694c42b2e0e1719f4204a, type: 3}
    - time: 2.8333333
      value: {fileID: 21300000, guid: 5aa1efee9caf47d4bb7a9d72fd3209bf, type: 3}
    - time: 2.8666666
      value: {fileID: 21300000, guid: ed12571854bfab9478b2729d550221f4, type: 3}
    - time: 2.9
      value: {fileID: 21300000, guid: 69254ff86076b7542a40639b600b5e01, type: 3}
    - time: 2.9333334
      value: {fileID: 21300000, guid: 26aaf288f0b80fc4b8341f3b1092c39a, type: 3}
    - time: 2.9666667
      value: {fileID: 21300000, guid: 57fb6ba27733b274580752e040fa58a0, type: 3}
    attribute: m_Sprite
    path: 
    classID: 212
    script: {fileID: 0}
  m_SampleRate: 30
  m_WrapMode: 0
  m_Bounds:
    m_Center: {x: 0, y: 0, z: 0}
    m_Extent: {x: 0, y: 0, z: 0}
  m_ClipBindingConstant:
    genericBindings:
    - serializedVersion: 2
      path: 0
      attribute: 0
      script: {fileID: 0}
      typeID: 212
      customType: 23
      isPPtrCurve: 1
    pptrCurveMapping:
    - {fileID: 21300000, guid: f2285eaf61a17b9459f68fe106b7a3b5, type: 3}
    - {fileID: 21300000, guid: 7b2f59cecdd2b784bb6ee0d098ae920f, type: 3}
    - {fileID: 21300000, guid: cb4ee7f594b82b64cbd990972703a633, type: 3}
    - {fileID: 21300000, guid: 92c3112e67a934b48b214c5dcc4acab6, type: 3}
    - {fileID: 21300000, guid: 6a72c5f15af16fd429166b1a88c25095, type: 3}
    - {fileID: 21300000, guid: 8369f25e592f1004bb70b279132965a4, type: 3}
    - {fileID: 21300000, guid: 1eb79aca796bf49468928fd025758789, type: 3}
    - {fileID: 21300000, guid: 61a62e937ecf93d4fa88b4864a2b6279, type: 3}
    - {fileID: 21300000, guid: f547858e1710af74f82a644528ec9271, type: 3}
    - {fileID: 21300000, guid: 257189f4f09f2fe49911ea18b90d328e, type: 3}
    - {fileID: 21300000, guid: 848eccb0a8659fe45b10df9f074203fa, type: 3}
    - {fileID: 21300000, guid: 52ff7d3a5729abb4f86630b6406d4b16, type: 3}
    - {fileID: 21300000, guid: 00a63849044bfb64d934f41082fd053d, type: 3}
    - {fileID: 21300000, guid: 78408f17ff5cd77408e02d1061441a12, type: 3}
    - {fileID: 21300000, guid: 77b42e60ee7f1104792c1f0dee12fa5f, type: 3}
    - {fileID: 21300000, guid: daaa74d322833ff43a265b186c98daa9, type: 3}
    - {fileID: 21300000, guid: e2703cf767068804c97ab153db9655e9, type: 3}
    - {fileID: 21300000, guid: 958582cb401ee1d48bf4d5cda6d09a81, type: 3}
    - {fileID: 21300000, guid: 8d6971438fc874a43b273a24f24d000e, type: 3}
    - {fileID: 21300000, guid: eaef8dbfca953014db37cfeede8f4680, type: 3}
    - {fileID: 21300000, guid: 459cd6c4e48b6ff45be2a466f9490937, type: 3}
    - {fileID: 21300000, guid: 26ef1306beac72246bb6a6e52873b104, type: 3}
    - {fileID: 21300000, guid: 660206ad3fe3a3b4badf269b1a38f4ba, type: 3}
    - {fileID: 21300000, guid: 7ee7e844699a03641b3034bc31a9ad3d, type: 3}
    - {fileID: 21300000, guid: a935fe38d2c15f64ea61db2a485e48e5, type: 3}
    - {fileID: 21300000, guid: 72505b391cf4bd44cab4ac3ff6569e78, type: 3}
    - {fileID: 21300000, guid: f4451edb134cb9448b4b87fec18581df, type: 3}
    - {fileID: 21300000, guid: ccd172bd36332bf4db1d0c14b428b2e4, type: 3}
    - {fileID: 21300000, guid: 8f77d6510a8e21249a1b8f6109c3ddbd, type: 3}
    - {fileID: 21300000, guid: d9200eed509c26044a3094eafe26955c, type: 3}
    - {fileID: 21300000, guid: 1a408734a93a0034795f9b0651367f35, type: 3}
    - {fileID: 21300000, guid: 476e9b941ac45fd4db3693f09099c173, type: 3}
    - {fileID: 21300000, guid: affc69b8bbcd4c249a014b4c52af7868, type: 3}
    - {fileID: 21300000, guid: a4293ea8b351d894c8383113b07826d4, type: 3}
    - {fileID: 21300000, guid: c66cbc00cb8afe448aa8e10e558f5584, type: 3}
    - {fileID: 21300000, guid: d0b88e469b8d5ae4aa1c17f5c5ac928d, type: 3}
    - {fileID: 21300000, guid: 90f779b15861fab40ae45b47d2e38a44, type: 3}
    - {fileID: 21300000, guid: 8e3077ce948221c49aa82f3b85372f5b, type: 3}
    - {fileID: 21300000, guid: 48973b29f88beaf458e0084ba08d34ec, type: 3}
    - {fileID: 21300000, guid: ec2ff05c833bb6042b1525bc341e0780, type: 3}
    - {fileID: 21300000, guid: b726dc28e6803fe4784b18cbd031c41e, type: 3}
    - {fileID: 21300000, guid: f9848c5f7b6febc42b96498d5bc35344, type: 3}
    - {fileID: 21300000, guid: 914d74dd6e98efd4792cafeb4194d520, type: 3}
    - {fileID: 21300000, guid: 0c0454e74c245624080bc9e7ec31343e, type: 3}
    - {fileID: 21300000, guid: 2ff60ca7a8719d040a1ecbf9ff14e305, type: 3}
    - {fileID: 21300000, guid: 32068af720a6ed340982ca860df357f8, type: 3}
    - {fileID: 21300000, guid: a2129ac35c1719f4c8aa4e0da7c9a783, type: 3}
    - {fileID: 21300000, guid: 8cf8779c2ccd0434980d79ec3563fd5f, type: 3}
    - {fileID: 21300000, guid: 64737bbec8bccc94abb8decc2f1c3065, type: 3}
    - {fileID: 21300000, guid: 925e209043f02954685b540c418ef10e, type: 3}
    - {fileID: 21300000, guid: c99b3ade4a642d64981f26a5f36c46f3, type: 3}
    - {fileID: 21300000, guid: 6c642ef61bcce1940838753b5d7ecfe4, type: 3}
    - {fileID: 21300000, guid: 50e03e4bf00196640bc1d315ce49f5ce, type: 3}
    - {fileID: 21300000, guid: 642657e2dda364e41b7160ed3b511d4a, type: 3}
    - {fileID: 21300000, guid: 8d67d7bd902176b4b9b238395c2f405f, type: 3}
    - {fileID: 21300000, guid: 3bd2adeb90fbf164997d52db04d73188, type: 3}
    - {fileID: 21300000, guid: cfb5807a01966364d89a66382d3be2cd, type: 3}
    - {fileID: 21300000, guid: da30502e43d1ba64894a07c65f7e4b8a, type: 3}
    - {fileID: 21300000, guid: 0467007908eb80b4c83c9e98de725aef, type: 3}
    - {fileID: 21300000, guid: 4e07e3e1a7aa9a44c98484c7d4c57537, type: 3}
    - {fileID: 21300000, guid: f709c48c72fb4284caed6172c54266d5, type: 3}
    - {fileID: 21300000, guid: e8c677ef924697a45b4d063dbb3b8b3a, type: 3}
    - {fileID: 21300000, guid: e17301401782c78458668d5f9df1ac21, type: 3}
    - {fileID: 21300000, guid: ef2d682c9201d2848953dae795cac1c5, type: 3}
    - {fileID: 21300000, guid: 03bf455cc3d1b2448991a4ca10cac6b2, type: 3}
    - {fileID: 21300000, guid: 689646b0ad6730744bacbce80ba73bb5, type: 3}
    - {fileID: 21300000, guid: 6ecb78a38633ee644a24a2320c24a44c, type: 3}
    - {fileID: 21300000, guid: a0bf71579cfcc3948aeb23ec711a3257, type: 3}
    - {fileID: 21300000, guid: 74e86b09be0629946accf1a15b7e1a0c, type: 3}
    - {fileID: 21300000, guid: b4bbe767c742b1a44ae75a98f2e7f1ce, type: 3}
    - {fileID: 21300000, guid: 781750727c1a64e46bd7d5541e31c03e, type: 3}
    - {fileID: 21300000, guid: 428e3e25acc1ece4b89e8ef66227a4c9, type: 3}
    - {fileID: 21300000, guid: 0fb8e264a6c6f094aba222eca61b1812, type: 3}
    - {fileID: 21300000, guid: 8715a47e088fba5439093419c357a740, type: 3}
    - {fileID: 21300000, guid: f3cd3343a9460404e95b0ee8353e2358, type: 3}
    - {fileID: 21300000, guid: dc0a91dc88226c940b044b56d5d4f8c0, type: 3}
    - {fileID: 21300000, guid: ae7e5aab7303ddf4183db1b5e61b3992, type: 3}
    - {fileID: 21300000, guid: e19586e79ba83b84b8ae6b544cfc32d4, type: 3}
    - {fileID: 21300000, guid: dd120527d7cd4904bafe61be840732c8, type: 3}
    - {fileID: 21300000, guid: 57b7b43dd31352e4ebce05ce4b170b28, type: 3}
    - {fileID: 21300000, guid: d8c437bfff6163848894338635f89bc6, type: 3}
    - {fileID: 21300000, guid: db0bf252136ffd34e856fc5fdeb108e5, type: 3}
    - {fileID: 21300000, guid: 146270f555c6ee545bbf604cdf755598, type: 3}
    - {fileID: 21300000, guid: 5ce031fc1ced5b14ebf05053e26dc2d7, type: 3}
    - {fileID: 21300000, guid: 12418a3ce15694c42b2e0e1719f4204a, type: 3}
    - {fileID: 21300000, guid: 5aa1efee9caf47d4bb7a9d72fd3209bf, type: 3}
    - {fileID: 21300000, guid: ed12571854bfab9478b2729d550221f4, type: 3}
    - {fileID: 21300000, guid: 69254ff86076b7542a40639b600b5e01, type: 3}
    - {fileID: 21300000, guid: 26aaf288f0b80fc4b8341f3b1092c39a, type: 3}
    - {fileID: 21300000, guid: 57fb6ba27733b274580752e040fa58a0, type: 3}
  m_AnimationClipSettings:
    serializedVersion: 2
    m_AdditiveReferencePoseClip: {fileID: 0}
    m_AdditiveReferencePoseTime: 0
    m_StartTime: 0
    m_StopTime: 3
    m_OrientationOffsetY: 0
    m_Level: 0
    m_CycleOffset: 0
    m_HasAdditiveReferencePose: 0
    m_LoopTime: 1
    m_LoopBlend: 0
    m_LoopBlendOrientation: 0
    m_LoopBlendPositionY: 0
    m_LoopBlendPositionXZ: 0
    m_KeepOriginalOrientation: 0
    m_KeepOriginalPositionY: 1
    m_KeepOriginalPositionXZ: 0
    m_HeightFromFeet: 0
    m_Mirror: 0
  m_EditorCurves: []
  m_EulerEditorCurves: []
  m_HasGenericRootTransform: 0
  m_HasMotionFloatCurves: 0
  m_Events: []
