%YAML 1.1
%TAG !u! tag:unity3d.com,2011:
--- !u!74 &7400000
AnimationClip:
  m_ObjectHideFlags: 0
  m_CorrespondingSourceObject: {fileID: 0}
  m_PrefabInstance: {fileID: 0}
  m_PrefabAsset: {fileID: 0}
  m_Name: TestFlow
  serializedVersion: 6
  m_Legacy: 0
  m_Compressed: 0
  m_UseHighQualityCurve: 1
  m_RotationCurves: []
  m_CompressedRotationCurves: []
  m_EulerCurves: []
  m_PositionCurves: []
  m_ScaleCurves: []
  m_FloatCurves: []
  m_PPtrCurves:
  - curve:
    - time: 0
      value: {fileID: 21300000, guid: 5eb318f500fc90748a4d538ab7e3cc09, type: 3}
    - time: 0.033333335
      value: {fileID: 21300000, guid: d7dabaaeaea59fb42921e452bcae0ba3, type: 3}
    - time: 0.06666667
      value: {fileID: 21300000, guid: 96cad95e8327f1c48bd68c4fcbe8648a, type: 3}
    - time: 0.1
      value: {fileID: 21300000, guid: 14412a62e48c2644f8d8b75520b489e5, type: 3}
    - time: 0.13333334
      value: {fileID: 21300000, guid: 8f66cf2ee50f24f46822b3978399177f, type: 3}
    - time: 0.16666667
      value: {fileID: 21300000, guid: c31183628dc174b409b2cc5e608cc601, type: 3}
    - time: 0.2
      value: {fileID: 21300000, guid: a9800de34d0c73047a6fc33c93d80cba, type: 3}
    - time: 0.23333333
      value: {fileID: 21300000, guid: af5f9f26b88754c4a8ad17804d4fd41a, type: 3}
    - time: 0.26666668
      value: {fileID: 21300000, guid: 21e27367e2c23b243aaa22efc6a335ab, type: 3}
    - time: 0.3
      value: {fileID: 21300000, guid: 92a2895318108154bb452142fad32dd4, type: 3}
    - time: 0.33333334
      value: {fileID: 21300000, guid: 29d5f02b6fcc8a4409ab56f040afd958, type: 3}
    - time: 0.36666667
      value: {fileID: 21300000, guid: 3e97d4ffa5519694a841e8d8ad5ac039, type: 3}
    - time: 0.4
      value: {fileID: 21300000, guid: b7f8f5495a8b8024e8412fd905144bcb, type: 3}
    - time: 0.43333334
      value: {fileID: 21300000, guid: 818d63d3832a5284e8bb3b2aad47e426, type: 3}
    - time: 0.46666667
      value: {fileID: 21300000, guid: 8fadf9aa82ea69344890c9f8fa37350f, type: 3}
    - time: 0.5
      value: {fileID: 21300000, guid: c9947b8335b0cce4288d09dea68875e0, type: 3}
    - time: 0.53333336
      value: {fileID: 21300000, guid: 864aeb411c850f54bb7ea2a4820c2026, type: 3}
    - time: 0.56666666
      value: {fileID: 21300000, guid: af0cee016c231aa458755a039ca792e9, type: 3}
    - time: 0.6
      value: {fileID: 21300000, guid: a6530545b205a4e4ca33c2a580b86ffe, type: 3}
    - time: 0.6333333
      value: {fileID: 21300000, guid: 2b90b20bc466e90468b7c1b179b797fc, type: 3}
    - time: 0.6666667
      value: {fileID: 21300000, guid: f46244151b7d7014d99e6b6d93fc4509, type: 3}
    - time: 0.7
      value: {fileID: 21300000, guid: 7ef355c5f74f65d459e4e02d48a14113, type: 3}
    - time: 0.73333335
      value: {fileID: 21300000, guid: 5f28aab5298e81148bd18b5e7d2c058d, type: 3}
    - time: 0.76666665
      value: {fileID: 21300000, guid: 6fc88b427dddafa488e98dd5944c1f93, type: 3}
    - time: 0.8
      value: {fileID: 21300000, guid: 148aae815218c254e97f5c1c6d224192, type: 3}
    - time: 0.8333333
      value: {fileID: 21300000, guid: 006945ff29fd79f498b43e39071d2a82, type: 3}
    - time: 0.8666667
      value: {fileID: 21300000, guid: 343ae5e47478ecf44bbae0efca337f8b, type: 3}
    - time: 0.9
      value: {fileID: 21300000, guid: 1901133e8edde92439c69cbff5a30115, type: 3}
    - time: 0.93333334
      value: {fileID: 21300000, guid: 0eff30d2575d25443a9c46623c4061bc, type: 3}
    - time: 0.96666664
      value: {fileID: 21300000, guid: 6fd8e936c1643ad4c86708cc6c1458e4, type: 3}
    - time: 1
      value: {fileID: 21300000, guid: 91ac5bd437eab6b468ffa4fb22ff387e, type: 3}
    - time: 1.0333333
      value: {fileID: 21300000, guid: 970b76b862a213c46a136d5f5df73e68, type: 3}
    - time: 1.0666667
      value: {fileID: 21300000, guid: 18439819cb2e0a54ea4b17f3319e2e4d, type: 3}
    - time: 1.1
      value: {fileID: 21300000, guid: 06ebf8f064239cf4ca28cd68882a6b80, type: 3}
    - time: 1.1333333
      value: {fileID: 21300000, guid: bbfe65eedc6226c4a9313a2bf5c7142f, type: 3}
    - time: 1.1666666
      value: {fileID: 21300000, guid: 61978dc80924aee429cec55691eef3e1, type: 3}
    - time: 1.2
      value: {fileID: 21300000, guid: f23e33831deba444bb261f616c83ea5a, type: 3}
    - time: 1.2333333
      value: {fileID: 21300000, guid: 4acc75e6c7e67c746aa3c352e9f122ce, type: 3}
    - time: 1.2666667
      value: {fileID: 21300000, guid: f826e98f4e4cb794a9f689e2a841206c, type: 3}
    - time: 1.3
      value: {fileID: 21300000, guid: 56835634f60680040b820c74e811d672, type: 3}
    - time: 1.3333334
      value: {fileID: 21300000, guid: 5a7ac2a928c0d6847b0b69a7a771a0fa, type: 3}
    - time: 1.3666667
      value: {fileID: 21300000, guid: d868e911395292c41804dd41de264106, type: 3}
    - time: 1.4
      value: {fileID: 21300000, guid: 8c60bcf7ba49c9c4da831cae84b104ad, type: 3}
    - time: 1.4333333
      value: {fileID: 21300000, guid: 2d791a88e36d6f246919c3de527bbd0e, type: 3}
    - time: 1.4666667
      value: {fileID: 21300000, guid: 084e59c6cc2eab24bbaac538946acb5e, type: 3}
    - time: 1.5
      value: {fileID: 21300000, guid: ac95ef587d7708e428cb8818ebf6f177, type: 3}
    - time: 1.5333333
      value: {fileID: 21300000, guid: c32585e034f2f0043bbaff090646d07c, type: 3}
    - time: 1.5666667
      value: {fileID: 21300000, guid: 849ab87096fc4a74a8219979646eef9f, type: 3}
    - time: 1.6
      value: {fileID: 21300000, guid: 101ad1c2bf3ee1f4490afea1a25d36f6, type: 3}
    - time: 1.6333333
      value: {fileID: 21300000, guid: 9fd5e93a4ce48f04f9d224df5fc95ff8, type: 3}
    - time: 1.6666666
      value: {fileID: 21300000, guid: 6dfff9e3c041c31458dbdbc0a10c7c30, type: 3}
    - time: 1.7
      value: {fileID: 21300000, guid: 4249583d8dddb0e4fad4a19316b786cb, type: 3}
    - time: 1.7333333
      value: {fileID: 21300000, guid: c93a9bb0ac9095a4bb144227736770a9, type: 3}
    - time: 1.7666667
      value: {fileID: 21300000, guid: 39584a36e691e294eb0f01896cbf5c41, type: 3}
    - time: 1.8
      value: {fileID: 21300000, guid: dad2e4ba59c472944be6d636aef0ae31, type: 3}
    - time: 1.8333334
      value: {fileID: 21300000, guid: 887feb5d6c0ee1540bb81f6b12d9c8d4, type: 3}
    - time: 1.8666667
      value: {fileID: 21300000, guid: ef2f298768cabd24f89df481014cf597, type: 3}
    - time: 1.9
      value: {fileID: 21300000, guid: 6e548f536916ffb4882519c71f808e5b, type: 3}
    - time: 1.9333333
      value: {fileID: 21300000, guid: fe674bbeb4e3edc4188108b321e84903, type: 3}
    - time: 1.9666667
      value: {fileID: 21300000, guid: a3e4cff920ca8ba4f9cf1846b776f388, type: 3}
    - time: 2
      value: {fileID: 21300000, guid: 0f0b89c8bfc3e29429e9555c74fe77ea, type: 3}
    - time: 2.0333333
      value: {fileID: 21300000, guid: 52242a0cc7f1fc74cab4618fa07c7de5, type: 3}
    - time: 2.0666666
      value: {fileID: 21300000, guid: c58cc267e6c12b5429838b641db64865, type: 3}
    - time: 2.1
      value: {fileID: 21300000, guid: b67183f01e65bd34cbc9075f0b6730f0, type: 3}
    - time: 2.1333334
      value: {fileID: 21300000, guid: 849af3bb55607fd47ba028871900f8cc, type: 3}
    - time: 2.1666667
      value: {fileID: 21300000, guid: a3240868196b8a64cbcb983fad22628a, type: 3}
    - time: 2.2
      value: {fileID: 21300000, guid: 668281e5d92f9274982df4035e60fb7c, type: 3}
    - time: 2.2333333
      value: {fileID: 21300000, guid: c2e657cb5c618f54aa731726ca81e9f0, type: 3}
    - time: 2.2666667
      value: {fileID: 21300000, guid: 35610b838b90efb499d5f723a0a2276a, type: 3}
    - time: 2.3
      value: {fileID: 21300000, guid: f5c01e92d93204a44958fc80087735fa, type: 3}
    - time: 2.3333333
      value: {fileID: 21300000, guid: 855f7be03a7dfca49b46655de1b41775, type: 3}
    - time: 2.3666666
      value: {fileID: 21300000, guid: 3bedec6861497fb478985709b946cd99, type: 3}
    - time: 2.4
      value: {fileID: 21300000, guid: d7f7839779e592b46a9405632d0ba208, type: 3}
    - time: 2.4333334
      value: {fileID: 21300000, guid: eae26a08b6e042d4286975e3f86fc012, type: 3}
    - time: 2.4666667
      value: {fileID: 21300000, guid: d53c687020487064eb7ddad23f436017, type: 3}
    - time: 2.5
      value: {fileID: 21300000, guid: 37eec8898a62d2e448a1dbf209f9e3b3, type: 3}
    - time: 2.5333333
      value: {fileID: 21300000, guid: b408e23f374237f468b9d4b140c3294d, type: 3}
    - time: 2.5666666
      value: {fileID: 21300000, guid: 160b51370df8eb54999377c2535017ff, type: 3}
    - time: 2.6
      value: {fileID: 21300000, guid: 13a405b0cae9c264c918b840626d49a3, type: 3}
    - time: 2.6333334
      value: {fileID: 21300000, guid: 58bea8b3df54d984b9c0ade8b36eb29f, type: 3}
    - time: 2.6666667
      value: {fileID: 21300000, guid: 7fc2e3eab14620146baa52823dfcf29b, type: 3}
    - time: 2.7
      value: {fileID: 21300000, guid: 7ef9c09b60796554b8683fc5e71abd19, type: 3}
    - time: 2.7333333
      value: {fileID: 21300000, guid: 863fdfed98b8ba44fb6b4e98b42d3485, type: 3}
    - time: 2.7666667
      value: {fileID: 21300000, guid: 8cf71bc1c54a50a428fb1cf7c8f43f91, type: 3}
    - time: 2.8
      value: {fileID: 21300000, guid: 26ee1909a3414d44aa4a2e0797a0e79a, type: 3}
    - time: 2.8333333
      value: {fileID: 21300000, guid: 71db0d33ff8bf154abfd4b5b70b2675b, type: 3}
    - time: 2.8666666
      value: {fileID: 21300000, guid: 796b3f0207b535b40a9853b395106332, type: 3}
    - time: 2.9
      value: {fileID: 21300000, guid: ed7b7743415e2ee4db8c7c667796f1fc, type: 3}
    - time: 2.9333334
      value: {fileID: 21300000, guid: 79ffa02688c484b48b65257e7c36d550, type: 3}
    - time: 2.9666667
      value: {fileID: 21300000, guid: bb9a3d5c1fb77074f91007e41549d04f, type: 3}
    - time: 3
      value: {fileID: 21300000, guid: 03f591cdf971ee24292ab4ab449f60bc, type: 3}
    - time: 3.0333333
      value: {fileID: 21300000, guid: a458c524f84bcee4698276d8bb5c7a2d, type: 3}
    - time: 3.0666666
      value: {fileID: 21300000, guid: 40add5ec881c8164991a7a0b5da9b530, type: 3}
    - time: 3.1
      value: {fileID: 21300000, guid: 9722f3f57f2632046bffaeabb65949e6, type: 3}
    - time: 3.1333334
      value: {fileID: 21300000, guid: 997cc95d2e0df64488d82bf5d795010f, type: 3}
    - time: 3.1666667
      value: {fileID: 21300000, guid: cf268250ed01ad5479761a60c45515ed, type: 3}
    - time: 3.2
      value: {fileID: 21300000, guid: f8ea6c68d47b33346bd04bfe75c7158b, type: 3}
    - time: 3.2333333
      value: {fileID: 21300000, guid: 451bcad6c426e764592dc6fef0e7aea4, type: 3}
    - time: 3.2666667
      value: {fileID: 21300000, guid: 03d0cacc9516a3b40a8c1d9029f4b8d4, type: 3}
    - time: 3.3
      value: {fileID: 21300000, guid: 2abb5ad93ee0ea743b6fd126b1c7204b, type: 3}
    - time: 3.3333333
      value: {fileID: 21300000, guid: 1982a30a6f30c634b86d9927a8ba985a, type: 3}
    - time: 3.3666666
      value: {fileID: 21300000, guid: a87df4a8b7ceb4d49a1a897e8a8e94af, type: 3}
    - time: 3.4
      value: {fileID: 21300000, guid: 36f882b76a563354c9e6d3e0388ee88e, type: 3}
    - time: 3.4333334
      value: {fileID: 21300000, guid: 656a182ba1f11ad468f68b36fe0748df, type: 3}
    - time: 3.4666667
      value: {fileID: 21300000, guid: 4e0340c39f8ade14c9babe818254caea, type: 3}
    - time: 3.5
      value: {fileID: 21300000, guid: 0d7881e702f08bd488a33257d2c59cb9, type: 3}
    - time: 3.5333333
      value: {fileID: 21300000, guid: 65dc64e525d92df4cac5233b6d150cdb, type: 3}
    - time: 3.5666666
      value: {fileID: 21300000, guid: 3230433d5231ac748aa38cfa21235fd8, type: 3}
    - time: 3.6
      value: {fileID: 21300000, guid: eeba71f3fb4de16489465fc1993f6078, type: 3}
    - time: 3.6333334
      value: {fileID: 21300000, guid: 8ece32ae0a599464fa24c5770d4db6ee, type: 3}
    - time: 3.6666667
      value: {fileID: 21300000, guid: e1ba152bb45f6a3448afee42279a0f1f, type: 3}
    - time: 3.7
      value: {fileID: 21300000, guid: e34e371565eb707499e863c844cea733, type: 3}
    - time: 3.7333333
      value: {fileID: 21300000, guid: ee9fea31f9d2acf459eb10122a62a727, type: 3}
    - time: 3.7666667
      value: {fileID: 21300000, guid: 89745d3e6c8a16e49885319c0e6b439c, type: 3}
    - time: 3.8
      value: {fileID: 21300000, guid: 8d416adcb8d3dc640b581fbbf415a3d0, type: 3}
    - time: 3.8333333
      value: {fileID: 21300000, guid: 9d7c02a0daa106d4490856cec024fa21, type: 3}
    - time: 3.8666666
      value: {fileID: 21300000, guid: 62c50a214f221744dbee292ca8eaf4f5, type: 3}
    - time: 3.9
      value: {fileID: 21300000, guid: c50c2ee2b78ce3a459070e464adab29f, type: 3}
    - time: 3.9333334
      value: {fileID: 21300000, guid: 8fea4f17b11869642b81c5282e23e0fd, type: 3}
    - time: 3.9666667
      value: {fileID: 21300000, guid: 5dfdc465d55568d4d8a4e9134e13a049, type: 3}
    - time: 4
      value: {fileID: 21300000, guid: 9af9bebae930b30429118d949356e509, type: 3}
    - time: 4.0333333
      value: {fileID: 21300000, guid: f9d40aa10caac4a488968d36e14e0de9, type: 3}
    - time: 4.0666666
      value: {fileID: 21300000, guid: ffb7ba4f82446dc46972bb51605dcf4e, type: 3}
    - time: 4.1
      value: {fileID: 21300000, guid: 9f93fe283e01f8543bf5ce4700d65af4, type: 3}
    - time: 4.133333
      value: {fileID: 21300000, guid: e84b614ddb24c464690edb5826e1a788, type: 3}
    - time: 4.1666665
      value: {fileID: 21300000, guid: 0b384e9315855c84286ba662a9375def, type: 3}
    - time: 4.2
      value: {fileID: 21300000, guid: d6de00eee8453364da41207dca35ead6, type: 3}
    - time: 4.233333
      value: {fileID: 21300000, guid: c58e114a038ee5842b636d51a24749a4, type: 3}
    - time: 4.266667
      value: {fileID: 21300000, guid: 69e8b918095035b45ab1d58d3624e08b, type: 3}
    - time: 4.3
      value: {fileID: 21300000, guid: 7a3815fdc38685e48b8a31eed9a5b5de, type: 3}
    - time: 4.3333335
      value: {fileID: 21300000, guid: d45f59ad3baf71d43a312abd33fc2132, type: 3}
    - time: 4.366667
      value: {fileID: 21300000, guid: d9c248593e8c4cc4a9ddd588f906e421, type: 3}
    - time: 4.4
      value: {fileID: 21300000, guid: bed5f6365b46e414eb66b780fd246c95, type: 3}
    - time: 4.4333334
      value: {fileID: 21300000, guid: 80565b46f17b16f4ba3c3e8192685d22, type: 3}
    - time: 4.4666667
      value: {fileID: 21300000, guid: 1ede38dd4429c8d4a831d38d8a85c9ff, type: 3}
    - time: 4.5
      value: {fileID: 21300000, guid: bdf3af95b1e038043b7ab579a47c74ff, type: 3}
    - time: 4.5333333
      value: {fileID: 21300000, guid: 04d0f8b15b5e8c5468ce8a39cf20cdc1, type: 3}
    - time: 4.5666666
      value: {fileID: 21300000, guid: 2ee22a9049d15df45acebd122627aa58, type: 3}
    - time: 4.6
      value: {fileID: 21300000, guid: 7ce6c5d6064dabc4e893b23b56b8524f, type: 3}
    - time: 4.633333
      value: {fileID: 21300000, guid: 0f71e1161a1501d458b430eaf818bdda, type: 3}
    - time: 4.6666665
      value: {fileID: 21300000, guid: 8a19a5ce53bb8c34f91006bbcb5868d9, type: 3}
    - time: 4.7
      value: {fileID: 21300000, guid: c7f1f6eb6ba3a4745ac02832fad9374e, type: 3}
    - time: 4.733333
      value: {fileID: 21300000, guid: fa56dd118bf0b8244927d54c3341fe05, type: 3}
    - time: 4.766667
      value: {fileID: 21300000, guid: 67d58dc4b8daba149b35b1c2f0279f05, type: 3}
    - time: 4.8
      value: {fileID: 21300000, guid: 4c2ad67ce50da9d40b85e85ee9650e8e, type: 3}
    - time: 4.8333335
      value: {fileID: 21300000, guid: 57dd9b35cd1e2c7418a29619eb50ae8a, type: 3}
    - time: 4.866667
      value: {fileID: 21300000, guid: 48ec8090df3d8e244a6be3eeab7f1cee, type: 3}
    - time: 4.9
      value: {fileID: 21300000, guid: 57b786281bf62be4f9c962b311515ba9, type: 3}
    - time: 4.9333334
      value: {fileID: 21300000, guid: 31fce5a263f762b478961d14907a5963, type: 3}
    - time: 4.9666667
      value: {fileID: 21300000, guid: 6670659de4ee51049b2fa2cefd767411, type: 3}
    - time: 5
      value: {fileID: 21300000, guid: 77ff25a2d600c634f8b968b4432aa42b, type: 3}
    - time: 5.0333333
      value: {fileID: 21300000, guid: a1ac5f4c6c7d4ec4592e0a90f3cfdb0d, type: 3}
    - time: 5.0666666
      value: {fileID: 21300000, guid: 6e49feea6eba1fa46aac796d1eb049fb, type: 3}
    - time: 5.1
      value: {fileID: 21300000, guid: 8b5fa47a6a59adb4883e8b4500b58f11, type: 3}
    - time: 5.133333
      value: {fileID: 21300000, guid: a25225a600a84bb46aba10e5b252e5cc, type: 3}
    - time: 5.1666665
      value: {fileID: 21300000, guid: 350ceb38aafcf194486c71aa57b092b9, type: 3}
    - time: 5.2
      value: {fileID: 21300000, guid: fe88fd9a949519248b44a048993d0964, type: 3}
    - time: 5.233333
      value: {fileID: 21300000, guid: b7ba11d7fc2477f4985379cabec88329, type: 3}
    - time: 5.266667
      value: {fileID: 21300000, guid: b66b45ea4db77a54a836ba896345d5fd, type: 3}
    - time: 5.3
      value: {fileID: 21300000, guid: 9e5098df33786fe43b6296395e43ca06, type: 3}
    - time: 5.3333335
      value: {fileID: 21300000, guid: 36a6c86a9c07c8a4e869a99c7fd3795d, type: 3}
    - time: 5.366667
      value: {fileID: 21300000, guid: 76743da5cfb0e7c49bd8b6b4b77949ab, type: 3}
    - time: 5.4
      value: {fileID: 21300000, guid: 6dc36359751d3934695c3b3c289503c2, type: 3}
    - time: 5.4333334
      value: {fileID: 21300000, guid: 67a7d9658f58a0f4a8d0718b0cb6a71b, type: 3}
    - time: 5.4666667
      value: {fileID: 21300000, guid: 1a1a34fd242331f47b05b487ac835a27, type: 3}
    - time: 5.5
      value: {fileID: 21300000, guid: 25284a27f88f8784db374534600a8079, type: 3}
    - time: 5.5333333
      value: {fileID: 21300000, guid: 451d7b05d3d6b3d49b9a4a6f88e96c07, type: 3}
    - time: 5.5666666
      value: {fileID: 21300000, guid: d7f17fce88e7f144898bf3251d429f2d, type: 3}
    - time: 5.6
      value: {fileID: 21300000, guid: 6ed37b0e999d74849b64a1a2e9a48c6b, type: 3}
    - time: 5.633333
      value: {fileID: 21300000, guid: 748f6240a6b0f7b4ea2f65e0d1e66a5c, type: 3}
    - time: 5.6666665
      value: {fileID: 21300000, guid: 1d1f81d33da9b7c41a87d4c3429ba375, type: 3}
    - time: 5.7
      value: {fileID: 21300000, guid: 18b75fe23a91d03418b52b7b7bb5c6c8, type: 3}
    - time: 5.733333
      value: {fileID: 21300000, guid: daa05bcbc0a186b40ac62a842e94c4bb, type: 3}
    - time: 5.766667
      value: {fileID: 21300000, guid: a194ea4477a94ab44bbb2fa841132fa1, type: 3}
    - time: 5.8
      value: {fileID: 21300000, guid: 275a1f42302064e499b75b8e96b0dc5a, type: 3}
    - time: 5.8333335
      value: {fileID: 21300000, guid: 13090a619f874634281aa1f9b513c089, type: 3}
    - time: 5.866667
      value: {fileID: 21300000, guid: f2285eaf61a17b9459f68fe106b7a3b5, type: 3}
    - time: 5.9
      value: {fileID: 21300000, guid: 7b2f59cecdd2b784bb6ee0d098ae920f, type: 3}
    - time: 5.9333334
      value: {fileID: 21300000, guid: cb4ee7f594b82b64cbd990972703a633, type: 3}
    - time: 5.9666667
      value: {fileID: 21300000, guid: 92c3112e67a934b48b214c5dcc4acab6, type: 3}
    - time: 6
      value: {fileID: 21300000, guid: 6a72c5f15af16fd429166b1a88c25095, type: 3}
    - time: 6.0333333
      value: {fileID: 21300000, guid: 8369f25e592f1004bb70b279132965a4, type: 3}
    - time: 6.0666666
      value: {fileID: 21300000, guid: 1eb79aca796bf49468928fd025758789, type: 3}
    - time: 6.1
      value: {fileID: 21300000, guid: 61a62e937ecf93d4fa88b4864a2b6279, type: 3}
    - time: 6.133333
      value: {fileID: 21300000, guid: f547858e1710af74f82a644528ec9271, type: 3}
    - time: 6.1666665
      value: {fileID: 21300000, guid: 257189f4f09f2fe49911ea18b90d328e, type: 3}
    - time: 6.2
      value: {fileID: 21300000, guid: 848eccb0a8659fe45b10df9f074203fa, type: 3}
    - time: 6.233333
      value: {fileID: 21300000, guid: 52ff7d3a5729abb4f86630b6406d4b16, type: 3}
    - time: 6.266667
      value: {fileID: 21300000, guid: 00a63849044bfb64d934f41082fd053d, type: 3}
    - time: 6.3
      value: {fileID: 21300000, guid: 78408f17ff5cd77408e02d1061441a12, type: 3}
    - time: 6.3333335
      value: {fileID: 21300000, guid: 77b42e60ee7f1104792c1f0dee12fa5f, type: 3}
    - time: 6.366667
      value: {fileID: 21300000, guid: daaa74d322833ff43a265b186c98daa9, type: 3}
    - time: 6.4
      value: {fileID: 21300000, guid: e2703cf767068804c97ab153db9655e9, type: 3}
    - time: 6.4333334
      value: {fileID: 21300000, guid: 958582cb401ee1d48bf4d5cda6d09a81, type: 3}
    - time: 6.4666667
      value: {fileID: 21300000, guid: 8d6971438fc874a43b273a24f24d000e, type: 3}
    - time: 6.5
      value: {fileID: 21300000, guid: eaef8dbfca953014db37cfeede8f4680, type: 3}
    - time: 6.5333333
      value: {fileID: 21300000, guid: 459cd6c4e48b6ff45be2a466f9490937, type: 3}
    - time: 6.5666666
      value: {fileID: 21300000, guid: 26ef1306beac72246bb6a6e52873b104, type: 3}
    - time: 6.6
      value: {fileID: 21300000, guid: 660206ad3fe3a3b4badf269b1a38f4ba, type: 3}
    - time: 6.633333
      value: {fileID: 21300000, guid: 7ee7e844699a03641b3034bc31a9ad3d, type: 3}
    - time: 6.6666665
      value: {fileID: 21300000, guid: a935fe38d2c15f64ea61db2a485e48e5, type: 3}
    - time: 6.7
      value: {fileID: 21300000, guid: 72505b391cf4bd44cab4ac3ff6569e78, type: 3}
    - time: 6.733333
      value: {fileID: 21300000, guid: f4451edb134cb9448b4b87fec18581df, type: 3}
    - time: 6.766667
      value: {fileID: 21300000, guid: ccd172bd36332bf4db1d0c14b428b2e4, type: 3}
    - time: 6.8
      value: {fileID: 21300000, guid: 8f77d6510a8e21249a1b8f6109c3ddbd, type: 3}
    - time: 6.8333335
      value: {fileID: 21300000, guid: d9200eed509c26044a3094eafe26955c, type: 3}
    - time: 6.866667
      value: {fileID: 21300000, guid: 1a408734a93a0034795f9b0651367f35, type: 3}
    - time: 6.9
      value: {fileID: 21300000, guid: 476e9b941ac45fd4db3693f09099c173, type: 3}
    - time: 6.9333334
      value: {fileID: 21300000, guid: affc69b8bbcd4c249a014b4c52af7868, type: 3}
    - time: 6.9666667
      value: {fileID: 21300000, guid: a4293ea8b351d894c8383113b07826d4, type: 3}
    - time: 7
      value: {fileID: 21300000, guid: c66cbc00cb8afe448aa8e10e558f5584, type: 3}
    - time: 7.0333333
      value: {fileID: 21300000, guid: d0b88e469b8d5ae4aa1c17f5c5ac928d, type: 3}
    - time: 7.0666666
      value: {fileID: 21300000, guid: 90f779b15861fab40ae45b47d2e38a44, type: 3}
    - time: 7.1
      value: {fileID: 21300000, guid: 8e3077ce948221c49aa82f3b85372f5b, type: 3}
    - time: 7.133333
      value: {fileID: 21300000, guid: 48973b29f88beaf458e0084ba08d34ec, type: 3}
    - time: 7.1666665
      value: {fileID: 21300000, guid: ec2ff05c833bb6042b1525bc341e0780, type: 3}
    - time: 7.2
      value: {fileID: 21300000, guid: b726dc28e6803fe4784b18cbd031c41e, type: 3}
    - time: 7.233333
      value: {fileID: 21300000, guid: f9848c5f7b6febc42b96498d5bc35344, type: 3}
    - time: 7.266667
      value: {fileID: 21300000, guid: 914d74dd6e98efd4792cafeb4194d520, type: 3}
    - time: 7.3
      value: {fileID: 21300000, guid: 0c0454e74c245624080bc9e7ec31343e, type: 3}
    - time: 7.3333335
      value: {fileID: 21300000, guid: 2ff60ca7a8719d040a1ecbf9ff14e305, type: 3}
    - time: 7.366667
      value: {fileID: 21300000, guid: 32068af720a6ed340982ca860df357f8, type: 3}
    - time: 7.4
      value: {fileID: 21300000, guid: a2129ac35c1719f4c8aa4e0da7c9a783, type: 3}
    - time: 7.4333334
      value: {fileID: 21300000, guid: 8cf8779c2ccd0434980d79ec3563fd5f, type: 3}
    - time: 7.4666667
      value: {fileID: 21300000, guid: 64737bbec8bccc94abb8decc2f1c3065, type: 3}
    - time: 7.5
      value: {fileID: 21300000, guid: 925e209043f02954685b540c418ef10e, type: 3}
    - time: 7.5333333
      value: {fileID: 21300000, guid: c99b3ade4a642d64981f26a5f36c46f3, type: 3}
    - time: 7.5666666
      value: {fileID: 21300000, guid: 6c642ef61bcce1940838753b5d7ecfe4, type: 3}
    - time: 7.6
      value: {fileID: 21300000, guid: 50e03e4bf00196640bc1d315ce49f5ce, type: 3}
    - time: 7.633333
      value: {fileID: 21300000, guid: 642657e2dda364e41b7160ed3b511d4a, type: 3}
    - time: 7.6666665
      value: {fileID: 21300000, guid: 8d67d7bd902176b4b9b238395c2f405f, type: 3}
    - time: 7.7
      value: {fileID: 21300000, guid: 3bd2adeb90fbf164997d52db04d73188, type: 3}
    - time: 7.733333
      value: {fileID: 21300000, guid: cfb5807a01966364d89a66382d3be2cd, type: 3}
    - time: 7.766667
      value: {fileID: 21300000, guid: da30502e43d1ba64894a07c65f7e4b8a, type: 3}
    - time: 7.8
      value: {fileID: 21300000, guid: 0467007908eb80b4c83c9e98de725aef, type: 3}
    - time: 7.8333335
      value: {fileID: 21300000, guid: 4e07e3e1a7aa9a44c98484c7d4c57537, type: 3}
    - time: 7.866667
      value: {fileID: 21300000, guid: f709c48c72fb4284caed6172c54266d5, type: 3}
    - time: 7.9
      value: {fileID: 21300000, guid: e8c677ef924697a45b4d063dbb3b8b3a, type: 3}
    - time: 7.9333334
      value: {fileID: 21300000, guid: e17301401782c78458668d5f9df1ac21, type: 3}
    - time: 7.9666667
      value: {fileID: 21300000, guid: ef2d682c9201d2848953dae795cac1c5, type: 3}
    - time: 8
      value: {fileID: 21300000, guid: 03bf455cc3d1b2448991a4ca10cac6b2, type: 3}
    - time: 8.033334
      value: {fileID: 21300000, guid: 689646b0ad6730744bacbce80ba73bb5, type: 3}
    - time: 8.066667
      value: {fileID: 21300000, guid: 6ecb78a38633ee644a24a2320c24a44c, type: 3}
    - time: 8.1
      value: {fileID: 21300000, guid: a0bf71579cfcc3948aeb23ec711a3257, type: 3}
    - time: 8.133333
      value: {fileID: 21300000, guid: 74e86b09be0629946accf1a15b7e1a0c, type: 3}
    - time: 8.166667
      value: {fileID: 21300000, guid: b4bbe767c742b1a44ae75a98f2e7f1ce, type: 3}
    - time: 8.2
      value: {fileID: 21300000, guid: 781750727c1a64e46bd7d5541e31c03e, type: 3}
    - time: 8.233334
      value: {fileID: 21300000, guid: 428e3e25acc1ece4b89e8ef66227a4c9, type: 3}
    - time: 8.266666
      value: {fileID: 21300000, guid: 0fb8e264a6c6f094aba222eca61b1812, type: 3}
    - time: 8.3
      value: {fileID: 21300000, guid: 8715a47e088fba5439093419c357a740, type: 3}
    - time: 8.333333
      value: {fileID: 21300000, guid: f3cd3343a9460404e95b0ee8353e2358, type: 3}
    - time: 8.366667
      value: {fileID: 21300000, guid: dc0a91dc88226c940b044b56d5d4f8c0, type: 3}
    - time: 8.4
      value: {fileID: 21300000, guid: ae7e5aab7303ddf4183db1b5e61b3992, type: 3}
    - time: 8.433333
      value: {fileID: 21300000, guid: e19586e79ba83b84b8ae6b544cfc32d4, type: 3}
    - time: 8.466666
      value: {fileID: 21300000, guid: dd120527d7cd4904bafe61be840732c8, type: 3}
    - time: 8.5
      value: {fileID: 21300000, guid: 57b7b43dd31352e4ebce05ce4b170b28, type: 3}
    - time: 8.533334
      value: {fileID: 21300000, guid: d8c437bfff6163848894338635f89bc6, type: 3}
    - time: 8.566667
      value: {fileID: 21300000, guid: db0bf252136ffd34e856fc5fdeb108e5, type: 3}
    - time: 8.6
      value: {fileID: 21300000, guid: 146270f555c6ee545bbf604cdf755598, type: 3}
    - time: 8.633333
      value: {fileID: 21300000, guid: 5ce031fc1ced5b14ebf05053e26dc2d7, type: 3}
    - time: 8.666667
      value: {fileID: 21300000, guid: 12418a3ce15694c42b2e0e1719f4204a, type: 3}
    - time: 8.7
      value: {fileID: 21300000, guid: 5aa1efee9caf47d4bb7a9d72fd3209bf, type: 3}
    - time: 8.733334
      value: {fileID: 21300000, guid: ed12571854bfab9478b2729d550221f4, type: 3}
    - time: 8.766666
      value: {fileID: 21300000, guid: 69254ff86076b7542a40639b600b5e01, type: 3}
    - time: 8.8
      value: {fileID: 21300000, guid: 26aaf288f0b80fc4b8341f3b1092c39a, type: 3}
    - time: 8.833333
      value: {fileID: 21300000, guid: 57fb6ba27733b274580752e040fa58a0, type: 3}
    - time: 8.866667
      value: {fileID: 21300000, guid: 604c0aeee155165438c304d89fd5a6fc, type: 3}
    - time: 8.9
      value: {fileID: 21300000, guid: 5712b2679b4bbc140b0ee1866262669d, type: 3}
    - time: 8.933333
      value: {fileID: 21300000, guid: 4ab0858192b9e6d42a373c755758b669, type: 3}
    - time: 8.966666
      value: {fileID: 21300000, guid: e966598b533947b42ac4a62e84cdd5fb, type: 3}
    - time: 9
      value: {fileID: 21300000, guid: b892fce80e44a3548b0b2ebdee2395cc, type: 3}
    - time: 9.033334
      value: {fileID: 21300000, guid: a57f5655ccd165b4eb23424cb095b23b, type: 3}
    - time: 9.066667
      value: {fileID: 21300000, guid: 77f44db80db8d514aa7a1fa821271ef2, type: 3}
    - time: 9.1
      value: {fileID: 21300000, guid: 89505081622509d4f9280bca34a66a59, type: 3}
    - time: 9.133333
      value: {fileID: 21300000, guid: 13d213b8f08b53c48b6183c86c4fb840, type: 3}
    attribute: m_Sprite
    path: 
    classID: 212
    script: {fileID: 0}
  m_SampleRate: 30
  m_WrapMode: 0
  m_Bounds:
    m_Center: {x: 0, y: 0, z: 0}
    m_Extent: {x: 0, y: 0, z: 0}
  m_ClipBindingConstant:
    genericBindings:
    - serializedVersion: 2
      path: 0
      attribute: 0
      script: {fileID: 0}
      typeID: 212
      customType: 23
      isPPtrCurve: 1
    pptrCurveMapping:
    - {fileID: 21300000, guid: 5eb318f500fc90748a4d538ab7e3cc09, type: 3}
    - {fileID: 21300000, guid: d7dabaaeaea59fb42921e452bcae0ba3, type: 3}
    - {fileID: 21300000, guid: 96cad95e8327f1c48bd68c4fcbe8648a, type: 3}
    - {fileID: 21300000, guid: 14412a62e48c2644f8d8b75520b489e5, type: 3}
    - {fileID: 21300000, guid: 8f66cf2ee50f24f46822b3978399177f, type: 3}
    - {fileID: 21300000, guid: c31183628dc174b409b2cc5e608cc601, type: 3}
    - {fileID: 21300000, guid: a9800de34d0c73047a6fc33c93d80cba, type: 3}
    - {fileID: 21300000, guid: af5f9f26b88754c4a8ad17804d4fd41a, type: 3}
    - {fileID: 21300000, guid: 21e27367e2c23b243aaa22efc6a335ab, type: 3}
    - {fileID: 21300000, guid: 92a2895318108154bb452142fad32dd4, type: 3}
    - {fileID: 21300000, guid: 29d5f02b6fcc8a4409ab56f040afd958, type: 3}
    - {fileID: 21300000, guid: 3e97d4ffa5519694a841e8d8ad5ac039, type: 3}
    - {fileID: 21300000, guid: b7f8f5495a8b8024e8412fd905144bcb, type: 3}
    - {fileID: 21300000, guid: 818d63d3832a5284e8bb3b2aad47e426, type: 3}
    - {fileID: 21300000, guid: 8fadf9aa82ea69344890c9f8fa37350f, type: 3}
    - {fileID: 21300000, guid: c9947b8335b0cce4288d09dea68875e0, type: 3}
    - {fileID: 21300000, guid: 864aeb411c850f54bb7ea2a4820c2026, type: 3}
    - {fileID: 21300000, guid: af0cee016c231aa458755a039ca792e9, type: 3}
    - {fileID: 21300000, guid: a6530545b205a4e4ca33c2a580b86ffe, type: 3}
    - {fileID: 21300000, guid: 2b90b20bc466e90468b7c1b179b797fc, type: 3}
    - {fileID: 21300000, guid: f46244151b7d7014d99e6b6d93fc4509, type: 3}
    - {fileID: 21300000, guid: 7ef355c5f74f65d459e4e02d48a14113, type: 3}
    - {fileID: 21300000, guid: 5f28aab5298e81148bd18b5e7d2c058d, type: 3}
    - {fileID: 21300000, guid: 6fc88b427dddafa488e98dd5944c1f93, type: 3}
    - {fileID: 21300000, guid: 148aae815218c254e97f5c1c6d224192, type: 3}
    - {fileID: 21300000, guid: 006945ff29fd79f498b43e39071d2a82, type: 3}
    - {fileID: 21300000, guid: 343ae5e47478ecf44bbae0efca337f8b, type: 3}
    - {fileID: 21300000, guid: 1901133e8edde92439c69cbff5a30115, type: 3}
    - {fileID: 21300000, guid: 0eff30d2575d25443a9c46623c4061bc, type: 3}
    - {fileID: 21300000, guid: 6fd8e936c1643ad4c86708cc6c1458e4, type: 3}
    - {fileID: 21300000, guid: 91ac5bd437eab6b468ffa4fb22ff387e, type: 3}
    - {fileID: 21300000, guid: 970b76b862a213c46a136d5f5df73e68, type: 3}
    - {fileID: 21300000, guid: 18439819cb2e0a54ea4b17f3319e2e4d, type: 3}
    - {fileID: 21300000, guid: 06ebf8f064239cf4ca28cd68882a6b80, type: 3}
    - {fileID: 21300000, guid: bbfe65eedc6226c4a9313a2bf5c7142f, type: 3}
    - {fileID: 21300000, guid: 61978dc80924aee429cec55691eef3e1, type: 3}
    - {fileID: 21300000, guid: f23e33831deba444bb261f616c83ea5a, type: 3}
    - {fileID: 21300000, guid: 4acc75e6c7e67c746aa3c352e9f122ce, type: 3}
    - {fileID: 21300000, guid: f826e98f4e4cb794a9f689e2a841206c, type: 3}
    - {fileID: 21300000, guid: 56835634f60680040b820c74e811d672, type: 3}
    - {fileID: 21300000, guid: 5a7ac2a928c0d6847b0b69a7a771a0fa, type: 3}
    - {fileID: 21300000, guid: d868e911395292c41804dd41de264106, type: 3}
    - {fileID: 21300000, guid: 8c60bcf7ba49c9c4da831cae84b104ad, type: 3}
    - {fileID: 21300000, guid: 2d791a88e36d6f246919c3de527bbd0e, type: 3}
    - {fileID: 21300000, guid: 084e59c6cc2eab24bbaac538946acb5e, type: 3}
    - {fileID: 21300000, guid: ac95ef587d7708e428cb8818ebf6f177, type: 3}
    - {fileID: 21300000, guid: c32585e034f2f0043bbaff090646d07c, type: 3}
    - {fileID: 21300000, guid: 849ab87096fc4a74a8219979646eef9f, type: 3}
    - {fileID: 21300000, guid: 101ad1c2bf3ee1f4490afea1a25d36f6, type: 3}
    - {fileID: 21300000, guid: 9fd5e93a4ce48f04f9d224df5fc95ff8, type: 3}
    - {fileID: 21300000, guid: 6dfff9e3c041c31458dbdbc0a10c7c30, type: 3}
    - {fileID: 21300000, guid: 4249583d8dddb0e4fad4a19316b786cb, type: 3}
    - {fileID: 21300000, guid: c93a9bb0ac9095a4bb144227736770a9, type: 3}
    - {fileID: 21300000, guid: 39584a36e691e294eb0f01896cbf5c41, type: 3}
    - {fileID: 21300000, guid: dad2e4ba59c472944be6d636aef0ae31, type: 3}
    - {fileID: 21300000, guid: 887feb5d6c0ee1540bb81f6b12d9c8d4, type: 3}
    - {fileID: 21300000, guid: ef2f298768cabd24f89df481014cf597, type: 3}
    - {fileID: 21300000, guid: 6e548f536916ffb4882519c71f808e5b, type: 3}
    - {fileID: 21300000, guid: fe674bbeb4e3edc4188108b321e84903, type: 3}
    - {fileID: 21300000, guid: a3e4cff920ca8ba4f9cf1846b776f388, type: 3}
    - {fileID: 21300000, guid: 0f0b89c8bfc3e29429e9555c74fe77ea, type: 3}
    - {fileID: 21300000, guid: 52242a0cc7f1fc74cab4618fa07c7de5, type: 3}
    - {fileID: 21300000, guid: c58cc267e6c12b5429838b641db64865, type: 3}
    - {fileID: 21300000, guid: b67183f01e65bd34cbc9075f0b6730f0, type: 3}
    - {fileID: 21300000, guid: 849af3bb55607fd47ba028871900f8cc, type: 3}
    - {fileID: 21300000, guid: a3240868196b8a64cbcb983fad22628a, type: 3}
    - {fileID: 21300000, guid: 668281e5d92f9274982df4035e60fb7c, type: 3}
    - {fileID: 21300000, guid: c2e657cb5c618f54aa731726ca81e9f0, type: 3}
    - {fileID: 21300000, guid: 35610b838b90efb499d5f723a0a2276a, type: 3}
    - {fileID: 21300000, guid: f5c01e92d93204a44958fc80087735fa, type: 3}
    - {fileID: 21300000, guid: 855f7be03a7dfca49b46655de1b41775, type: 3}
    - {fileID: 21300000, guid: 3bedec6861497fb478985709b946cd99, type: 3}
    - {fileID: 21300000, guid: d7f7839779e592b46a9405632d0ba208, type: 3}
    - {fileID: 21300000, guid: eae26a08b6e042d4286975e3f86fc012, type: 3}
    - {fileID: 21300000, guid: d53c687020487064eb7ddad23f436017, type: 3}
    - {fileID: 21300000, guid: 37eec8898a62d2e448a1dbf209f9e3b3, type: 3}
    - {fileID: 21300000, guid: b408e23f374237f468b9d4b140c3294d, type: 3}
    - {fileID: 21300000, guid: 160b51370df8eb54999377c2535017ff, type: 3}
    - {fileID: 21300000, guid: 13a405b0cae9c264c918b840626d49a3, type: 3}
    - {fileID: 21300000, guid: 58bea8b3df54d984b9c0ade8b36eb29f, type: 3}
    - {fileID: 21300000, guid: 7fc2e3eab14620146baa52823dfcf29b, type: 3}
    - {fileID: 21300000, guid: 7ef9c09b60796554b8683fc5e71abd19, type: 3}
    - {fileID: 21300000, guid: 863fdfed98b8ba44fb6b4e98b42d3485, type: 3}
    - {fileID: 21300000, guid: 8cf71bc1c54a50a428fb1cf7c8f43f91, type: 3}
    - {fileID: 21300000, guid: 26ee1909a3414d44aa4a2e0797a0e79a, type: 3}
    - {fileID: 21300000, guid: 71db0d33ff8bf154abfd4b5b70b2675b, type: 3}
    - {fileID: 21300000, guid: 796b3f0207b535b40a9853b395106332, type: 3}
    - {fileID: 21300000, guid: ed7b7743415e2ee4db8c7c667796f1fc, type: 3}
    - {fileID: 21300000, guid: 79ffa02688c484b48b65257e7c36d550, type: 3}
    - {fileID: 21300000, guid: bb9a3d5c1fb77074f91007e41549d04f, type: 3}
    - {fileID: 21300000, guid: 03f591cdf971ee24292ab4ab449f60bc, type: 3}
    - {fileID: 21300000, guid: a458c524f84bcee4698276d8bb5c7a2d, type: 3}
    - {fileID: 21300000, guid: 40add5ec881c8164991a7a0b5da9b530, type: 3}
    - {fileID: 21300000, guid: 9722f3f57f2632046bffaeabb65949e6, type: 3}
    - {fileID: 21300000, guid: 997cc95d2e0df64488d82bf5d795010f, type: 3}
    - {fileID: 21300000, guid: cf268250ed01ad5479761a60c45515ed, type: 3}
    - {fileID: 21300000, guid: f8ea6c68d47b33346bd04bfe75c7158b, type: 3}
    - {fileID: 21300000, guid: 451bcad6c426e764592dc6fef0e7aea4, type: 3}
    - {fileID: 21300000, guid: 03d0cacc9516a3b40a8c1d9029f4b8d4, type: 3}
    - {fileID: 21300000, guid: 2abb5ad93ee0ea743b6fd126b1c7204b, type: 3}
    - {fileID: 21300000, guid: 1982a30a6f30c634b86d9927a8ba985a, type: 3}
    - {fileID: 21300000, guid: a87df4a8b7ceb4d49a1a897e8a8e94af, type: 3}
    - {fileID: 21300000, guid: 36f882b76a563354c9e6d3e0388ee88e, type: 3}
    - {fileID: 21300000, guid: 656a182ba1f11ad468f68b36fe0748df, type: 3}
    - {fileID: 21300000, guid: 4e0340c39f8ade14c9babe818254caea, type: 3}
    - {fileID: 21300000, guid: 0d7881e702f08bd488a33257d2c59cb9, type: 3}
    - {fileID: 21300000, guid: 65dc64e525d92df4cac5233b6d150cdb, type: 3}
    - {fileID: 21300000, guid: 3230433d5231ac748aa38cfa21235fd8, type: 3}
    - {fileID: 21300000, guid: eeba71f3fb4de16489465fc1993f6078, type: 3}
    - {fileID: 21300000, guid: 8ece32ae0a599464fa24c5770d4db6ee, type: 3}
    - {fileID: 21300000, guid: e1ba152bb45f6a3448afee42279a0f1f, type: 3}
    - {fileID: 21300000, guid: e34e371565eb707499e863c844cea733, type: 3}
    - {fileID: 21300000, guid: ee9fea31f9d2acf459eb10122a62a727, type: 3}
    - {fileID: 21300000, guid: 89745d3e6c8a16e49885319c0e6b439c, type: 3}
    - {fileID: 21300000, guid: 8d416adcb8d3dc640b581fbbf415a3d0, type: 3}
    - {fileID: 21300000, guid: 9d7c02a0daa106d4490856cec024fa21, type: 3}
    - {fileID: 21300000, guid: 62c50a214f221744dbee292ca8eaf4f5, type: 3}
    - {fileID: 21300000, guid: c50c2ee2b78ce3a459070e464adab29f, type: 3}
    - {fileID: 21300000, guid: 8fea4f17b11869642b81c5282e23e0fd, type: 3}
    - {fileID: 21300000, guid: 5dfdc465d55568d4d8a4e9134e13a049, type: 3}
    - {fileID: 21300000, guid: 9af9bebae930b30429118d949356e509, type: 3}
    - {fileID: 21300000, guid: f9d40aa10caac4a488968d36e14e0de9, type: 3}
    - {fileID: 21300000, guid: ffb7ba4f82446dc46972bb51605dcf4e, type: 3}
    - {fileID: 21300000, guid: 9f93fe283e01f8543bf5ce4700d65af4, type: 3}
    - {fileID: 21300000, guid: e84b614ddb24c464690edb5826e1a788, type: 3}
    - {fileID: 21300000, guid: 0b384e9315855c84286ba662a9375def, type: 3}
    - {fileID: 21300000, guid: d6de00eee8453364da41207dca35ead6, type: 3}
    - {fileID: 21300000, guid: c58e114a038ee5842b636d51a24749a4, type: 3}
    - {fileID: 21300000, guid: 69e8b918095035b45ab1d58d3624e08b, type: 3}
    - {fileID: 21300000, guid: 7a3815fdc38685e48b8a31eed9a5b5de, type: 3}
    - {fileID: 21300000, guid: d45f59ad3baf71d43a312abd33fc2132, type: 3}
    - {fileID: 21300000, guid: d9c248593e8c4cc4a9ddd588f906e421, type: 3}
    - {fileID: 21300000, guid: bed5f6365b46e414eb66b780fd246c95, type: 3}
    - {fileID: 21300000, guid: 80565b46f17b16f4ba3c3e8192685d22, type: 3}
    - {fileID: 21300000, guid: 1ede38dd4429c8d4a831d38d8a85c9ff, type: 3}
    - {fileID: 21300000, guid: bdf3af95b1e038043b7ab579a47c74ff, type: 3}
    - {fileID: 21300000, guid: 04d0f8b15b5e8c5468ce8a39cf20cdc1, type: 3}
    - {fileID: 21300000, guid: 2ee22a9049d15df45acebd122627aa58, type: 3}
    - {fileID: 21300000, guid: 7ce6c5d6064dabc4e893b23b56b8524f, type: 3}
    - {fileID: 21300000, guid: 0f71e1161a1501d458b430eaf818bdda, type: 3}
    - {fileID: 21300000, guid: 8a19a5ce53bb8c34f91006bbcb5868d9, type: 3}
    - {fileID: 21300000, guid: c7f1f6eb6ba3a4745ac02832fad9374e, type: 3}
    - {fileID: 21300000, guid: fa56dd118bf0b8244927d54c3341fe05, type: 3}
    - {fileID: 21300000, guid: 67d58dc4b8daba149b35b1c2f0279f05, type: 3}
    - {fileID: 21300000, guid: 4c2ad67ce50da9d40b85e85ee9650e8e, type: 3}
    - {fileID: 21300000, guid: 57dd9b35cd1e2c7418a29619eb50ae8a, type: 3}
    - {fileID: 21300000, guid: 48ec8090df3d8e244a6be3eeab7f1cee, type: 3}
    - {fileID: 21300000, guid: 57b786281bf62be4f9c962b311515ba9, type: 3}
    - {fileID: 21300000, guid: 31fce5a263f762b478961d14907a5963, type: 3}
    - {fileID: 21300000, guid: 6670659de4ee51049b2fa2cefd767411, type: 3}
    - {fileID: 21300000, guid: 77ff25a2d600c634f8b968b4432aa42b, type: 3}
    - {fileID: 21300000, guid: a1ac5f4c6c7d4ec4592e0a90f3cfdb0d, type: 3}
    - {fileID: 21300000, guid: 6e49feea6eba1fa46aac796d1eb049fb, type: 3}
    - {fileID: 21300000, guid: 8b5fa47a6a59adb4883e8b4500b58f11, type: 3}
    - {fileID: 21300000, guid: a25225a600a84bb46aba10e5b252e5cc, type: 3}
    - {fileID: 21300000, guid: 350ceb38aafcf194486c71aa57b092b9, type: 3}
    - {fileID: 21300000, guid: fe88fd9a949519248b44a048993d0964, type: 3}
    - {fileID: 21300000, guid: b7ba11d7fc2477f4985379cabec88329, type: 3}
    - {fileID: 21300000, guid: b66b45ea4db77a54a836ba896345d5fd, type: 3}
    - {fileID: 21300000, guid: 9e5098df33786fe43b6296395e43ca06, type: 3}
    - {fileID: 21300000, guid: 36a6c86a9c07c8a4e869a99c7fd3795d, type: 3}
    - {fileID: 21300000, guid: 76743da5cfb0e7c49bd8b6b4b77949ab, type: 3}
    - {fileID: 21300000, guid: 6dc36359751d3934695c3b3c289503c2, type: 3}
    - {fileID: 21300000, guid: 67a7d9658f58a0f4a8d0718b0cb6a71b, type: 3}
    - {fileID: 21300000, guid: 1a1a34fd242331f47b05b487ac835a27, type: 3}
    - {fileID: 21300000, guid: 25284a27f88f8784db374534600a8079, type: 3}
    - {fileID: 21300000, guid: 451d7b05d3d6b3d49b9a4a6f88e96c07, type: 3}
    - {fileID: 21300000, guid: d7f17fce88e7f144898bf3251d429f2d, type: 3}
    - {fileID: 21300000, guid: 6ed37b0e999d74849b64a1a2e9a48c6b, type: 3}
    - {fileID: 21300000, guid: 748f6240a6b0f7b4ea2f65e0d1e66a5c, type: 3}
    - {fileID: 21300000, guid: 1d1f81d33da9b7c41a87d4c3429ba375, type: 3}
    - {fileID: 21300000, guid: 18b75fe23a91d03418b52b7b7bb5c6c8, type: 3}
    - {fileID: 21300000, guid: daa05bcbc0a186b40ac62a842e94c4bb, type: 3}
    - {fileID: 21300000, guid: a194ea4477a94ab44bbb2fa841132fa1, type: 3}
    - {fileID: 21300000, guid: 275a1f42302064e499b75b8e96b0dc5a, type: 3}
    - {fileID: 21300000, guid: 13090a619f874634281aa1f9b513c089, type: 3}
    - {fileID: 21300000, guid: f2285eaf61a17b9459f68fe106b7a3b5, type: 3}
    - {fileID: 21300000, guid: 7b2f59cecdd2b784bb6ee0d098ae920f, type: 3}
    - {fileID: 21300000, guid: cb4ee7f594b82b64cbd990972703a633, type: 3}
    - {fileID: 21300000, guid: 92c3112e67a934b48b214c5dcc4acab6, type: 3}
    - {fileID: 21300000, guid: 6a72c5f15af16fd429166b1a88c25095, type: 3}
    - {fileID: 21300000, guid: 8369f25e592f1004bb70b279132965a4, type: 3}
    - {fileID: 21300000, guid: 1eb79aca796bf49468928fd025758789, type: 3}
    - {fileID: 21300000, guid: 61a62e937ecf93d4fa88b4864a2b6279, type: 3}
    - {fileID: 21300000, guid: f547858e1710af74f82a644528ec9271, type: 3}
    - {fileID: 21300000, guid: 257189f4f09f2fe49911ea18b90d328e, type: 3}
    - {fileID: 21300000, guid: 848eccb0a8659fe45b10df9f074203fa, type: 3}
    - {fileID: 21300000, guid: 52ff7d3a5729abb4f86630b6406d4b16, type: 3}
    - {fileID: 21300000, guid: 00a63849044bfb64d934f41082fd053d, type: 3}
    - {fileID: 21300000, guid: 78408f17ff5cd77408e02d1061441a12, type: 3}
    - {fileID: 21300000, guid: 77b42e60ee7f1104792c1f0dee12fa5f, type: 3}
    - {fileID: 21300000, guid: daaa74d322833ff43a265b186c98daa9, type: 3}
    - {fileID: 21300000, guid: e2703cf767068804c97ab153db9655e9, type: 3}
    - {fileID: 21300000, guid: 958582cb401ee1d48bf4d5cda6d09a81, type: 3}
    - {fileID: 21300000, guid: 8d6971438fc874a43b273a24f24d000e, type: 3}
    - {fileID: 21300000, guid: eaef8dbfca953014db37cfeede8f4680, type: 3}
    - {fileID: 21300000, guid: 459cd6c4e48b6ff45be2a466f9490937, type: 3}
    - {fileID: 21300000, guid: 26ef1306beac72246bb6a6e52873b104, type: 3}
    - {fileID: 21300000, guid: 660206ad3fe3a3b4badf269b1a38f4ba, type: 3}
    - {fileID: 21300000, guid: 7ee7e844699a03641b3034bc31a9ad3d, type: 3}
    - {fileID: 21300000, guid: a935fe38d2c15f64ea61db2a485e48e5, type: 3}
    - {fileID: 21300000, guid: 72505b391cf4bd44cab4ac3ff6569e78, type: 3}
    - {fileID: 21300000, guid: f4451edb134cb9448b4b87fec18581df, type: 3}
    - {fileID: 21300000, guid: ccd172bd36332bf4db1d0c14b428b2e4, type: 3}
    - {fileID: 21300000, guid: 8f77d6510a8e21249a1b8f6109c3ddbd, type: 3}
    - {fileID: 21300000, guid: d9200eed509c26044a3094eafe26955c, type: 3}
    - {fileID: 21300000, guid: 1a408734a93a0034795f9b0651367f35, type: 3}
    - {fileID: 21300000, guid: 476e9b941ac45fd4db3693f09099c173, type: 3}
    - {fileID: 21300000, guid: affc69b8bbcd4c249a014b4c52af7868, type: 3}
    - {fileID: 21300000, guid: a4293ea8b351d894c8383113b07826d4, type: 3}
    - {fileID: 21300000, guid: c66cbc00cb8afe448aa8e10e558f5584, type: 3}
    - {fileID: 21300000, guid: d0b88e469b8d5ae4aa1c17f5c5ac928d, type: 3}
    - {fileID: 21300000, guid: 90f779b15861fab40ae45b47d2e38a44, type: 3}
    - {fileID: 21300000, guid: 8e3077ce948221c49aa82f3b85372f5b, type: 3}
    - {fileID: 21300000, guid: 48973b29f88beaf458e0084ba08d34ec, type: 3}
    - {fileID: 21300000, guid: ec2ff05c833bb6042b1525bc341e0780, type: 3}
    - {fileID: 21300000, guid: b726dc28e6803fe4784b18cbd031c41e, type: 3}
    - {fileID: 21300000, guid: f9848c5f7b6febc42b96498d5bc35344, type: 3}
    - {fileID: 21300000, guid: 914d74dd6e98efd4792cafeb4194d520, type: 3}
    - {fileID: 21300000, guid: 0c0454e74c245624080bc9e7ec31343e, type: 3}
    - {fileID: 21300000, guid: 2ff60ca7a8719d040a1ecbf9ff14e305, type: 3}
    - {fileID: 21300000, guid: 32068af720a6ed340982ca860df357f8, type: 3}
    - {fileID: 21300000, guid: a2129ac35c1719f4c8aa4e0da7c9a783, type: 3}
    - {fileID: 21300000, guid: 8cf8779c2ccd0434980d79ec3563fd5f, type: 3}
    - {fileID: 21300000, guid: 64737bbec8bccc94abb8decc2f1c3065, type: 3}
    - {fileID: 21300000, guid: 925e209043f02954685b540c418ef10e, type: 3}
    - {fileID: 21300000, guid: c99b3ade4a642d64981f26a5f36c46f3, type: 3}
    - {fileID: 21300000, guid: 6c642ef61bcce1940838753b5d7ecfe4, type: 3}
    - {fileID: 21300000, guid: 50e03e4bf00196640bc1d315ce49f5ce, type: 3}
    - {fileID: 21300000, guid: 642657e2dda364e41b7160ed3b511d4a, type: 3}
    - {fileID: 21300000, guid: 8d67d7bd902176b4b9b238395c2f405f, type: 3}
    - {fileID: 21300000, guid: 3bd2adeb90fbf164997d52db04d73188, type: 3}
    - {fileID: 21300000, guid: cfb5807a01966364d89a66382d3be2cd, type: 3}
    - {fileID: 21300000, guid: da30502e43d1ba64894a07c65f7e4b8a, type: 3}
    - {fileID: 21300000, guid: 0467007908eb80b4c83c9e98de725aef, type: 3}
    - {fileID: 21300000, guid: 4e07e3e1a7aa9a44c98484c7d4c57537, type: 3}
    - {fileID: 21300000, guid: f709c48c72fb4284caed6172c54266d5, type: 3}
    - {fileID: 21300000, guid: e8c677ef924697a45b4d063dbb3b8b3a, type: 3}
    - {fileID: 21300000, guid: e17301401782c78458668d5f9df1ac21, type: 3}
    - {fileID: 21300000, guid: ef2d682c9201d2848953dae795cac1c5, type: 3}
    - {fileID: 21300000, guid: 03bf455cc3d1b2448991a4ca10cac6b2, type: 3}
    - {fileID: 21300000, guid: 689646b0ad6730744bacbce80ba73bb5, type: 3}
    - {fileID: 21300000, guid: 6ecb78a38633ee644a24a2320c24a44c, type: 3}
    - {fileID: 21300000, guid: a0bf71579cfcc3948aeb23ec711a3257, type: 3}
    - {fileID: 21300000, guid: 74e86b09be0629946accf1a15b7e1a0c, type: 3}
    - {fileID: 21300000, guid: b4bbe767c742b1a44ae75a98f2e7f1ce, type: 3}
    - {fileID: 21300000, guid: 781750727c1a64e46bd7d5541e31c03e, type: 3}
    - {fileID: 21300000, guid: 428e3e25acc1ece4b89e8ef66227a4c9, type: 3}
    - {fileID: 21300000, guid: 0fb8e264a6c6f094aba222eca61b1812, type: 3}
    - {fileID: 21300000, guid: 8715a47e088fba5439093419c357a740, type: 3}
    - {fileID: 21300000, guid: f3cd3343a9460404e95b0ee8353e2358, type: 3}
    - {fileID: 21300000, guid: dc0a91dc88226c940b044b56d5d4f8c0, type: 3}
    - {fileID: 21300000, guid: ae7e5aab7303ddf4183db1b5e61b3992, type: 3}
    - {fileID: 21300000, guid: e19586e79ba83b84b8ae6b544cfc32d4, type: 3}
    - {fileID: 21300000, guid: dd120527d7cd4904bafe61be840732c8, type: 3}
    - {fileID: 21300000, guid: 57b7b43dd31352e4ebce05ce4b170b28, type: 3}
    - {fileID: 21300000, guid: d8c437bfff6163848894338635f89bc6, type: 3}
    - {fileID: 21300000, guid: db0bf252136ffd34e856fc5fdeb108e5, type: 3}
    - {fileID: 21300000, guid: 146270f555c6ee545bbf604cdf755598, type: 3}
    - {fileID: 21300000, guid: 5ce031fc1ced5b14ebf05053e26dc2d7, type: 3}
    - {fileID: 21300000, guid: 12418a3ce15694c42b2e0e1719f4204a, type: 3}
    - {fileID: 21300000, guid: 5aa1efee9caf47d4bb7a9d72fd3209bf, type: 3}
    - {fileID: 21300000, guid: ed12571854bfab9478b2729d550221f4, type: 3}
    - {fileID: 21300000, guid: 69254ff86076b7542a40639b600b5e01, type: 3}
    - {fileID: 21300000, guid: 26aaf288f0b80fc4b8341f3b1092c39a, type: 3}
    - {fileID: 21300000, guid: 57fb6ba27733b274580752e040fa58a0, type: 3}
    - {fileID: 21300000, guid: 604c0aeee155165438c304d89fd5a6fc, type: 3}
    - {fileID: 21300000, guid: 5712b2679b4bbc140b0ee1866262669d, type: 3}
    - {fileID: 21300000, guid: 4ab0858192b9e6d42a373c755758b669, type: 3}
    - {fileID: 21300000, guid: e966598b533947b42ac4a62e84cdd5fb, type: 3}
    - {fileID: 21300000, guid: b892fce80e44a3548b0b2ebdee2395cc, type: 3}
    - {fileID: 21300000, guid: a57f5655ccd165b4eb23424cb095b23b, type: 3}
    - {fileID: 21300000, guid: 77f44db80db8d514aa7a1fa821271ef2, type: 3}
    - {fileID: 21300000, guid: 89505081622509d4f9280bca34a66a59, type: 3}
    - {fileID: 21300000, guid: 13d213b8f08b53c48b6183c86c4fb840, type: 3}
  m_AnimationClipSettings:
    serializedVersion: 2
    m_AdditiveReferencePoseClip: {fileID: 0}
    m_AdditiveReferencePoseTime: 0
    m_StartTime: 0
    m_StopTime: 9.166667
    m_OrientationOffsetY: 0
    m_Level: 0
    m_CycleOffset: 0
    m_HasAdditiveReferencePose: 0
    m_LoopTime: 1
    m_LoopBlend: 0
    m_LoopBlendOrientation: 0
    m_LoopBlendPositionY: 0
    m_LoopBlendPositionXZ: 0
    m_KeepOriginalOrientation: 0
    m_KeepOriginalPositionY: 1
    m_KeepOriginalPositionXZ: 0
    m_HeightFromFeet: 0
    m_Mirror: 0
  m_EditorCurves: []
  m_EulerEditorCurves: []
  m_HasGenericRootTransform: 0
  m_HasMotionFloatCurves: 0
  m_Events: []
