%YAML 1.1
%TAG !u! tag:unity3d.com,2011:
--- !u!114 &11400000
MonoBehaviour:
  m_ObjectHideFlags: 0
  m_CorrespondingSourceObject: {fileID: 0}
  m_PrefabInstance: {fileID: 0}
  m_PrefabAsset: {fileID: 0}
  m_GameObject: {fileID: 0}
  m_Enabled: 1
  m_EditorHideFlags: 0
  m_Script: {fileID: 11500000, guid: a461a1582c1e67c4b8cf1ff7f5752718, type: 3}
  m_Name: Scene0_OculusGo_idle
  m_EditorClassIdentifier: 
  movieName: 012_E_black
  sceneLength: 2
  loop: 0
  waitForOperator: 1
  minimumCorrectAnswersForRoundSuccess: 1
  nextMovies:
  - {fileID: 11400000, guid: 0a3e3d2cfd308c5449da9b91bf975c6a, type: 2}
  - {fileID: 11400000, guid: 0a3e3d2cfd308c5449da9b91bf975c6a, type: 2}
  prefabToCreate: {fileID: 5977651398157478473, guid: f821af6f75fbb824fbe94478ec7b2d32,
    type: 3}
  delayInPrefabCreation: -1
  triviaInfo:
    questionId: 
    maxYearsToReduce: 0
    totalQuestionsInRound: 0
    totalQuestionTime: 0
    secondsPerQuestion: 0
    questionSequence: []
