%YAML 1.1
%TAG !u! tag:unity3d.com,2011:
--- !u!74 &7400000
AnimationClip:
  m_ObjectHideFlags: 0
  m_CorrespondingSourceObject: {fileID: 0}
  m_PrefabInstance: {fileID: 0}
  m_PrefabAsset: {fileID: 0}
  m_Name: Trash_lettuce5
  serializedVersion: 6
  m_Legacy: 0
  m_Compressed: 0
  m_UseHighQualityCurve: 1
  m_RotationCurves: []
  m_CompressedRotationCurves: []
  m_EulerCurves: []
  m_PositionCurves: []
  m_ScaleCurves: []
  m_FloatCurves: []
  m_PPtrCurves:
  - curve:
    - time: 0
      value: {fileID: 21300000, guid: 3900f1152067fdf40a669b032ce5211c, type: 3}
    - time: 0.033333335
      value: {fileID: 21300000, guid: e027983a70ab8a04e92665c2dc99aa10, type: 3}
    - time: 0.06666667
      value: {fileID: 21300000, guid: 5ad533b9111f3e44f8142dd08153030a, type: 3}
    - time: 0.1
      value: {fileID: 21300000, guid: 289b78a7d3625de4497d1861cb1a665d, type: 3}
    - time: 0.13333334
      value: {fileID: 21300000, guid: bd02071b979131743afe4d80cfc7ffe9, type: 3}
    - time: 0.16666667
      value: {fileID: 21300000, guid: 097634f605411974499ecc6a721fba38, type: 3}
    - time: 0.2
      value: {fileID: 21300000, guid: 96792528d084564469b9e617ec259d8c, type: 3}
    - time: 0.23333333
      value: {fileID: 21300000, guid: 3bff08debb497964fabf8b146dfb94b4, type: 3}
    - time: 0.26666668
      value: {fileID: 21300000, guid: d76e5c1302a9aad48bd69c6643c0e3cd, type: 3}
    - time: 0.3
      value: {fileID: 21300000, guid: 7fccd713962e4d544ac389ccb62b0fdc, type: 3}
    - time: 0.33333334
      value: {fileID: 21300000, guid: 34bf952af8563b546ae2a9ef866482e3, type: 3}
    - time: 0.36666667
      value: {fileID: 21300000, guid: 0ae54270831e6fb4f901829a03f30e1a, type: 3}
    - time: 0.4
      value: {fileID: 21300000, guid: cf07803116606a047abfc70c3ee52068, type: 3}
    - time: 0.43333334
      value: {fileID: 21300000, guid: 09e47eb57727a164f93e130866d7db72, type: 3}
    - time: 0.46666667
      value: {fileID: 21300000, guid: f2771fa951c02b942b73f7804a0132b4, type: 3}
    - time: 0.5
      value: {fileID: 21300000, guid: a4fcd33731395de42b4f74d3d75564e4, type: 3}
    - time: 0.53333336
      value: {fileID: 21300000, guid: ce0336cdc81e9ad45854c23f15b00f23, type: 3}
    - time: 0.56666666
      value: {fileID: 21300000, guid: 14a3f90299148454aaf817cebdf03d2a, type: 3}
    - time: 0.6
      value: {fileID: 21300000, guid: 48b0b7c737a61bd44b572a1524fa585b, type: 3}
    - time: 0.6333333
      value: {fileID: 21300000, guid: f38eb9676fe5d6a4480dcd4a5bb651a7, type: 3}
    - time: 0.6666667
      value: {fileID: 21300000, guid: 33a98d7abcfd0e240a896879d90bf4af, type: 3}
    - time: 0.7
      value: {fileID: 21300000, guid: 6e592254bf6ca8d4c82292afe26bef7f, type: 3}
    - time: 0.73333335
      value: {fileID: 21300000, guid: e1c42df68ab922b4bb9b96f84dcb7be0, type: 3}
    - time: 0.76666665
      value: {fileID: 21300000, guid: ca98a9237133bae4086d734d02988fb4, type: 3}
    - time: 0.8
      value: {fileID: 21300000, guid: ef6cbce3151cf3e4cbbb37d121775a18, type: 3}
    - time: 0.8333333
      value: {fileID: 21300000, guid: 1318b1f6ba9d8954ba4257294232c1c5, type: 3}
    - time: 0.8666667
      value: {fileID: 21300000, guid: 3722e5ea2368e714e86324c37b46383c, type: 3}
    - time: 0.9
      value: {fileID: 21300000, guid: d70003ad98f18ac4eab1ae56e7f3a315, type: 3}
    - time: 0.93333334
      value: {fileID: 21300000, guid: 1ca7c84a3c131b14d82ae387e2ee97af, type: 3}
    - time: 0.96666664
      value: {fileID: 21300000, guid: 6e7c86f981150fd4eb9338cf43a906d3, type: 3}
    - time: 1
      value: {fileID: 21300000, guid: fd97a9e59fd29cb4aa8a7e9402bce7aa, type: 3}
    - time: 1.0333333
      value: {fileID: 21300000, guid: 12325c65459d86541949eee4b4214b94, type: 3}
    - time: 1.0666667
      value: {fileID: 21300000, guid: 42dfe245b3f7c3c499c54203e0db0a5c, type: 3}
    - time: 1.1
      value: {fileID: 21300000, guid: 7b317a2e70c92ce4a8f632ffa27d3772, type: 3}
    - time: 1.1333333
      value: {fileID: 21300000, guid: f585a5b5e29c06d46897f87f455b8784, type: 3}
    - time: 1.1666666
      value: {fileID: 21300000, guid: 263930e8e6f9b3844b4706bdecdd6fa5, type: 3}
    - time: 1.2
      value: {fileID: 21300000, guid: 2691f8ededf697f41ae927a8b6dd3bdf, type: 3}
    - time: 1.2333333
      value: {fileID: 21300000, guid: a134c849b3cdedb44820d27efde3ef4e, type: 3}
    - time: 1.2666667
      value: {fileID: 21300000, guid: 515889e68667d4e41a1c9be19239fd9d, type: 3}
    - time: 1.3
      value: {fileID: 21300000, guid: 28e7baf3a136853418bd225f3b67cd36, type: 3}
    - time: 1.3333334
      value: {fileID: 21300000, guid: 508369e36c67d0240a312a02f566c570, type: 3}
    - time: 1.3666667
      value: {fileID: 21300000, guid: 97fd0c75c2ebab14f9b827c7d8aa3877, type: 3}
    - time: 1.4
      value: {fileID: 21300000, guid: ed56c29461090a943b8f49409cb1d604, type: 3}
    - time: 1.4333333
      value: {fileID: 21300000, guid: b67de5fdfafc2b847be8e8a57862676c, type: 3}
    - time: 1.4666667
      value: {fileID: 21300000, guid: fbe3234313a4fd0458bd822c9945e3f3, type: 3}
    - time: 1.5
      value: {fileID: 21300000, guid: a34cc983350bdb245a541e0cbaea65bb, type: 3}
    - time: 1.5333333
      value: {fileID: 21300000, guid: 18fb81d689a2c0b4a9db071757c25efb, type: 3}
    - time: 1.5666667
      value: {fileID: 21300000, guid: 466f54bf60b772542913701d21b00634, type: 3}
    - time: 1.6
      value: {fileID: 21300000, guid: 4847f916c573e9347be2386c4a99e1ef, type: 3}
    - time: 1.6333333
      value: {fileID: 21300000, guid: 9d06d13fc040f2d4a901c794e3061a7c, type: 3}
    - time: 1.6666666
      value: {fileID: 21300000, guid: c911a3b4b61f7614ea823dd914cd8c34, type: 3}
    - time: 1.7
      value: {fileID: 21300000, guid: 35390288f65d4e4429a2b7e5b3da3445, type: 3}
    - time: 1.7333333
      value: {fileID: 21300000, guid: cb173f5f5bb00e24b8ca2e7b2c54d3d1, type: 3}
    - time: 1.7666667
      value: {fileID: 21300000, guid: 42ae685919a6d7646a4f97c3fe851adb, type: 3}
    - time: 1.8
      value: {fileID: 21300000, guid: add85dd4239a3ef4880abfa0ab29c7f0, type: 3}
    - time: 1.8333334
      value: {fileID: 21300000, guid: b4402b25e8a65c745a84d1387b82ca71, type: 3}
    - time: 1.8666667
      value: {fileID: 21300000, guid: 473bf200f61dcfd44be5567d91153d78, type: 3}
    - time: 1.9
      value: {fileID: 21300000, guid: b1286fb08dfe6fb44b9a16927ffd93b0, type: 3}
    - time: 1.9333333
      value: {fileID: 21300000, guid: 8ff4e56cd6258da4e8e7c66d0929c5ad, type: 3}
    - time: 1.9666667
      value: {fileID: 21300000, guid: d855f7f122e18e347866dad029581bc6, type: 3}
    - time: 2
      value: {fileID: 21300000, guid: 535b79329fb95e24882d83b2f6e97beb, type: 3}
    - time: 2.0333333
      value: {fileID: 21300000, guid: 221867df838d4f944b8e0d5db0de3941, type: 3}
    - time: 2.0666666
      value: {fileID: 21300000, guid: 4140bacb061ad554da1d1bcaa89d9f83, type: 3}
    - time: 2.1
      value: {fileID: 21300000, guid: daea9c8cc5fd56b489ee9813364eeda0, type: 3}
    - time: 2.1333334
      value: {fileID: 21300000, guid: c78751281e8aab744ad599fe9bd0fc3a, type: 3}
    - time: 2.1666667
      value: {fileID: 21300000, guid: 61824c7cd6040d7439395f25c50ede44, type: 3}
    - time: 2.2
      value: {fileID: 21300000, guid: 7f29ea3b578f9f54a962b47631c12cf1, type: 3}
    - time: 2.2333333
      value: {fileID: 21300000, guid: f13964d02d415e8429e1e4a89b39dce4, type: 3}
    - time: 2.2666667
      value: {fileID: 21300000, guid: 838ed51885c42f848a467942c4d3199b, type: 3}
    - time: 2.3
      value: {fileID: 21300000, guid: 1e23e28953edd834eabbf451bd5a7341, type: 3}
    - time: 2.3333333
      value: {fileID: 21300000, guid: cb4e94212602fbe47807f0ac3525d33d, type: 3}
    - time: 2.3666666
      value: {fileID: 21300000, guid: d76ab72d2e2823647821fe6797473d22, type: 3}
    - time: 2.4
      value: {fileID: 21300000, guid: 21fda68a4937c02478523703a36265b0, type: 3}
    - time: 2.4333334
      value: {fileID: 21300000, guid: fbb3729659caedb46bfc2826fc9bdea4, type: 3}
    - time: 2.4666667
      value: {fileID: 21300000, guid: 9416c7506e1e34743a5eb44349cd2900, type: 3}
    - time: 2.5
      value: {fileID: 21300000, guid: 2f1c605f54264bc41944e1f3c69b0f0f, type: 3}
    - time: 2.5333333
      value: {fileID: 21300000, guid: cda9ef32a29a86b4091b08f6b2b932f1, type: 3}
    - time: 2.5666666
      value: {fileID: 21300000, guid: 99b906867079de64b99d583152e8f19f, type: 3}
    - time: 2.6
      value: {fileID: 21300000, guid: 52d1154306fc67743883ea92a397ab66, type: 3}
    - time: 2.6333334
      value: {fileID: 21300000, guid: 335dd110c4c9f324eb095fecf9c117a6, type: 3}
    - time: 2.6666667
      value: {fileID: 21300000, guid: 759a955f564008b45b8c66fa3781bdcd, type: 3}
    - time: 2.7
      value: {fileID: 21300000, guid: 17528cfad6b68f242adfe967595f5c20, type: 3}
    - time: 2.7333333
      value: {fileID: 21300000, guid: c721360a6ae12c14e84dcd85d7746fbd, type: 3}
    - time: 2.7666667
      value: {fileID: 21300000, guid: 960a225f24ae7e645a1bb72a17c123d3, type: 3}
    - time: 2.8
      value: {fileID: 21300000, guid: 60037a255363050439692e35c24bdeb9, type: 3}
    - time: 2.8333333
      value: {fileID: 21300000, guid: e75b22b2082f635439b10572efca0dc6, type: 3}
    - time: 2.8666666
      value: {fileID: 21300000, guid: 7596ef24fa6aebe4f94182accb87c479, type: 3}
    - time: 2.9
      value: {fileID: 21300000, guid: d71b60e238f1b48439bc6068e982a5e5, type: 3}
    - time: 2.9333334
      value: {fileID: 21300000, guid: e0dfeadc8fb21d449b16be1434b2866d, type: 3}
    - time: 2.9666667
      value: {fileID: 21300000, guid: 3c97f5b62e0fbcd4cb49961dd1831359, type: 3}
    - time: 3
      value: {fileID: 21300000, guid: 10257b4467990884d86857f0b17bea7b, type: 3}
    - time: 3.0333333
      value: {fileID: 21300000, guid: da7b2a4ce525cad45891cf1f2e5f82b0, type: 3}
    - time: 3.0666666
      value: {fileID: 21300000, guid: 9d8f40122b1d55f46b508dc1882d8438, type: 3}
    - time: 3.1
      value: {fileID: 21300000, guid: aed0a31b2f7c8ec439d69c3adc3a682e, type: 3}
    - time: 3.1333334
      value: {fileID: 21300000, guid: fedaa3f20a9f84241ad218b2e9a187a7, type: 3}
    - time: 3.1666667
      value: {fileID: 21300000, guid: 4caf47ffd1dc7fd4fa90c23d57773011, type: 3}
    - time: 3.2
      value: {fileID: 21300000, guid: a1420fee51afc5f449acdb752cf10d8b, type: 3}
    - time: 3.2333333
      value: {fileID: 21300000, guid: b32449eaecec2944a9524dfa4f3c53c8, type: 3}
    - time: 3.2666667
      value: {fileID: 21300000, guid: 344fa882f6cc7e34fa9b4036ae8c2d36, type: 3}
    - time: 3.3
      value: {fileID: 21300000, guid: a3d386dbf822a944185b2c42fb3d6c64, type: 3}
    - time: 3.3333333
      value: {fileID: 21300000, guid: e1f583ae68a53ad45a291ee125cc1ccb, type: 3}
    attribute: m_Sprite
    path: 
    classID: 212
    script: {fileID: 0}
  m_SampleRate: 30
  m_WrapMode: 0
  m_Bounds:
    m_Center: {x: 0, y: 0, z: 0}
    m_Extent: {x: 0, y: 0, z: 0}
  m_ClipBindingConstant:
    genericBindings:
    - serializedVersion: 2
      path: 0
      attribute: 0
      script: {fileID: 0}
      typeID: 212
      customType: 23
      isPPtrCurve: 1
    pptrCurveMapping:
    - {fileID: 21300000, guid: 3900f1152067fdf40a669b032ce5211c, type: 3}
    - {fileID: 21300000, guid: e027983a70ab8a04e92665c2dc99aa10, type: 3}
    - {fileID: 21300000, guid: 5ad533b9111f3e44f8142dd08153030a, type: 3}
    - {fileID: 21300000, guid: 289b78a7d3625de4497d1861cb1a665d, type: 3}
    - {fileID: 21300000, guid: bd02071b979131743afe4d80cfc7ffe9, type: 3}
    - {fileID: 21300000, guid: 097634f605411974499ecc6a721fba38, type: 3}
    - {fileID: 21300000, guid: 96792528d084564469b9e617ec259d8c, type: 3}
    - {fileID: 21300000, guid: 3bff08debb497964fabf8b146dfb94b4, type: 3}
    - {fileID: 21300000, guid: d76e5c1302a9aad48bd69c6643c0e3cd, type: 3}
    - {fileID: 21300000, guid: 7fccd713962e4d544ac389ccb62b0fdc, type: 3}
    - {fileID: 21300000, guid: 34bf952af8563b546ae2a9ef866482e3, type: 3}
    - {fileID: 21300000, guid: 0ae54270831e6fb4f901829a03f30e1a, type: 3}
    - {fileID: 21300000, guid: cf07803116606a047abfc70c3ee52068, type: 3}
    - {fileID: 21300000, guid: 09e47eb57727a164f93e130866d7db72, type: 3}
    - {fileID: 21300000, guid: f2771fa951c02b942b73f7804a0132b4, type: 3}
    - {fileID: 21300000, guid: a4fcd33731395de42b4f74d3d75564e4, type: 3}
    - {fileID: 21300000, guid: ce0336cdc81e9ad45854c23f15b00f23, type: 3}
    - {fileID: 21300000, guid: 14a3f90299148454aaf817cebdf03d2a, type: 3}
    - {fileID: 21300000, guid: 48b0b7c737a61bd44b572a1524fa585b, type: 3}
    - {fileID: 21300000, guid: f38eb9676fe5d6a4480dcd4a5bb651a7, type: 3}
    - {fileID: 21300000, guid: 33a98d7abcfd0e240a896879d90bf4af, type: 3}
    - {fileID: 21300000, guid: 6e592254bf6ca8d4c82292afe26bef7f, type: 3}
    - {fileID: 21300000, guid: e1c42df68ab922b4bb9b96f84dcb7be0, type: 3}
    - {fileID: 21300000, guid: ca98a9237133bae4086d734d02988fb4, type: 3}
    - {fileID: 21300000, guid: ef6cbce3151cf3e4cbbb37d121775a18, type: 3}
    - {fileID: 21300000, guid: 1318b1f6ba9d8954ba4257294232c1c5, type: 3}
    - {fileID: 21300000, guid: 3722e5ea2368e714e86324c37b46383c, type: 3}
    - {fileID: 21300000, guid: d70003ad98f18ac4eab1ae56e7f3a315, type: 3}
    - {fileID: 21300000, guid: 1ca7c84a3c131b14d82ae387e2ee97af, type: 3}
    - {fileID: 21300000, guid: 6e7c86f981150fd4eb9338cf43a906d3, type: 3}
    - {fileID: 21300000, guid: fd97a9e59fd29cb4aa8a7e9402bce7aa, type: 3}
    - {fileID: 21300000, guid: 12325c65459d86541949eee4b4214b94, type: 3}
    - {fileID: 21300000, guid: 42dfe245b3f7c3c499c54203e0db0a5c, type: 3}
    - {fileID: 21300000, guid: 7b317a2e70c92ce4a8f632ffa27d3772, type: 3}
    - {fileID: 21300000, guid: f585a5b5e29c06d46897f87f455b8784, type: 3}
    - {fileID: 21300000, guid: 263930e8e6f9b3844b4706bdecdd6fa5, type: 3}
    - {fileID: 21300000, guid: 2691f8ededf697f41ae927a8b6dd3bdf, type: 3}
    - {fileID: 21300000, guid: a134c849b3cdedb44820d27efde3ef4e, type: 3}
    - {fileID: 21300000, guid: 515889e68667d4e41a1c9be19239fd9d, type: 3}
    - {fileID: 21300000, guid: 28e7baf3a136853418bd225f3b67cd36, type: 3}
    - {fileID: 21300000, guid: 508369e36c67d0240a312a02f566c570, type: 3}
    - {fileID: 21300000, guid: 97fd0c75c2ebab14f9b827c7d8aa3877, type: 3}
    - {fileID: 21300000, guid: ed56c29461090a943b8f49409cb1d604, type: 3}
    - {fileID: 21300000, guid: b67de5fdfafc2b847be8e8a57862676c, type: 3}
    - {fileID: 21300000, guid: fbe3234313a4fd0458bd822c9945e3f3, type: 3}
    - {fileID: 21300000, guid: a34cc983350bdb245a541e0cbaea65bb, type: 3}
    - {fileID: 21300000, guid: 18fb81d689a2c0b4a9db071757c25efb, type: 3}
    - {fileID: 21300000, guid: 466f54bf60b772542913701d21b00634, type: 3}
    - {fileID: 21300000, guid: 4847f916c573e9347be2386c4a99e1ef, type: 3}
    - {fileID: 21300000, guid: 9d06d13fc040f2d4a901c794e3061a7c, type: 3}
    - {fileID: 21300000, guid: c911a3b4b61f7614ea823dd914cd8c34, type: 3}
    - {fileID: 21300000, guid: 35390288f65d4e4429a2b7e5b3da3445, type: 3}
    - {fileID: 21300000, guid: cb173f5f5bb00e24b8ca2e7b2c54d3d1, type: 3}
    - {fileID: 21300000, guid: 42ae685919a6d7646a4f97c3fe851adb, type: 3}
    - {fileID: 21300000, guid: add85dd4239a3ef4880abfa0ab29c7f0, type: 3}
    - {fileID: 21300000, guid: b4402b25e8a65c745a84d1387b82ca71, type: 3}
    - {fileID: 21300000, guid: 473bf200f61dcfd44be5567d91153d78, type: 3}
    - {fileID: 21300000, guid: b1286fb08dfe6fb44b9a16927ffd93b0, type: 3}
    - {fileID: 21300000, guid: 8ff4e56cd6258da4e8e7c66d0929c5ad, type: 3}
    - {fileID: 21300000, guid: d855f7f122e18e347866dad029581bc6, type: 3}
    - {fileID: 21300000, guid: 535b79329fb95e24882d83b2f6e97beb, type: 3}
    - {fileID: 21300000, guid: 221867df838d4f944b8e0d5db0de3941, type: 3}
    - {fileID: 21300000, guid: 4140bacb061ad554da1d1bcaa89d9f83, type: 3}
    - {fileID: 21300000, guid: daea9c8cc5fd56b489ee9813364eeda0, type: 3}
    - {fileID: 21300000, guid: c78751281e8aab744ad599fe9bd0fc3a, type: 3}
    - {fileID: 21300000, guid: 61824c7cd6040d7439395f25c50ede44, type: 3}
    - {fileID: 21300000, guid: 7f29ea3b578f9f54a962b47631c12cf1, type: 3}
    - {fileID: 21300000, guid: f13964d02d415e8429e1e4a89b39dce4, type: 3}
    - {fileID: 21300000, guid: 838ed51885c42f848a467942c4d3199b, type: 3}
    - {fileID: 21300000, guid: 1e23e28953edd834eabbf451bd5a7341, type: 3}
    - {fileID: 21300000, guid: cb4e94212602fbe47807f0ac3525d33d, type: 3}
    - {fileID: 21300000, guid: d76ab72d2e2823647821fe6797473d22, type: 3}
    - {fileID: 21300000, guid: 21fda68a4937c02478523703a36265b0, type: 3}
    - {fileID: 21300000, guid: fbb3729659caedb46bfc2826fc9bdea4, type: 3}
    - {fileID: 21300000, guid: 9416c7506e1e34743a5eb44349cd2900, type: 3}
    - {fileID: 21300000, guid: 2f1c605f54264bc41944e1f3c69b0f0f, type: 3}
    - {fileID: 21300000, guid: cda9ef32a29a86b4091b08f6b2b932f1, type: 3}
    - {fileID: 21300000, guid: 99b906867079de64b99d583152e8f19f, type: 3}
    - {fileID: 21300000, guid: 52d1154306fc67743883ea92a397ab66, type: 3}
    - {fileID: 21300000, guid: 335dd110c4c9f324eb095fecf9c117a6, type: 3}
    - {fileID: 21300000, guid: 759a955f564008b45b8c66fa3781bdcd, type: 3}
    - {fileID: 21300000, guid: 17528cfad6b68f242adfe967595f5c20, type: 3}
    - {fileID: 21300000, guid: c721360a6ae12c14e84dcd85d7746fbd, type: 3}
    - {fileID: 21300000, guid: 960a225f24ae7e645a1bb72a17c123d3, type: 3}
    - {fileID: 21300000, guid: 60037a255363050439692e35c24bdeb9, type: 3}
    - {fileID: 21300000, guid: e75b22b2082f635439b10572efca0dc6, type: 3}
    - {fileID: 21300000, guid: 7596ef24fa6aebe4f94182accb87c479, type: 3}
    - {fileID: 21300000, guid: d71b60e238f1b48439bc6068e982a5e5, type: 3}
    - {fileID: 21300000, guid: e0dfeadc8fb21d449b16be1434b2866d, type: 3}
    - {fileID: 21300000, guid: 3c97f5b62e0fbcd4cb49961dd1831359, type: 3}
    - {fileID: 21300000, guid: 10257b4467990884d86857f0b17bea7b, type: 3}
    - {fileID: 21300000, guid: da7b2a4ce525cad45891cf1f2e5f82b0, type: 3}
    - {fileID: 21300000, guid: 9d8f40122b1d55f46b508dc1882d8438, type: 3}
    - {fileID: 21300000, guid: aed0a31b2f7c8ec439d69c3adc3a682e, type: 3}
    - {fileID: 21300000, guid: fedaa3f20a9f84241ad218b2e9a187a7, type: 3}
    - {fileID: 21300000, guid: 4caf47ffd1dc7fd4fa90c23d57773011, type: 3}
    - {fileID: 21300000, guid: a1420fee51afc5f449acdb752cf10d8b, type: 3}
    - {fileID: 21300000, guid: b32449eaecec2944a9524dfa4f3c53c8, type: 3}
    - {fileID: 21300000, guid: 344fa882f6cc7e34fa9b4036ae8c2d36, type: 3}
    - {fileID: 21300000, guid: a3d386dbf822a944185b2c42fb3d6c64, type: 3}
    - {fileID: 21300000, guid: e1f583ae68a53ad45a291ee125cc1ccb, type: 3}
  m_AnimationClipSettings:
    serializedVersion: 2
    m_AdditiveReferencePoseClip: {fileID: 0}
    m_AdditiveReferencePoseTime: 0
    m_StartTime: 0
    m_StopTime: 3.3666666
    m_OrientationOffsetY: 0
    m_Level: 0
    m_CycleOffset: 0
    m_HasAdditiveReferencePose: 0
    m_LoopTime: 1
    m_LoopBlend: 0
    m_LoopBlendOrientation: 0
    m_LoopBlendPositionY: 0
    m_LoopBlendPositionXZ: 0
    m_KeepOriginalOrientation: 0
    m_KeepOriginalPositionY: 1
    m_KeepOriginalPositionXZ: 0
    m_HeightFromFeet: 0
    m_Mirror: 0
  m_EditorCurves: []
  m_EulerEditorCurves: []
  m_HasGenericRootTransform: 0
  m_HasMotionFloatCurves: 0
  m_Events: []
