%YAML 1.1
%TAG !u! tag:unity3d.com,2011:
--- !u!74 &7400000
AnimationClip:
  m_ObjectHideFlags: 0
  m_CorrespondingSourceObject: {fileID: 0}
  m_PrefabInstance: {fileID: 0}
  m_PrefabAsset: {fileID: 0}
  m_Name: Trash_Shampoo13
  serializedVersion: 6
  m_Legacy: 0
  m_Compressed: 0
  m_UseHighQualityCurve: 1
  m_RotationCurves: []
  m_CompressedRotationCurves: []
  m_EulerCurves: []
  m_PositionCurves: []
  m_ScaleCurves: []
  m_FloatCurves: []
  m_PPtrCurves:
  - curve:
    - time: 0
      value: {fileID: 21300000, guid: 7e2fec4454efb6249a85a4106b21570d, type: 3}
    - time: 0.033333335
      value: {fileID: 21300000, guid: 489c020f643db324cbf12643e5dc59dd, type: 3}
    - time: 0.06666667
      value: {fileID: 21300000, guid: 083406f035d65904db78fd6f7452c7dd, type: 3}
    - time: 0.1
      value: {fileID: 21300000, guid: 122c8e126c707754fb1a1cf095b8d685, type: 3}
    - time: 0.13333334
      value: {fileID: 21300000, guid: 97adf2fc00146ef469d1c70839c62980, type: 3}
    - time: 0.16666667
      value: {fileID: 21300000, guid: 12d56596c0e8b3e47b86a1a2fbf645c0, type: 3}
    - time: 0.2
      value: {fileID: 21300000, guid: 83ae48040b9f0d547af85a1fb349ca59, type: 3}
    - time: 0.23333333
      value: {fileID: 21300000, guid: 3870ed7036037a748aba42bd828d6b61, type: 3}
    - time: 0.26666668
      value: {fileID: 21300000, guid: 7891d8fdb74698b4baa96c74f145d948, type: 3}
    - time: 0.3
      value: {fileID: 21300000, guid: 7af9160d38ac30a46871223935d7755a, type: 3}
    - time: 0.33333334
      value: {fileID: 21300000, guid: 412285282bb9c6444b2ce32aa61fdfd6, type: 3}
    - time: 0.36666667
      value: {fileID: 21300000, guid: d318a70ef108372409b999d763dd32da, type: 3}
    - time: 0.4
      value: {fileID: 21300000, guid: 7f5afe19e37cfbb4fa9d8b338d40d3d9, type: 3}
    - time: 0.43333334
      value: {fileID: 21300000, guid: 63bd8c84701c3f84fafc14115828cbd8, type: 3}
    - time: 0.46666667
      value: {fileID: 21300000, guid: b13596e2c6028c34bad7b7ab7fe27233, type: 3}
    - time: 0.5
      value: {fileID: 21300000, guid: 6a3f624fa50ac544a86607fda3873442, type: 3}
    - time: 0.53333336
      value: {fileID: 21300000, guid: 84bfb9ee0adc49e40bcbd20255773fbc, type: 3}
    - time: 0.56666666
      value: {fileID: 21300000, guid: eeaf8400a92dd774b8af8da12f6c06dd, type: 3}
    - time: 0.6
      value: {fileID: 21300000, guid: 6a72371bc6ed214429a305bc510db28b, type: 3}
    - time: 0.6333333
      value: {fileID: 21300000, guid: 1e3de5952ffbafc49aab93fe0c917dcc, type: 3}
    - time: 0.6666667
      value: {fileID: 21300000, guid: d696883ceecf55d4a921a35246a6a970, type: 3}
    - time: 0.7
      value: {fileID: 21300000, guid: 84878c8e538674347a1fd6598431bdd5, type: 3}
    - time: 0.73333335
      value: {fileID: 21300000, guid: 4971ec5b534e8e04ca21226ce264e8af, type: 3}
    - time: 0.76666665
      value: {fileID: 21300000, guid: c81c4912756109d4790cfc1009e021fa, type: 3}
    - time: 0.8
      value: {fileID: 21300000, guid: b8c80ad1a5268eb4eb9f3315fc0e74b7, type: 3}
    - time: 0.8333333
      value: {fileID: 21300000, guid: 13cfef57f7c333649b97c4c8728fe9e9, type: 3}
    - time: 0.8666667
      value: {fileID: 21300000, guid: 12f700f0b1376684f91b9f3f4e3a3629, type: 3}
    - time: 0.9
      value: {fileID: 21300000, guid: c13b65a4bd2bacd439505b6fa3d3f821, type: 3}
    - time: 0.93333334
      value: {fileID: 21300000, guid: 8879ef9c14c708948ba47f3c0be408d2, type: 3}
    - time: 0.96666664
      value: {fileID: 21300000, guid: ac978fd0dda482c44a2a50fe12d3f3ad, type: 3}
    - time: 1
      value: {fileID: 21300000, guid: db9ee7c20a458074e840d3c49ad66ffd, type: 3}
    - time: 1.0333333
      value: {fileID: 21300000, guid: cdc9316f6cc4b4a49be10bc714b705d0, type: 3}
    - time: 1.0666667
      value: {fileID: 21300000, guid: 37c87f2b7deec4f4f841b63ac4a7fe0d, type: 3}
    - time: 1.1
      value: {fileID: 21300000, guid: 101b952a1d33bc84d9eb3154f0b2818a, type: 3}
    - time: 1.1333333
      value: {fileID: 21300000, guid: 6bb420af9909c4e4e9757ac5c305dfcf, type: 3}
    - time: 1.1666666
      value: {fileID: 21300000, guid: 94f60ceae2e11f847aea4e9edb3f34a2, type: 3}
    - time: 1.2
      value: {fileID: 21300000, guid: 6a6c69919ebf0b7468f55c83276dbe57, type: 3}
    - time: 1.2333333
      value: {fileID: 21300000, guid: 05b07ce7ef5814b40bfc5a1d2d8c4930, type: 3}
    - time: 1.2666667
      value: {fileID: 21300000, guid: 4b03303e752dc2a4183fd3721566d7b2, type: 3}
    - time: 1.3
      value: {fileID: 21300000, guid: 04abb0e53d31f694a8e145954eda596c, type: 3}
    - time: 1.3333334
      value: {fileID: 21300000, guid: 9a01bd55d1d88db43b423168e27833a2, type: 3}
    - time: 1.3666667
      value: {fileID: 21300000, guid: 5c4abfd3f8c0bf24083180b1e6b2b82b, type: 3}
    - time: 1.4
      value: {fileID: 21300000, guid: 163fc2dcecc38584aba2bb504e210ec2, type: 3}
    - time: 1.4333333
      value: {fileID: 21300000, guid: 54c9139308c1d2e46b2f5506c6af89f2, type: 3}
    - time: 1.4666667
      value: {fileID: 21300000, guid: 82e88577765539e4ba5238efbe7da82b, type: 3}
    - time: 1.5
      value: {fileID: 21300000, guid: 0c62f8f7cfab7ba49b101141f410f5c0, type: 3}
    - time: 1.5333333
      value: {fileID: 21300000, guid: 9e637c9fd422f6e47b9367fedaadba1b, type: 3}
    - time: 1.5666667
      value: {fileID: 21300000, guid: acc1b8adf92dfd349a3e960f6d407006, type: 3}
    - time: 1.6
      value: {fileID: 21300000, guid: dd05900b5030ac8488924ca6fac71469, type: 3}
    - time: 1.6333333
      value: {fileID: 21300000, guid: b9879a8043c01a647a026b3682c9699d, type: 3}
    - time: 1.6666666
      value: {fileID: 21300000, guid: c59b92595e1e63f4680781c44f99b7b4, type: 3}
    - time: 1.7
      value: {fileID: 21300000, guid: bc006c2d2070b59469a73e13fc61938c, type: 3}
    - time: 1.7333333
      value: {fileID: 21300000, guid: ee870b51e66a9eb429ecc4a21d89cc2b, type: 3}
    - time: 1.7666667
      value: {fileID: 21300000, guid: bb10657abb35d044fbc938499d8b0dad, type: 3}
    - time: 1.8
      value: {fileID: 21300000, guid: 59cda3ad2c63b7745a7f387e1c229eeb, type: 3}
    - time: 1.8333334
      value: {fileID: 21300000, guid: 81e9acda65483cb488cc039b80bf372f, type: 3}
    - time: 1.8666667
      value: {fileID: 21300000, guid: 118c686a92096e8428229468e1e2af88, type: 3}
    - time: 1.9
      value: {fileID: 21300000, guid: 27e39968246204d40804870653e07612, type: 3}
    - time: 1.9333333
      value: {fileID: 21300000, guid: 3c5518c6ee4c0d64db59c085e6890664, type: 3}
    - time: 1.9666667
      value: {fileID: 21300000, guid: 498018175d1848f408337b69a70f406d, type: 3}
    - time: 2
      value: {fileID: 21300000, guid: 71a4fd94f61bcbb4ebf48510aa1271bb, type: 3}
    - time: 2.0333333
      value: {fileID: 21300000, guid: 14cb9f7ea49e15b47bcbf84d2f73283b, type: 3}
    - time: 2.0666666
      value: {fileID: 21300000, guid: ba90015033efaae42b828ab1eace51d9, type: 3}
    - time: 2.1
      value: {fileID: 21300000, guid: f218caf0c770147478e4cc362a1fdc5f, type: 3}
    - time: 2.1333334
      value: {fileID: 21300000, guid: 9c316ba1cbd5e584daedad7ac68baf54, type: 3}
    - time: 2.1666667
      value: {fileID: 21300000, guid: 8ba2777c9a6247548b7827821b8d4ec1, type: 3}
    - time: 2.2
      value: {fileID: 21300000, guid: f9f1133493357f14caad9df5a1e63bbb, type: 3}
    - time: 2.2333333
      value: {fileID: 21300000, guid: bf2c634d823157146a0b18835445b495, type: 3}
    - time: 2.2666667
      value: {fileID: 21300000, guid: 77f3aecea149cdc4688f6fd40897dce3, type: 3}
    - time: 2.3
      value: {fileID: 21300000, guid: f785ec1bbea316548b2f80e3665b8d01, type: 3}
    - time: 2.3333333
      value: {fileID: 21300000, guid: dd22cc916a2c8c946831ec01e484c913, type: 3}
    - time: 2.3666666
      value: {fileID: 21300000, guid: edc3c6488d51d6c48a2b14a8b608acc8, type: 3}
    - time: 2.4
      value: {fileID: 21300000, guid: e8869918335205741b479f80f1dc8d0c, type: 3}
    - time: 2.4333334
      value: {fileID: 21300000, guid: 0e84833accd7fee49ade2b364a519e41, type: 3}
    - time: 2.4666667
      value: {fileID: 21300000, guid: 1b69b0a326d103046a88b1f9fd3dc438, type: 3}
    - time: 2.5
      value: {fileID: 21300000, guid: a2bae568bac18734cb42861da772658f, type: 3}
    - time: 2.5333333
      value: {fileID: 21300000, guid: 67249a14b61273440a9cd03e8744d5b5, type: 3}
    - time: 2.5666666
      value: {fileID: 21300000, guid: abc34d227122cc94bb9766ffb06c3393, type: 3}
    - time: 2.6
      value: {fileID: 21300000, guid: c3cb56f9edb352746bdf3fa196d0c919, type: 3}
    - time: 2.6333334
      value: {fileID: 21300000, guid: 7a6359c526b5ec145868f0b1c0852cdf, type: 3}
    - time: 2.6666667
      value: {fileID: 21300000, guid: 2c4857f447ecaae49b64c511ae983398, type: 3}
    - time: 2.7
      value: {fileID: 21300000, guid: 5ad786399d23dbf43bf415fd45b3e5b4, type: 3}
    - time: 2.7333333
      value: {fileID: 21300000, guid: f21acb64c872897428ceed36e34ad256, type: 3}
    - time: 2.7666667
      value: {fileID: 21300000, guid: 931a94f06aa728c41b3dbd6aa3868365, type: 3}
    - time: 2.8
      value: {fileID: 21300000, guid: 305ad0a64382de94383a783991680e7b, type: 3}
    - time: 2.8333333
      value: {fileID: 21300000, guid: 422e6ed90cd34ce40892c57b61f766d4, type: 3}
    - time: 2.8666666
      value: {fileID: 21300000, guid: 2449a7f13c3b1f54fabf4edc555fa13c, type: 3}
    - time: 2.9
      value: {fileID: 21300000, guid: befb89606eb22ae4aa69c022f0059e70, type: 3}
    - time: 2.9333334
      value: {fileID: 21300000, guid: 1c8b967a989224d4182590466b1bd9e1, type: 3}
    - time: 2.9666667
      value: {fileID: 21300000, guid: fbd89a46d0cb5f441a8342f1932422f1, type: 3}
    - time: 3
      value: {fileID: 21300000, guid: b5032bc1eb61fe844aadf105949c1d09, type: 3}
    - time: 3.0333333
      value: {fileID: 21300000, guid: c1b8ead9199351f4f918d3b4e19a7908, type: 3}
    - time: 3.0666666
      value: {fileID: 21300000, guid: f7757e76f1a0d704da0975f9899489a1, type: 3}
    - time: 3.1
      value: {fileID: 21300000, guid: a028a51ee3d8a914893707beabd94349, type: 3}
    - time: 3.1333334
      value: {fileID: 21300000, guid: a9b2db281c0bcf24e895946c4eba2f3c, type: 3}
    - time: 3.1666667
      value: {fileID: 21300000, guid: b31846d4c3535a84293174ef00679d6f, type: 3}
    - time: 3.2
      value: {fileID: 21300000, guid: 7e4352247f6c0654ba8345f5440ab470, type: 3}
    - time: 3.2333333
      value: {fileID: 21300000, guid: 7e0b3d19bc1c25c4c9dc8e7d7ec19e3e, type: 3}
    - time: 3.2666667
      value: {fileID: 21300000, guid: 7d126946f71b0f246916ade26b767ca0, type: 3}
    - time: 3.3
      value: {fileID: 21300000, guid: 676d7aa5a2623c143a50d6f7de756924, type: 3}
    - time: 3.3333333
      value: {fileID: 21300000, guid: aafd74b5778ca174a9cb276fd36166f3, type: 3}
    attribute: m_Sprite
    path: 
    classID: 212
    script: {fileID: 0}
  m_SampleRate: 30
  m_WrapMode: 0
  m_Bounds:
    m_Center: {x: 0, y: 0, z: 0}
    m_Extent: {x: 0, y: 0, z: 0}
  m_ClipBindingConstant:
    genericBindings:
    - serializedVersion: 2
      path: 0
      attribute: 0
      script: {fileID: 0}
      typeID: 212
      customType: 23
      isPPtrCurve: 1
    pptrCurveMapping:
    - {fileID: 21300000, guid: 7e2fec4454efb6249a85a4106b21570d, type: 3}
    - {fileID: 21300000, guid: 489c020f643db324cbf12643e5dc59dd, type: 3}
    - {fileID: 21300000, guid: 083406f035d65904db78fd6f7452c7dd, type: 3}
    - {fileID: 21300000, guid: 122c8e126c707754fb1a1cf095b8d685, type: 3}
    - {fileID: 21300000, guid: 97adf2fc00146ef469d1c70839c62980, type: 3}
    - {fileID: 21300000, guid: 12d56596c0e8b3e47b86a1a2fbf645c0, type: 3}
    - {fileID: 21300000, guid: 83ae48040b9f0d547af85a1fb349ca59, type: 3}
    - {fileID: 21300000, guid: 3870ed7036037a748aba42bd828d6b61, type: 3}
    - {fileID: 21300000, guid: 7891d8fdb74698b4baa96c74f145d948, type: 3}
    - {fileID: 21300000, guid: 7af9160d38ac30a46871223935d7755a, type: 3}
    - {fileID: 21300000, guid: 412285282bb9c6444b2ce32aa61fdfd6, type: 3}
    - {fileID: 21300000, guid: d318a70ef108372409b999d763dd32da, type: 3}
    - {fileID: 21300000, guid: 7f5afe19e37cfbb4fa9d8b338d40d3d9, type: 3}
    - {fileID: 21300000, guid: 63bd8c84701c3f84fafc14115828cbd8, type: 3}
    - {fileID: 21300000, guid: b13596e2c6028c34bad7b7ab7fe27233, type: 3}
    - {fileID: 21300000, guid: 6a3f624fa50ac544a86607fda3873442, type: 3}
    - {fileID: 21300000, guid: 84bfb9ee0adc49e40bcbd20255773fbc, type: 3}
    - {fileID: 21300000, guid: eeaf8400a92dd774b8af8da12f6c06dd, type: 3}
    - {fileID: 21300000, guid: 6a72371bc6ed214429a305bc510db28b, type: 3}
    - {fileID: 21300000, guid: 1e3de5952ffbafc49aab93fe0c917dcc, type: 3}
    - {fileID: 21300000, guid: d696883ceecf55d4a921a35246a6a970, type: 3}
    - {fileID: 21300000, guid: 84878c8e538674347a1fd6598431bdd5, type: 3}
    - {fileID: 21300000, guid: 4971ec5b534e8e04ca21226ce264e8af, type: 3}
    - {fileID: 21300000, guid: c81c4912756109d4790cfc1009e021fa, type: 3}
    - {fileID: 21300000, guid: b8c80ad1a5268eb4eb9f3315fc0e74b7, type: 3}
    - {fileID: 21300000, guid: 13cfef57f7c333649b97c4c8728fe9e9, type: 3}
    - {fileID: 21300000, guid: 12f700f0b1376684f91b9f3f4e3a3629, type: 3}
    - {fileID: 21300000, guid: c13b65a4bd2bacd439505b6fa3d3f821, type: 3}
    - {fileID: 21300000, guid: 8879ef9c14c708948ba47f3c0be408d2, type: 3}
    - {fileID: 21300000, guid: ac978fd0dda482c44a2a50fe12d3f3ad, type: 3}
    - {fileID: 21300000, guid: db9ee7c20a458074e840d3c49ad66ffd, type: 3}
    - {fileID: 21300000, guid: cdc9316f6cc4b4a49be10bc714b705d0, type: 3}
    - {fileID: 21300000, guid: 37c87f2b7deec4f4f841b63ac4a7fe0d, type: 3}
    - {fileID: 21300000, guid: 101b952a1d33bc84d9eb3154f0b2818a, type: 3}
    - {fileID: 21300000, guid: 6bb420af9909c4e4e9757ac5c305dfcf, type: 3}
    - {fileID: 21300000, guid: 94f60ceae2e11f847aea4e9edb3f34a2, type: 3}
    - {fileID: 21300000, guid: 6a6c69919ebf0b7468f55c83276dbe57, type: 3}
    - {fileID: 21300000, guid: 05b07ce7ef5814b40bfc5a1d2d8c4930, type: 3}
    - {fileID: 21300000, guid: 4b03303e752dc2a4183fd3721566d7b2, type: 3}
    - {fileID: 21300000, guid: 04abb0e53d31f694a8e145954eda596c, type: 3}
    - {fileID: 21300000, guid: 9a01bd55d1d88db43b423168e27833a2, type: 3}
    - {fileID: 21300000, guid: 5c4abfd3f8c0bf24083180b1e6b2b82b, type: 3}
    - {fileID: 21300000, guid: 163fc2dcecc38584aba2bb504e210ec2, type: 3}
    - {fileID: 21300000, guid: 54c9139308c1d2e46b2f5506c6af89f2, type: 3}
    - {fileID: 21300000, guid: 82e88577765539e4ba5238efbe7da82b, type: 3}
    - {fileID: 21300000, guid: 0c62f8f7cfab7ba49b101141f410f5c0, type: 3}
    - {fileID: 21300000, guid: 9e637c9fd422f6e47b9367fedaadba1b, type: 3}
    - {fileID: 21300000, guid: acc1b8adf92dfd349a3e960f6d407006, type: 3}
    - {fileID: 21300000, guid: dd05900b5030ac8488924ca6fac71469, type: 3}
    - {fileID: 21300000, guid: b9879a8043c01a647a026b3682c9699d, type: 3}
    - {fileID: 21300000, guid: c59b92595e1e63f4680781c44f99b7b4, type: 3}
    - {fileID: 21300000, guid: bc006c2d2070b59469a73e13fc61938c, type: 3}
    - {fileID: 21300000, guid: ee870b51e66a9eb429ecc4a21d89cc2b, type: 3}
    - {fileID: 21300000, guid: bb10657abb35d044fbc938499d8b0dad, type: 3}
    - {fileID: 21300000, guid: 59cda3ad2c63b7745a7f387e1c229eeb, type: 3}
    - {fileID: 21300000, guid: 81e9acda65483cb488cc039b80bf372f, type: 3}
    - {fileID: 21300000, guid: 118c686a92096e8428229468e1e2af88, type: 3}
    - {fileID: 21300000, guid: 27e39968246204d40804870653e07612, type: 3}
    - {fileID: 21300000, guid: 3c5518c6ee4c0d64db59c085e6890664, type: 3}
    - {fileID: 21300000, guid: 498018175d1848f408337b69a70f406d, type: 3}
    - {fileID: 21300000, guid: 71a4fd94f61bcbb4ebf48510aa1271bb, type: 3}
    - {fileID: 21300000, guid: 14cb9f7ea49e15b47bcbf84d2f73283b, type: 3}
    - {fileID: 21300000, guid: ba90015033efaae42b828ab1eace51d9, type: 3}
    - {fileID: 21300000, guid: f218caf0c770147478e4cc362a1fdc5f, type: 3}
    - {fileID: 21300000, guid: 9c316ba1cbd5e584daedad7ac68baf54, type: 3}
    - {fileID: 21300000, guid: 8ba2777c9a6247548b7827821b8d4ec1, type: 3}
    - {fileID: 21300000, guid: f9f1133493357f14caad9df5a1e63bbb, type: 3}
    - {fileID: 21300000, guid: bf2c634d823157146a0b18835445b495, type: 3}
    - {fileID: 21300000, guid: 77f3aecea149cdc4688f6fd40897dce3, type: 3}
    - {fileID: 21300000, guid: f785ec1bbea316548b2f80e3665b8d01, type: 3}
    - {fileID: 21300000, guid: dd22cc916a2c8c946831ec01e484c913, type: 3}
    - {fileID: 21300000, guid: edc3c6488d51d6c48a2b14a8b608acc8, type: 3}
    - {fileID: 21300000, guid: e8869918335205741b479f80f1dc8d0c, type: 3}
    - {fileID: 21300000, guid: 0e84833accd7fee49ade2b364a519e41, type: 3}
    - {fileID: 21300000, guid: 1b69b0a326d103046a88b1f9fd3dc438, type: 3}
    - {fileID: 21300000, guid: a2bae568bac18734cb42861da772658f, type: 3}
    - {fileID: 21300000, guid: 67249a14b61273440a9cd03e8744d5b5, type: 3}
    - {fileID: 21300000, guid: abc34d227122cc94bb9766ffb06c3393, type: 3}
    - {fileID: 21300000, guid: c3cb56f9edb352746bdf3fa196d0c919, type: 3}
    - {fileID: 21300000, guid: 7a6359c526b5ec145868f0b1c0852cdf, type: 3}
    - {fileID: 21300000, guid: 2c4857f447ecaae49b64c511ae983398, type: 3}
    - {fileID: 21300000, guid: 5ad786399d23dbf43bf415fd45b3e5b4, type: 3}
    - {fileID: 21300000, guid: f21acb64c872897428ceed36e34ad256, type: 3}
    - {fileID: 21300000, guid: 931a94f06aa728c41b3dbd6aa3868365, type: 3}
    - {fileID: 21300000, guid: 305ad0a64382de94383a783991680e7b, type: 3}
    - {fileID: 21300000, guid: 422e6ed90cd34ce40892c57b61f766d4, type: 3}
    - {fileID: 21300000, guid: 2449a7f13c3b1f54fabf4edc555fa13c, type: 3}
    - {fileID: 21300000, guid: befb89606eb22ae4aa69c022f0059e70, type: 3}
    - {fileID: 21300000, guid: 1c8b967a989224d4182590466b1bd9e1, type: 3}
    - {fileID: 21300000, guid: fbd89a46d0cb5f441a8342f1932422f1, type: 3}
    - {fileID: 21300000, guid: b5032bc1eb61fe844aadf105949c1d09, type: 3}
    - {fileID: 21300000, guid: c1b8ead9199351f4f918d3b4e19a7908, type: 3}
    - {fileID: 21300000, guid: f7757e76f1a0d704da0975f9899489a1, type: 3}
    - {fileID: 21300000, guid: a028a51ee3d8a914893707beabd94349, type: 3}
    - {fileID: 21300000, guid: a9b2db281c0bcf24e895946c4eba2f3c, type: 3}
    - {fileID: 21300000, guid: b31846d4c3535a84293174ef00679d6f, type: 3}
    - {fileID: 21300000, guid: 7e4352247f6c0654ba8345f5440ab470, type: 3}
    - {fileID: 21300000, guid: 7e0b3d19bc1c25c4c9dc8e7d7ec19e3e, type: 3}
    - {fileID: 21300000, guid: 7d126946f71b0f246916ade26b767ca0, type: 3}
    - {fileID: 21300000, guid: 676d7aa5a2623c143a50d6f7de756924, type: 3}
    - {fileID: 21300000, guid: aafd74b5778ca174a9cb276fd36166f3, type: 3}
  m_AnimationClipSettings:
    serializedVersion: 2
    m_AdditiveReferencePoseClip: {fileID: 0}
    m_AdditiveReferencePoseTime: 0
    m_StartTime: 0
    m_StopTime: 3.3666666
    m_OrientationOffsetY: 0
    m_Level: 0
    m_CycleOffset: 0
    m_HasAdditiveReferencePose: 0
    m_LoopTime: 1
    m_LoopBlend: 0
    m_LoopBlendOrientation: 0
    m_LoopBlendPositionY: 0
    m_LoopBlendPositionXZ: 0
    m_KeepOriginalOrientation: 0
    m_KeepOriginalPositionY: 1
    m_KeepOriginalPositionXZ: 0
    m_HeightFromFeet: 0
    m_Mirror: 0
  m_EditorCurves: []
  m_EulerEditorCurves: []
  m_HasGenericRootTransform: 0
  m_HasMotionFloatCurves: 0
  m_Events: []
