%YAML 1.1
%TAG !u! tag:unity3d.com,2011:
--- !u!74 &7400000
AnimationClip:
  m_ObjectHideFlags: 0
  m_CorrespondingSourceObject: {fileID: 0}
  m_PrefabInstance: {fileID: 0}
  m_PrefabAsset: {fileID: 0}
  m_Name: Trash_Aluminium_Foil_ball1
  serializedVersion: 6
  m_Legacy: 0
  m_Compressed: 0
  m_UseHighQualityCurve: 1
  m_RotationCurves: []
  m_CompressedRotationCurves: []
  m_EulerCurves: []
  m_PositionCurves: []
  m_ScaleCurves: []
  m_FloatCurves: []
  m_PPtrCurves:
  - curve:
    - time: 0
      value: {fileID: 21300000, guid: a03751c1f9c34fc45901162105aea42f, type: 3}
    - time: 0.033333335
      value: {fileID: 21300000, guid: ff2327527c589164aa9da503eb318dbe, type: 3}
    - time: 0.06666667
      value: {fileID: 21300000, guid: f621554e255b9ff41a1e05ce469bbf42, type: 3}
    - time: 0.1
      value: {fileID: 21300000, guid: c06351c196f6a9e4bafccab5cc9da081, type: 3}
    - time: 0.13333334
      value: {fileID: 21300000, guid: e83c01d6b49509b42b35d37b084ded73, type: 3}
    - time: 0.16666667
      value: {fileID: 21300000, guid: 6167d1bcf115ab24684328551b815ae1, type: 3}
    - time: 0.2
      value: {fileID: 21300000, guid: 8b19792437c85b042bbfa4685310d167, type: 3}
    - time: 0.23333333
      value: {fileID: 21300000, guid: e8da7702645388448b411206ca36065b, type: 3}
    - time: 0.26666668
      value: {fileID: 21300000, guid: 14abc4d672a544741adb476f11b41e62, type: 3}
    - time: 0.3
      value: {fileID: 21300000, guid: a5fa2015ce9f4cf42b630cd4dcd3fd86, type: 3}
    - time: 0.33333334
      value: {fileID: 21300000, guid: f50310cae1ead0747966b7fdd7aaa607, type: 3}
    - time: 0.36666667
      value: {fileID: 21300000, guid: 733c3ab533b2f80469e460b0854e7d9b, type: 3}
    - time: 0.4
      value: {fileID: 21300000, guid: 391639a6dddb3da4dbb91a5d2b5f653d, type: 3}
    - time: 0.43333334
      value: {fileID: 21300000, guid: 3d7e43277688f804c80ee14f09dfd76d, type: 3}
    - time: 0.46666667
      value: {fileID: 21300000, guid: 96d2a88f481faac4ebe521ec2a3bad85, type: 3}
    - time: 0.5
      value: {fileID: 21300000, guid: 29ae9f41d8d6ede4bac6c32da85950c3, type: 3}
    - time: 0.53333336
      value: {fileID: 21300000, guid: 818cd7addec1ea142845f82bb1534bdb, type: 3}
    - time: 0.56666666
      value: {fileID: 21300000, guid: f94de0f42b9b71e4bb50f0c04ddcf800, type: 3}
    - time: 0.6
      value: {fileID: 21300000, guid: b4c65115eea51b248b324fd04e6d6b23, type: 3}
    - time: 0.6333333
      value: {fileID: 21300000, guid: 257dbbfb449c4d14580038244083d4b4, type: 3}
    - time: 0.6666667
      value: {fileID: 21300000, guid: 16927b87a0ec4024f83f0336e6ee1860, type: 3}
    - time: 0.7
      value: {fileID: 21300000, guid: a60eb70ccdccbc2479190960be8f9886, type: 3}
    - time: 0.73333335
      value: {fileID: 21300000, guid: 721e1754cf39a6441b4607ea2f89d577, type: 3}
    - time: 0.76666665
      value: {fileID: 21300000, guid: e9cc99003443c1f4e8a1b2068f967322, type: 3}
    - time: 0.8
      value: {fileID: 21300000, guid: 7c15168b97ab9794887631bebf9d8563, type: 3}
    - time: 0.8333333
      value: {fileID: 21300000, guid: 516db11212a48984aa0419bfd10423dc, type: 3}
    - time: 0.8666667
      value: {fileID: 21300000, guid: 3f718a658f868684687d793da95a84b8, type: 3}
    - time: 0.9
      value: {fileID: 21300000, guid: abd0e55a77e929a4bbcf677bcb101b91, type: 3}
    - time: 0.93333334
      value: {fileID: 21300000, guid: d692159d50238404c8cb6a5459a53345, type: 3}
    - time: 0.96666664
      value: {fileID: 21300000, guid: adad701d5eac1324d8ec057d0975f2e3, type: 3}
    - time: 1
      value: {fileID: 21300000, guid: 9b21fb0f4e4976442b4bd862ee34a03c, type: 3}
    - time: 1.0333333
      value: {fileID: 21300000, guid: dbf5ce05a414530439bdf07f752a60eb, type: 3}
    - time: 1.0666667
      value: {fileID: 21300000, guid: b10b2bab59e14f64fbf95f3196a78c24, type: 3}
    - time: 1.1
      value: {fileID: 21300000, guid: a4d0bca248527dc458ef0aadda6cc157, type: 3}
    - time: 1.1333333
      value: {fileID: 21300000, guid: 576115d8544d8374aaa29006416eec38, type: 3}
    - time: 1.1666666
      value: {fileID: 21300000, guid: a9883b02679b63a42bdaf2c3bfe208e9, type: 3}
    - time: 1.2
      value: {fileID: 21300000, guid: 13f2d8ff817740b47966edb948ffc379, type: 3}
    - time: 1.2333333
      value: {fileID: 21300000, guid: 226d910a610a6d04999df22c46c51b23, type: 3}
    - time: 1.2666667
      value: {fileID: 21300000, guid: f4d37f8606bf39a4089dbf4952bb12a1, type: 3}
    - time: 1.3
      value: {fileID: 21300000, guid: f7817c818b442394daa0c213719670f8, type: 3}
    - time: 1.3333334
      value: {fileID: 21300000, guid: c5802a505e4d12e4aaf798f0eb340649, type: 3}
    - time: 1.3666667
      value: {fileID: 21300000, guid: 484321baa80166a49a84580d4e5c8a32, type: 3}
    - time: 1.4
      value: {fileID: 21300000, guid: 96b1178085add1542a3f393924977e4a, type: 3}
    - time: 1.4333333
      value: {fileID: 21300000, guid: 4f4186752b36b5d42b07ac0c8b7079b1, type: 3}
    - time: 1.4666667
      value: {fileID: 21300000, guid: e218cbc7f5e4396469d2defe46f5da0e, type: 3}
    - time: 1.5
      value: {fileID: 21300000, guid: 95db9f77cd8409d4dbd0c756df000e0b, type: 3}
    - time: 1.5333333
      value: {fileID: 21300000, guid: 4da5331c9b42bb94b85fd6ae3a08ef72, type: 3}
    - time: 1.5666667
      value: {fileID: 21300000, guid: 69461d81e14dfc849afc6eb749fea98a, type: 3}
    - time: 1.6
      value: {fileID: 21300000, guid: 795401ebefa4fcb488d6fbd92bdbc87f, type: 3}
    - time: 1.6333333
      value: {fileID: 21300000, guid: 3c6f0edb52d898441b2d4edc64aed13e, type: 3}
    - time: 1.6666666
      value: {fileID: 21300000, guid: 3a84538732c75f643869fefe6efcfd14, type: 3}
    - time: 1.7
      value: {fileID: 21300000, guid: d13e4ee1c2a36be4ab2286e7a7f01f65, type: 3}
    - time: 1.7333333
      value: {fileID: 21300000, guid: cbc67276ec581b842a0b2f73d34ef7ae, type: 3}
    - time: 1.7666667
      value: {fileID: 21300000, guid: dacda4bdeb14aa1448aa77c7a7b3ded5, type: 3}
    - time: 1.8
      value: {fileID: 21300000, guid: 371558276c38c5946ab421dad4ee2882, type: 3}
    - time: 1.8333334
      value: {fileID: 21300000, guid: 0260c95762490674884d062541ad06bb, type: 3}
    - time: 1.8666667
      value: {fileID: 21300000, guid: ca77f9d4bd2ad1f4fb034c8cac5a5dae, type: 3}
    - time: 1.9
      value: {fileID: 21300000, guid: 3f39e5ec8d37e3441b10940293702a1e, type: 3}
    - time: 1.9333333
      value: {fileID: 21300000, guid: ce310f8950c56004cb3a884d38f4a34d, type: 3}
    - time: 1.9666667
      value: {fileID: 21300000, guid: 779ad263e3aef0947ab51c81c2a41402, type: 3}
    - time: 2
      value: {fileID: 21300000, guid: cd63414ba16ed2142aa883639c68cdf6, type: 3}
    - time: 2.0333333
      value: {fileID: 21300000, guid: 564be4b5964cbbf43b83b656dfdc2950, type: 3}
    - time: 2.0666666
      value: {fileID: 21300000, guid: d3318bca18aa4f1479e6e87135c64d41, type: 3}
    - time: 2.1
      value: {fileID: 21300000, guid: 4e8c103604eaaa44da981c3124908aef, type: 3}
    - time: 2.1333334
      value: {fileID: 21300000, guid: 174e0fd61b684cf479d447541fe80d18, type: 3}
    - time: 2.1666667
      value: {fileID: 21300000, guid: 9ad6c44a287377f42a6d93401365018d, type: 3}
    - time: 2.2
      value: {fileID: 21300000, guid: 775d4b92dc7474f41bde18dcafbe1c62, type: 3}
    - time: 2.2333333
      value: {fileID: 21300000, guid: d290129aa6b5f0b4f8128c6d20e42717, type: 3}
    - time: 2.2666667
      value: {fileID: 21300000, guid: 35cd612c714d0ec4f9f53e035a026fb4, type: 3}
    - time: 2.3
      value: {fileID: 21300000, guid: 8dfec0a066233de49995a2ea5b2e172f, type: 3}
    - time: 2.3333333
      value: {fileID: 21300000, guid: 1a1b3153de3f5294fa4c7bdc7eee6bb2, type: 3}
    - time: 2.3666666
      value: {fileID: 21300000, guid: 84a91404af654a845a319c9c0ab207c8, type: 3}
    - time: 2.4
      value: {fileID: 21300000, guid: d9581c94eb64c4e4a81572aad46f19cf, type: 3}
    - time: 2.4333334
      value: {fileID: 21300000, guid: 4b4063add9305804a8cd9c89eef2c84f, type: 3}
    - time: 2.4666667
      value: {fileID: 21300000, guid: f881f8a06f52eb5498f266156071a855, type: 3}
    - time: 2.5
      value: {fileID: 21300000, guid: 6d90c483f0df0284fb92e9c17d2784c6, type: 3}
    - time: 2.5333333
      value: {fileID: 21300000, guid: 13cb84ebe1077c44dbeb39d9d3ce09ab, type: 3}
    - time: 2.5666666
      value: {fileID: 21300000, guid: d341b561e7987ab48a165b8cfdb82741, type: 3}
    - time: 2.6
      value: {fileID: 21300000, guid: 5d85772460948e34eb5f909bba71da6e, type: 3}
    - time: 2.6333334
      value: {fileID: 21300000, guid: 3cf38ab9cf11de74fba27143b7fb2eb6, type: 3}
    - time: 2.6666667
      value: {fileID: 21300000, guid: 8efe62e71d66758488851c5edecf8f83, type: 3}
    - time: 2.7
      value: {fileID: 21300000, guid: c4c55c0368d95fb449e871900b4deeca, type: 3}
    - time: 2.7333333
      value: {fileID: 21300000, guid: 4f62f2d4ecca5844b9089cf85d58dd04, type: 3}
    - time: 2.7666667
      value: {fileID: 21300000, guid: f616fab95300ddb4e900353db936abeb, type: 3}
    - time: 2.8
      value: {fileID: 21300000, guid: 7bffd62be7d5ca6408b0493d44ec6232, type: 3}
    - time: 2.8333333
      value: {fileID: 21300000, guid: ae9a9b01a6e44be48ad83bf4eeec799b, type: 3}
    - time: 2.8666666
      value: {fileID: 21300000, guid: b3adf562c83e0b34493e80a4a5666ea1, type: 3}
    - time: 2.9
      value: {fileID: 21300000, guid: f36b4fde9c0f5804dafa62ebbcda361a, type: 3}
    - time: 2.9333334
      value: {fileID: 21300000, guid: 5ca37ffc7ce70eb43904f75b0763f924, type: 3}
    - time: 2.9666667
      value: {fileID: 21300000, guid: 20dbff089bcf92d49b27886a197db40a, type: 3}
    - time: 3
      value: {fileID: 21300000, guid: e2caa930a76d19c49a3fd9b4c61d97dc, type: 3}
    - time: 3.0333333
      value: {fileID: 21300000, guid: 35d788ff62633f0408db31c1f37558ca, type: 3}
    - time: 3.0666666
      value: {fileID: 21300000, guid: 1dc05acca8374fb4183886f80da79ef4, type: 3}
    - time: 3.1
      value: {fileID: 21300000, guid: 3c60a7a6bf63b124c97f127b6f9cd9d8, type: 3}
    - time: 3.1333334
      value: {fileID: 21300000, guid: b5600c86388e0a44e9f423a344a609cc, type: 3}
    - time: 3.1666667
      value: {fileID: 21300000, guid: 2c5e9c12df595a644acb3d445bf76241, type: 3}
    - time: 3.2
      value: {fileID: 21300000, guid: eda7fb0db64f91e4ba972637c8bd353f, type: 3}
    - time: 3.2333333
      value: {fileID: 21300000, guid: 26763dcb28a64d048bc7deb22ca50f1c, type: 3}
    - time: 3.2666667
      value: {fileID: 21300000, guid: c5876842f197f7d4b8e1a3c8af859cf8, type: 3}
    - time: 3.3
      value: {fileID: 21300000, guid: 5ab2d92f1aba44a488075438eba2d5f4, type: 3}
    - time: 3.3333333
      value: {fileID: 21300000, guid: 89af28ced9ea467428f984896af11f25, type: 3}
    attribute: m_Sprite
    path: 
    classID: 212
    script: {fileID: 0}
  m_SampleRate: 30
  m_WrapMode: 0
  m_Bounds:
    m_Center: {x: 0, y: 0, z: 0}
    m_Extent: {x: 0, y: 0, z: 0}
  m_ClipBindingConstant:
    genericBindings:
    - serializedVersion: 2
      path: 0
      attribute: 0
      script: {fileID: 0}
      typeID: 212
      customType: 23
      isPPtrCurve: 1
    pptrCurveMapping:
    - {fileID: 21300000, guid: a03751c1f9c34fc45901162105aea42f, type: 3}
    - {fileID: 21300000, guid: ff2327527c589164aa9da503eb318dbe, type: 3}
    - {fileID: 21300000, guid: f621554e255b9ff41a1e05ce469bbf42, type: 3}
    - {fileID: 21300000, guid: c06351c196f6a9e4bafccab5cc9da081, type: 3}
    - {fileID: 21300000, guid: e83c01d6b49509b42b35d37b084ded73, type: 3}
    - {fileID: 21300000, guid: 6167d1bcf115ab24684328551b815ae1, type: 3}
    - {fileID: 21300000, guid: 8b19792437c85b042bbfa4685310d167, type: 3}
    - {fileID: 21300000, guid: e8da7702645388448b411206ca36065b, type: 3}
    - {fileID: 21300000, guid: 14abc4d672a544741adb476f11b41e62, type: 3}
    - {fileID: 21300000, guid: a5fa2015ce9f4cf42b630cd4dcd3fd86, type: 3}
    - {fileID: 21300000, guid: f50310cae1ead0747966b7fdd7aaa607, type: 3}
    - {fileID: 21300000, guid: 733c3ab533b2f80469e460b0854e7d9b, type: 3}
    - {fileID: 21300000, guid: 391639a6dddb3da4dbb91a5d2b5f653d, type: 3}
    - {fileID: 21300000, guid: 3d7e43277688f804c80ee14f09dfd76d, type: 3}
    - {fileID: 21300000, guid: 96d2a88f481faac4ebe521ec2a3bad85, type: 3}
    - {fileID: 21300000, guid: 29ae9f41d8d6ede4bac6c32da85950c3, type: 3}
    - {fileID: 21300000, guid: 818cd7addec1ea142845f82bb1534bdb, type: 3}
    - {fileID: 21300000, guid: f94de0f42b9b71e4bb50f0c04ddcf800, type: 3}
    - {fileID: 21300000, guid: b4c65115eea51b248b324fd04e6d6b23, type: 3}
    - {fileID: 21300000, guid: 257dbbfb449c4d14580038244083d4b4, type: 3}
    - {fileID: 21300000, guid: 16927b87a0ec4024f83f0336e6ee1860, type: 3}
    - {fileID: 21300000, guid: a60eb70ccdccbc2479190960be8f9886, type: 3}
    - {fileID: 21300000, guid: 721e1754cf39a6441b4607ea2f89d577, type: 3}
    - {fileID: 21300000, guid: e9cc99003443c1f4e8a1b2068f967322, type: 3}
    - {fileID: 21300000, guid: 7c15168b97ab9794887631bebf9d8563, type: 3}
    - {fileID: 21300000, guid: 516db11212a48984aa0419bfd10423dc, type: 3}
    - {fileID: 21300000, guid: 3f718a658f868684687d793da95a84b8, type: 3}
    - {fileID: 21300000, guid: abd0e55a77e929a4bbcf677bcb101b91, type: 3}
    - {fileID: 21300000, guid: d692159d50238404c8cb6a5459a53345, type: 3}
    - {fileID: 21300000, guid: adad701d5eac1324d8ec057d0975f2e3, type: 3}
    - {fileID: 21300000, guid: 9b21fb0f4e4976442b4bd862ee34a03c, type: 3}
    - {fileID: 21300000, guid: dbf5ce05a414530439bdf07f752a60eb, type: 3}
    - {fileID: 21300000, guid: b10b2bab59e14f64fbf95f3196a78c24, type: 3}
    - {fileID: 21300000, guid: a4d0bca248527dc458ef0aadda6cc157, type: 3}
    - {fileID: 21300000, guid: 576115d8544d8374aaa29006416eec38, type: 3}
    - {fileID: 21300000, guid: a9883b02679b63a42bdaf2c3bfe208e9, type: 3}
    - {fileID: 21300000, guid: 13f2d8ff817740b47966edb948ffc379, type: 3}
    - {fileID: 21300000, guid: 226d910a610a6d04999df22c46c51b23, type: 3}
    - {fileID: 21300000, guid: f4d37f8606bf39a4089dbf4952bb12a1, type: 3}
    - {fileID: 21300000, guid: f7817c818b442394daa0c213719670f8, type: 3}
    - {fileID: 21300000, guid: c5802a505e4d12e4aaf798f0eb340649, type: 3}
    - {fileID: 21300000, guid: 484321baa80166a49a84580d4e5c8a32, type: 3}
    - {fileID: 21300000, guid: 96b1178085add1542a3f393924977e4a, type: 3}
    - {fileID: 21300000, guid: 4f4186752b36b5d42b07ac0c8b7079b1, type: 3}
    - {fileID: 21300000, guid: e218cbc7f5e4396469d2defe46f5da0e, type: 3}
    - {fileID: 21300000, guid: 95db9f77cd8409d4dbd0c756df000e0b, type: 3}
    - {fileID: 21300000, guid: 4da5331c9b42bb94b85fd6ae3a08ef72, type: 3}
    - {fileID: 21300000, guid: 69461d81e14dfc849afc6eb749fea98a, type: 3}
    - {fileID: 21300000, guid: 795401ebefa4fcb488d6fbd92bdbc87f, type: 3}
    - {fileID: 21300000, guid: 3c6f0edb52d898441b2d4edc64aed13e, type: 3}
    - {fileID: 21300000, guid: 3a84538732c75f643869fefe6efcfd14, type: 3}
    - {fileID: 21300000, guid: d13e4ee1c2a36be4ab2286e7a7f01f65, type: 3}
    - {fileID: 21300000, guid: cbc67276ec581b842a0b2f73d34ef7ae, type: 3}
    - {fileID: 21300000, guid: dacda4bdeb14aa1448aa77c7a7b3ded5, type: 3}
    - {fileID: 21300000, guid: 371558276c38c5946ab421dad4ee2882, type: 3}
    - {fileID: 21300000, guid: 0260c95762490674884d062541ad06bb, type: 3}
    - {fileID: 21300000, guid: ca77f9d4bd2ad1f4fb034c8cac5a5dae, type: 3}
    - {fileID: 21300000, guid: 3f39e5ec8d37e3441b10940293702a1e, type: 3}
    - {fileID: 21300000, guid: ce310f8950c56004cb3a884d38f4a34d, type: 3}
    - {fileID: 21300000, guid: 779ad263e3aef0947ab51c81c2a41402, type: 3}
    - {fileID: 21300000, guid: cd63414ba16ed2142aa883639c68cdf6, type: 3}
    - {fileID: 21300000, guid: 564be4b5964cbbf43b83b656dfdc2950, type: 3}
    - {fileID: 21300000, guid: d3318bca18aa4f1479e6e87135c64d41, type: 3}
    - {fileID: 21300000, guid: 4e8c103604eaaa44da981c3124908aef, type: 3}
    - {fileID: 21300000, guid: 174e0fd61b684cf479d447541fe80d18, type: 3}
    - {fileID: 21300000, guid: 9ad6c44a287377f42a6d93401365018d, type: 3}
    - {fileID: 21300000, guid: 775d4b92dc7474f41bde18dcafbe1c62, type: 3}
    - {fileID: 21300000, guid: d290129aa6b5f0b4f8128c6d20e42717, type: 3}
    - {fileID: 21300000, guid: 35cd612c714d0ec4f9f53e035a026fb4, type: 3}
    - {fileID: 21300000, guid: 8dfec0a066233de49995a2ea5b2e172f, type: 3}
    - {fileID: 21300000, guid: 1a1b3153de3f5294fa4c7bdc7eee6bb2, type: 3}
    - {fileID: 21300000, guid: 84a91404af654a845a319c9c0ab207c8, type: 3}
    - {fileID: 21300000, guid: d9581c94eb64c4e4a81572aad46f19cf, type: 3}
    - {fileID: 21300000, guid: 4b4063add9305804a8cd9c89eef2c84f, type: 3}
    - {fileID: 21300000, guid: f881f8a06f52eb5498f266156071a855, type: 3}
    - {fileID: 21300000, guid: 6d90c483f0df0284fb92e9c17d2784c6, type: 3}
    - {fileID: 21300000, guid: 13cb84ebe1077c44dbeb39d9d3ce09ab, type: 3}
    - {fileID: 21300000, guid: d341b561e7987ab48a165b8cfdb82741, type: 3}
    - {fileID: 21300000, guid: 5d85772460948e34eb5f909bba71da6e, type: 3}
    - {fileID: 21300000, guid: 3cf38ab9cf11de74fba27143b7fb2eb6, type: 3}
    - {fileID: 21300000, guid: 8efe62e71d66758488851c5edecf8f83, type: 3}
    - {fileID: 21300000, guid: c4c55c0368d95fb449e871900b4deeca, type: 3}
    - {fileID: 21300000, guid: 4f62f2d4ecca5844b9089cf85d58dd04, type: 3}
    - {fileID: 21300000, guid: f616fab95300ddb4e900353db936abeb, type: 3}
    - {fileID: 21300000, guid: 7bffd62be7d5ca6408b0493d44ec6232, type: 3}
    - {fileID: 21300000, guid: ae9a9b01a6e44be48ad83bf4eeec799b, type: 3}
    - {fileID: 21300000, guid: b3adf562c83e0b34493e80a4a5666ea1, type: 3}
    - {fileID: 21300000, guid: f36b4fde9c0f5804dafa62ebbcda361a, type: 3}
    - {fileID: 21300000, guid: 5ca37ffc7ce70eb43904f75b0763f924, type: 3}
    - {fileID: 21300000, guid: 20dbff089bcf92d49b27886a197db40a, type: 3}
    - {fileID: 21300000, guid: e2caa930a76d19c49a3fd9b4c61d97dc, type: 3}
    - {fileID: 21300000, guid: 35d788ff62633f0408db31c1f37558ca, type: 3}
    - {fileID: 21300000, guid: 1dc05acca8374fb4183886f80da79ef4, type: 3}
    - {fileID: 21300000, guid: 3c60a7a6bf63b124c97f127b6f9cd9d8, type: 3}
    - {fileID: 21300000, guid: b5600c86388e0a44e9f423a344a609cc, type: 3}
    - {fileID: 21300000, guid: 2c5e9c12df595a644acb3d445bf76241, type: 3}
    - {fileID: 21300000, guid: eda7fb0db64f91e4ba972637c8bd353f, type: 3}
    - {fileID: 21300000, guid: 26763dcb28a64d048bc7deb22ca50f1c, type: 3}
    - {fileID: 21300000, guid: c5876842f197f7d4b8e1a3c8af859cf8, type: 3}
    - {fileID: 21300000, guid: 5ab2d92f1aba44a488075438eba2d5f4, type: 3}
    - {fileID: 21300000, guid: 89af28ced9ea467428f984896af11f25, type: 3}
  m_AnimationClipSettings:
    serializedVersion: 2
    m_AdditiveReferencePoseClip: {fileID: 0}
    m_AdditiveReferencePoseTime: 0
    m_StartTime: 0
    m_StopTime: 3.3666666
    m_OrientationOffsetY: 0
    m_Level: 0
    m_CycleOffset: 0
    m_HasAdditiveReferencePose: 0
    m_LoopTime: 1
    m_LoopBlend: 0
    m_LoopBlendOrientation: 0
    m_LoopBlendPositionY: 0
    m_LoopBlendPositionXZ: 0
    m_KeepOriginalOrientation: 0
    m_KeepOriginalPositionY: 1
    m_KeepOriginalPositionXZ: 0
    m_HeightFromFeet: 0
    m_Mirror: 0
  m_EditorCurves: []
  m_EulerEditorCurves: []
  m_HasGenericRootTransform: 0
  m_HasMotionFloatCurves: 0
  m_Events: []
