%YAML 1.1
%TAG !u! tag:unity3d.com,2011:
--- !u!74 &7400000
AnimationClip:
  m_ObjectHideFlags: 0
  m_CorrespondingSourceObject: {fileID: 0}
  m_PrefabInstance: {fileID: 0}
  m_PrefabAsset: {fileID: 0}
  m_Name: Trash_toilet3
  serializedVersion: 6
  m_Legacy: 0
  m_Compressed: 0
  m_UseHighQualityCurve: 1
  m_RotationCurves: []
  m_CompressedRotationCurves: []
  m_EulerCurves: []
  m_PositionCurves: []
  m_ScaleCurves: []
  m_FloatCurves: []
  m_PPtrCurves:
  - curve:
    - time: 0
      value: {fileID: 21300000, guid: 15176e4422525474b88ab0fd43ff6855, type: 3}
    - time: 0.033333335
      value: {fileID: 21300000, guid: 414f25222b3316d45ba6f3f1e04330bd, type: 3}
    - time: 0.06666667
      value: {fileID: 21300000, guid: 351d17dd4e94e234c966b525b19d691f, type: 3}
    - time: 0.1
      value: {fileID: 21300000, guid: 17d708845aa16dd4d83b8ef8840deaa5, type: 3}
    - time: 0.13333334
      value: {fileID: 21300000, guid: 297db8f7deffb284ca85133705f8bb50, type: 3}
    - time: 0.16666667
      value: {fileID: 21300000, guid: b25828babd2b1c948a367820dfe5d050, type: 3}
    - time: 0.2
      value: {fileID: 21300000, guid: 7fb39dc053b66804a91e1528be7b8224, type: 3}
    - time: 0.23333333
      value: {fileID: 21300000, guid: c67e52f621f767344904c07aa8e8a946, type: 3}
    - time: 0.26666668
      value: {fileID: 21300000, guid: cf05176ca4d7bc647b9e4a037b81815f, type: 3}
    - time: 0.3
      value: {fileID: 21300000, guid: abe8503040626be408e0995281bccbc1, type: 3}
    - time: 0.33333334
      value: {fileID: 21300000, guid: 32d5bb27bbf515241aebcad301cf63d5, type: 3}
    - time: 0.36666667
      value: {fileID: 21300000, guid: 66e6bfc21f692f844a1d9ab8bd8c95f7, type: 3}
    - time: 0.4
      value: {fileID: 21300000, guid: 764ea8a35c9dcc54a9f945b4c80065fc, type: 3}
    - time: 0.43333334
      value: {fileID: 21300000, guid: a7a404112ce140e43a5415125b2dce24, type: 3}
    - time: 0.46666667
      value: {fileID: 21300000, guid: 681d9d25a95bc554d804bf011795f856, type: 3}
    - time: 0.5
      value: {fileID: 21300000, guid: 89eb195d4dfb48043a5cb1338ed43e37, type: 3}
    - time: 0.53333336
      value: {fileID: 21300000, guid: 5a014229de0e8cc4399342a725127910, type: 3}
    - time: 0.56666666
      value: {fileID: 21300000, guid: fb8882d56fc72a540af0fc6539e603cf, type: 3}
    - time: 0.6
      value: {fileID: 21300000, guid: 87e238725934c264cb84d70260fd702c, type: 3}
    - time: 0.6333333
      value: {fileID: 21300000, guid: dc5aab33eb6ca4641919c2bef970e858, type: 3}
    - time: 0.6666667
      value: {fileID: 21300000, guid: 192a468ee31d5d0428b7323bd9f09c8f, type: 3}
    - time: 0.7
      value: {fileID: 21300000, guid: 458dcaf4d3704dc4ab2fb592aea8310f, type: 3}
    - time: 0.73333335
      value: {fileID: 21300000, guid: 91cab787011d03147935bee1a84b1b7f, type: 3}
    - time: 0.76666665
      value: {fileID: 21300000, guid: 141ca8edfd481ab45bd02d3d8325fa23, type: 3}
    - time: 0.8
      value: {fileID: 21300000, guid: 7a6219233687bba4e83d8e86bd9f244c, type: 3}
    - time: 0.8333333
      value: {fileID: 21300000, guid: 502b03a6b360ec14daa052a32190c45d, type: 3}
    - time: 0.8666667
      value: {fileID: 21300000, guid: d0d6bef2288cf9641b4d86d26235ea0b, type: 3}
    - time: 0.9
      value: {fileID: 21300000, guid: 5386df1cad481ac4e8e4c772cc370e76, type: 3}
    - time: 0.93333334
      value: {fileID: 21300000, guid: bdf061bf0cbae1042b5e162b98af90c6, type: 3}
    - time: 0.96666664
      value: {fileID: 21300000, guid: d7eafcb0d4e13974eab9e37fa4b224ad, type: 3}
    - time: 1
      value: {fileID: 21300000, guid: 44c27cace7ac3d4489e28712e14846ad, type: 3}
    - time: 1.0333333
      value: {fileID: 21300000, guid: 8c1e70e7ce3474244a58de2bbfbad5fe, type: 3}
    - time: 1.0666667
      value: {fileID: 21300000, guid: 6bba5f67da79ab340b26f64a02600900, type: 3}
    - time: 1.1
      value: {fileID: 21300000, guid: bbe5e3c102c102d44831817893010c1b, type: 3}
    - time: 1.1333333
      value: {fileID: 21300000, guid: b920225e7b673374fac1172aa1656d9b, type: 3}
    - time: 1.1666666
      value: {fileID: 21300000, guid: 9cd6edca222d08b449c60632ac3f24cd, type: 3}
    - time: 1.2
      value: {fileID: 21300000, guid: 231eac7b14060024185472240524a38a, type: 3}
    - time: 1.2333333
      value: {fileID: 21300000, guid: 0040418c018e8964db669f2444a8f897, type: 3}
    - time: 1.2666667
      value: {fileID: 21300000, guid: 13eaa0ce094173a499f3b3e0d0d59e3e, type: 3}
    - time: 1.3
      value: {fileID: 21300000, guid: ef1b54a8fef01a943a43b4834506491d, type: 3}
    - time: 1.3333334
      value: {fileID: 21300000, guid: f88a42e2feb5c0345b4dc079bb63c253, type: 3}
    - time: 1.3666667
      value: {fileID: 21300000, guid: aaea519ef5013234c8d736d5abd3e728, type: 3}
    - time: 1.4
      value: {fileID: 21300000, guid: d677acab12183b74d95f14c8722467e9, type: 3}
    - time: 1.4333333
      value: {fileID: 21300000, guid: 29ece3b6d561a564ab9bc042defce42b, type: 3}
    - time: 1.4666667
      value: {fileID: 21300000, guid: 6d3582aecac0d1b439d7dc9eb2bc98c3, type: 3}
    - time: 1.5
      value: {fileID: 21300000, guid: e5f5453dc4002fb438debcc0ae2f9ea5, type: 3}
    - time: 1.5333333
      value: {fileID: 21300000, guid: 12a78d848c12e104eba6d8d0da6c8015, type: 3}
    - time: 1.5666667
      value: {fileID: 21300000, guid: f0dbcd9adc47cd6419e0b8c21586d186, type: 3}
    - time: 1.6
      value: {fileID: 21300000, guid: 2a18d2f8c82904449817bf9cf3ab89a5, type: 3}
    - time: 1.6333333
      value: {fileID: 21300000, guid: 98a3ed7a7250d05449b82fb4635a1bed, type: 3}
    - time: 1.6666666
      value: {fileID: 21300000, guid: 59b9a6378049e734a8ad18a96d34a9d9, type: 3}
    - time: 1.7
      value: {fileID: 21300000, guid: 2c0a1f5adce7dd64ca92466ff65ba9e1, type: 3}
    - time: 1.7333333
      value: {fileID: 21300000, guid: 96ab851e7bcd6e34b84eb70d26b890b3, type: 3}
    - time: 1.7666667
      value: {fileID: 21300000, guid: 4394bb4c9750f7d45b1e75d214803033, type: 3}
    - time: 1.8
      value: {fileID: 21300000, guid: 4e893cf48de74c1469d6bcbd8db6ad82, type: 3}
    - time: 1.8333334
      value: {fileID: 21300000, guid: 41f090720e53e934783abcdc19051b70, type: 3}
    - time: 1.8666667
      value: {fileID: 21300000, guid: 6493b411cd1fce54ab51da66bd3d1fd6, type: 3}
    - time: 1.9
      value: {fileID: 21300000, guid: ba086dafa3795834daf1c5619f3c61af, type: 3}
    - time: 1.9333333
      value: {fileID: 21300000, guid: ec6261c53eefdef4588dead85d4cf512, type: 3}
    - time: 1.9666667
      value: {fileID: 21300000, guid: 74bb8beaf5cb1584095f32167b379a99, type: 3}
    - time: 2
      value: {fileID: 21300000, guid: 3347a33f36a57434a9f6e88cbed18953, type: 3}
    - time: 2.0333333
      value: {fileID: 21300000, guid: 346edac863660124098089ae06fb399d, type: 3}
    - time: 2.0666666
      value: {fileID: 21300000, guid: 7b34c3c57f8626f4fbab676d68818e5a, type: 3}
    - time: 2.1
      value: {fileID: 21300000, guid: 5499390347cd4d14fb9ab064c82c24cc, type: 3}
    - time: 2.1333334
      value: {fileID: 21300000, guid: 472e73845f910ce49ae1238a83b55561, type: 3}
    - time: 2.1666667
      value: {fileID: 21300000, guid: c85f6532014b2c249853e1440216a04f, type: 3}
    - time: 2.2
      value: {fileID: 21300000, guid: bedc4e39cf08caf49961cfe841d13015, type: 3}
    - time: 2.2333333
      value: {fileID: 21300000, guid: f7871b91e664b044c8363b25f6066374, type: 3}
    - time: 2.2666667
      value: {fileID: 21300000, guid: 7d08fc1152bcb7044b813a85e6acf6fa, type: 3}
    - time: 2.3
      value: {fileID: 21300000, guid: 5ef843e2624e06245bd28780df4701b4, type: 3}
    - time: 2.3333333
      value: {fileID: 21300000, guid: b36a980960c6ed04cbe24383ba9a0728, type: 3}
    - time: 2.3666666
      value: {fileID: 21300000, guid: 86e44a22e01664a4d8e1a03bf852d1f1, type: 3}
    - time: 2.4
      value: {fileID: 21300000, guid: d1d9b322c326e104bad0d9b183bb3b48, type: 3}
    - time: 2.4333334
      value: {fileID: 21300000, guid: 86b96b875e30e804aa44f698aae7caa3, type: 3}
    - time: 2.4666667
      value: {fileID: 21300000, guid: 1d8fd2af8db89e941a80c81d55a00251, type: 3}
    - time: 2.5
      value: {fileID: 21300000, guid: a9ba72f27fb0af54ba464ec815f3ec21, type: 3}
    - time: 2.5333333
      value: {fileID: 21300000, guid: 30fc51187f43f7a4b93aa5cd90b6dc55, type: 3}
    - time: 2.5666666
      value: {fileID: 21300000, guid: 6c6ddbe86fcf3b14cbcfc186a14d61c6, type: 3}
    - time: 2.6
      value: {fileID: 21300000, guid: 79a4410ceee3d814e89602066c5fed82, type: 3}
    - time: 2.6333334
      value: {fileID: 21300000, guid: ad20c28b763776c4a94c584d1c18b9cc, type: 3}
    - time: 2.6666667
      value: {fileID: 21300000, guid: 7de889c053c5eec42b71b7bfc342f0cc, type: 3}
    - time: 2.7
      value: {fileID: 21300000, guid: 273dd5b12fff11d44834c8a5227e1d5b, type: 3}
    - time: 2.7333333
      value: {fileID: 21300000, guid: 2b3404db82d31e445aadf2724dd4b1cd, type: 3}
    - time: 2.7666667
      value: {fileID: 21300000, guid: 20da975c0bc68ef48bb9eddbbff84c20, type: 3}
    - time: 2.8
      value: {fileID: 21300000, guid: 24d8db28e6da03c479fcf114edbc9db7, type: 3}
    - time: 2.8333333
      value: {fileID: 21300000, guid: 069b1ed49e77b9441b097610430376bc, type: 3}
    - time: 2.8666666
      value: {fileID: 21300000, guid: cebde4801a6bfef4192e0b010dd03740, type: 3}
    - time: 2.9
      value: {fileID: 21300000, guid: 2640781e7a9e36d4983d571d69447733, type: 3}
    - time: 2.9333334
      value: {fileID: 21300000, guid: 4d67d9b2b875558448ed9ee67bf417b4, type: 3}
    - time: 2.9666667
      value: {fileID: 21300000, guid: 273fe9dd71aa1ab4b92143700bc8a9ee, type: 3}
    - time: 3
      value: {fileID: 21300000, guid: 882ed8d75dd19ff45afd09f80a137552, type: 3}
    - time: 3.0333333
      value: {fileID: 21300000, guid: 8d427d9d48da49949b636889f9d7b61d, type: 3}
    - time: 3.0666666
      value: {fileID: 21300000, guid: 93de1242642e41a44b67afb926298ef3, type: 3}
    - time: 3.1
      value: {fileID: 21300000, guid: e72e8d70f170bf1409ec5c4b985f7d22, type: 3}
    - time: 3.1333334
      value: {fileID: 21300000, guid: a7d05dd32525ed04c91e7462e5fac639, type: 3}
    - time: 3.1666667
      value: {fileID: 21300000, guid: 906630ad43f4a704a98fc1f0fa4045cd, type: 3}
    - time: 3.2
      value: {fileID: 21300000, guid: 862fc39d92b01ef43b6fa06eb28a1c55, type: 3}
    - time: 3.2333333
      value: {fileID: 21300000, guid: 7161eaf676fa34f4db01af47bb780bc1, type: 3}
    - time: 3.2666667
      value: {fileID: 21300000, guid: 68419b57f983f6e4eaf8ce8dbf93604c, type: 3}
    - time: 3.3
      value: {fileID: 21300000, guid: 487af971c88f82441959576068c2774b, type: 3}
    - time: 3.3333333
      value: {fileID: 21300000, guid: 34de0b463afd6dd48ac7a648eab017c2, type: 3}
    attribute: m_Sprite
    path: 
    classID: 212
    script: {fileID: 0}
  m_SampleRate: 30
  m_WrapMode: 0
  m_Bounds:
    m_Center: {x: 0, y: 0, z: 0}
    m_Extent: {x: 0, y: 0, z: 0}
  m_ClipBindingConstant:
    genericBindings:
    - serializedVersion: 2
      path: 0
      attribute: 0
      script: {fileID: 0}
      typeID: 212
      customType: 23
      isPPtrCurve: 1
    pptrCurveMapping:
    - {fileID: 21300000, guid: 15176e4422525474b88ab0fd43ff6855, type: 3}
    - {fileID: 21300000, guid: 414f25222b3316d45ba6f3f1e04330bd, type: 3}
    - {fileID: 21300000, guid: 351d17dd4e94e234c966b525b19d691f, type: 3}
    - {fileID: 21300000, guid: 17d708845aa16dd4d83b8ef8840deaa5, type: 3}
    - {fileID: 21300000, guid: 297db8f7deffb284ca85133705f8bb50, type: 3}
    - {fileID: 21300000, guid: b25828babd2b1c948a367820dfe5d050, type: 3}
    - {fileID: 21300000, guid: 7fb39dc053b66804a91e1528be7b8224, type: 3}
    - {fileID: 21300000, guid: c67e52f621f767344904c07aa8e8a946, type: 3}
    - {fileID: 21300000, guid: cf05176ca4d7bc647b9e4a037b81815f, type: 3}
    - {fileID: 21300000, guid: abe8503040626be408e0995281bccbc1, type: 3}
    - {fileID: 21300000, guid: 32d5bb27bbf515241aebcad301cf63d5, type: 3}
    - {fileID: 21300000, guid: 66e6bfc21f692f844a1d9ab8bd8c95f7, type: 3}
    - {fileID: 21300000, guid: 764ea8a35c9dcc54a9f945b4c80065fc, type: 3}
    - {fileID: 21300000, guid: a7a404112ce140e43a5415125b2dce24, type: 3}
    - {fileID: 21300000, guid: 681d9d25a95bc554d804bf011795f856, type: 3}
    - {fileID: 21300000, guid: 89eb195d4dfb48043a5cb1338ed43e37, type: 3}
    - {fileID: 21300000, guid: 5a014229de0e8cc4399342a725127910, type: 3}
    - {fileID: 21300000, guid: fb8882d56fc72a540af0fc6539e603cf, type: 3}
    - {fileID: 21300000, guid: 87e238725934c264cb84d70260fd702c, type: 3}
    - {fileID: 21300000, guid: dc5aab33eb6ca4641919c2bef970e858, type: 3}
    - {fileID: 21300000, guid: 192a468ee31d5d0428b7323bd9f09c8f, type: 3}
    - {fileID: 21300000, guid: 458dcaf4d3704dc4ab2fb592aea8310f, type: 3}
    - {fileID: 21300000, guid: 91cab787011d03147935bee1a84b1b7f, type: 3}
    - {fileID: 21300000, guid: 141ca8edfd481ab45bd02d3d8325fa23, type: 3}
    - {fileID: 21300000, guid: 7a6219233687bba4e83d8e86bd9f244c, type: 3}
    - {fileID: 21300000, guid: 502b03a6b360ec14daa052a32190c45d, type: 3}
    - {fileID: 21300000, guid: d0d6bef2288cf9641b4d86d26235ea0b, type: 3}
    - {fileID: 21300000, guid: 5386df1cad481ac4e8e4c772cc370e76, type: 3}
    - {fileID: 21300000, guid: bdf061bf0cbae1042b5e162b98af90c6, type: 3}
    - {fileID: 21300000, guid: d7eafcb0d4e13974eab9e37fa4b224ad, type: 3}
    - {fileID: 21300000, guid: 44c27cace7ac3d4489e28712e14846ad, type: 3}
    - {fileID: 21300000, guid: 8c1e70e7ce3474244a58de2bbfbad5fe, type: 3}
    - {fileID: 21300000, guid: 6bba5f67da79ab340b26f64a02600900, type: 3}
    - {fileID: 21300000, guid: bbe5e3c102c102d44831817893010c1b, type: 3}
    - {fileID: 21300000, guid: b920225e7b673374fac1172aa1656d9b, type: 3}
    - {fileID: 21300000, guid: 9cd6edca222d08b449c60632ac3f24cd, type: 3}
    - {fileID: 21300000, guid: 231eac7b14060024185472240524a38a, type: 3}
    - {fileID: 21300000, guid: 0040418c018e8964db669f2444a8f897, type: 3}
    - {fileID: 21300000, guid: 13eaa0ce094173a499f3b3e0d0d59e3e, type: 3}
    - {fileID: 21300000, guid: ef1b54a8fef01a943a43b4834506491d, type: 3}
    - {fileID: 21300000, guid: f88a42e2feb5c0345b4dc079bb63c253, type: 3}
    - {fileID: 21300000, guid: aaea519ef5013234c8d736d5abd3e728, type: 3}
    - {fileID: 21300000, guid: d677acab12183b74d95f14c8722467e9, type: 3}
    - {fileID: 21300000, guid: 29ece3b6d561a564ab9bc042defce42b, type: 3}
    - {fileID: 21300000, guid: 6d3582aecac0d1b439d7dc9eb2bc98c3, type: 3}
    - {fileID: 21300000, guid: e5f5453dc4002fb438debcc0ae2f9ea5, type: 3}
    - {fileID: 21300000, guid: 12a78d848c12e104eba6d8d0da6c8015, type: 3}
    - {fileID: 21300000, guid: f0dbcd9adc47cd6419e0b8c21586d186, type: 3}
    - {fileID: 21300000, guid: 2a18d2f8c82904449817bf9cf3ab89a5, type: 3}
    - {fileID: 21300000, guid: 98a3ed7a7250d05449b82fb4635a1bed, type: 3}
    - {fileID: 21300000, guid: 59b9a6378049e734a8ad18a96d34a9d9, type: 3}
    - {fileID: 21300000, guid: 2c0a1f5adce7dd64ca92466ff65ba9e1, type: 3}
    - {fileID: 21300000, guid: 96ab851e7bcd6e34b84eb70d26b890b3, type: 3}
    - {fileID: 21300000, guid: 4394bb4c9750f7d45b1e75d214803033, type: 3}
    - {fileID: 21300000, guid: 4e893cf48de74c1469d6bcbd8db6ad82, type: 3}
    - {fileID: 21300000, guid: 41f090720e53e934783abcdc19051b70, type: 3}
    - {fileID: 21300000, guid: 6493b411cd1fce54ab51da66bd3d1fd6, type: 3}
    - {fileID: 21300000, guid: ba086dafa3795834daf1c5619f3c61af, type: 3}
    - {fileID: 21300000, guid: ec6261c53eefdef4588dead85d4cf512, type: 3}
    - {fileID: 21300000, guid: 74bb8beaf5cb1584095f32167b379a99, type: 3}
    - {fileID: 21300000, guid: 3347a33f36a57434a9f6e88cbed18953, type: 3}
    - {fileID: 21300000, guid: 346edac863660124098089ae06fb399d, type: 3}
    - {fileID: 21300000, guid: 7b34c3c57f8626f4fbab676d68818e5a, type: 3}
    - {fileID: 21300000, guid: 5499390347cd4d14fb9ab064c82c24cc, type: 3}
    - {fileID: 21300000, guid: 472e73845f910ce49ae1238a83b55561, type: 3}
    - {fileID: 21300000, guid: c85f6532014b2c249853e1440216a04f, type: 3}
    - {fileID: 21300000, guid: bedc4e39cf08caf49961cfe841d13015, type: 3}
    - {fileID: 21300000, guid: f7871b91e664b044c8363b25f6066374, type: 3}
    - {fileID: 21300000, guid: 7d08fc1152bcb7044b813a85e6acf6fa, type: 3}
    - {fileID: 21300000, guid: 5ef843e2624e06245bd28780df4701b4, type: 3}
    - {fileID: 21300000, guid: b36a980960c6ed04cbe24383ba9a0728, type: 3}
    - {fileID: 21300000, guid: 86e44a22e01664a4d8e1a03bf852d1f1, type: 3}
    - {fileID: 21300000, guid: d1d9b322c326e104bad0d9b183bb3b48, type: 3}
    - {fileID: 21300000, guid: 86b96b875e30e804aa44f698aae7caa3, type: 3}
    - {fileID: 21300000, guid: 1d8fd2af8db89e941a80c81d55a00251, type: 3}
    - {fileID: 21300000, guid: a9ba72f27fb0af54ba464ec815f3ec21, type: 3}
    - {fileID: 21300000, guid: 30fc51187f43f7a4b93aa5cd90b6dc55, type: 3}
    - {fileID: 21300000, guid: 6c6ddbe86fcf3b14cbcfc186a14d61c6, type: 3}
    - {fileID: 21300000, guid: 79a4410ceee3d814e89602066c5fed82, type: 3}
    - {fileID: 21300000, guid: ad20c28b763776c4a94c584d1c18b9cc, type: 3}
    - {fileID: 21300000, guid: 7de889c053c5eec42b71b7bfc342f0cc, type: 3}
    - {fileID: 21300000, guid: 273dd5b12fff11d44834c8a5227e1d5b, type: 3}
    - {fileID: 21300000, guid: 2b3404db82d31e445aadf2724dd4b1cd, type: 3}
    - {fileID: 21300000, guid: 20da975c0bc68ef48bb9eddbbff84c20, type: 3}
    - {fileID: 21300000, guid: 24d8db28e6da03c479fcf114edbc9db7, type: 3}
    - {fileID: 21300000, guid: 069b1ed49e77b9441b097610430376bc, type: 3}
    - {fileID: 21300000, guid: cebde4801a6bfef4192e0b010dd03740, type: 3}
    - {fileID: 21300000, guid: 2640781e7a9e36d4983d571d69447733, type: 3}
    - {fileID: 21300000, guid: 4d67d9b2b875558448ed9ee67bf417b4, type: 3}
    - {fileID: 21300000, guid: 273fe9dd71aa1ab4b92143700bc8a9ee, type: 3}
    - {fileID: 21300000, guid: 882ed8d75dd19ff45afd09f80a137552, type: 3}
    - {fileID: 21300000, guid: 8d427d9d48da49949b636889f9d7b61d, type: 3}
    - {fileID: 21300000, guid: 93de1242642e41a44b67afb926298ef3, type: 3}
    - {fileID: 21300000, guid: e72e8d70f170bf1409ec5c4b985f7d22, type: 3}
    - {fileID: 21300000, guid: a7d05dd32525ed04c91e7462e5fac639, type: 3}
    - {fileID: 21300000, guid: 906630ad43f4a704a98fc1f0fa4045cd, type: 3}
    - {fileID: 21300000, guid: 862fc39d92b01ef43b6fa06eb28a1c55, type: 3}
    - {fileID: 21300000, guid: 7161eaf676fa34f4db01af47bb780bc1, type: 3}
    - {fileID: 21300000, guid: 68419b57f983f6e4eaf8ce8dbf93604c, type: 3}
    - {fileID: 21300000, guid: 487af971c88f82441959576068c2774b, type: 3}
    - {fileID: 21300000, guid: 34de0b463afd6dd48ac7a648eab017c2, type: 3}
  m_AnimationClipSettings:
    serializedVersion: 2
    m_AdditiveReferencePoseClip: {fileID: 0}
    m_AdditiveReferencePoseTime: 0
    m_StartTime: 0
    m_StopTime: 3.3666666
    m_OrientationOffsetY: 0
    m_Level: 0
    m_CycleOffset: 0
    m_HasAdditiveReferencePose: 0
    m_LoopTime: 1
    m_LoopBlend: 0
    m_LoopBlendOrientation: 0
    m_LoopBlendPositionY: 0
    m_LoopBlendPositionXZ: 0
    m_KeepOriginalOrientation: 0
    m_KeepOriginalPositionY: 1
    m_KeepOriginalPositionXZ: 0
    m_HeightFromFeet: 0
    m_Mirror: 0
  m_EditorCurves: []
  m_EulerEditorCurves: []
  m_HasGenericRootTransform: 0
  m_HasMotionFloatCurves: 0
  m_Events: []
