%YAML 1.1
%TAG !u! tag:unity3d.com,2011:
--- !u!74 &7400000
AnimationClip:
  m_ObjectHideFlags: 0
  m_CorrespondingSourceObject: {fileID: 0}
  m_PrefabInstance: {fileID: 0}
  m_PrefabAsset: {fileID: 0}
  m_Name: Trash_Beer1
  serializedVersion: 6
  m_Legacy: 0
  m_Compressed: 0
  m_UseHighQualityCurve: 1
  m_RotationCurves: []
  m_CompressedRotationCurves: []
  m_EulerCurves: []
  m_PositionCurves: []
  m_ScaleCurves: []
  m_FloatCurves: []
  m_PPtrCurves:
  - curve:
    - time: 0
      value: {fileID: 21300000, guid: baa8445278b836e43a02af6d7133fc30, type: 3}
    - time: 0.033333335
      value: {fileID: 21300000, guid: 33d9b50f0afeb574e9590344000aa43d, type: 3}
    - time: 0.06666667
      value: {fileID: 21300000, guid: baca97676493c2645b1c935c66f54f37, type: 3}
    - time: 0.1
      value: {fileID: 21300000, guid: 2aa87e15a9c3e8349813c036477b19ba, type: 3}
    - time: 0.13333334
      value: {fileID: 21300000, guid: 3b5c5f9897a522d4cae5244f634c9423, type: 3}
    - time: 0.16666667
      value: {fileID: 21300000, guid: 436faad13b6ec844284269b6ed5cb6e9, type: 3}
    - time: 0.2
      value: {fileID: 21300000, guid: 3c161a17c1f066b458c8405f1c4bfd1e, type: 3}
    - time: 0.23333333
      value: {fileID: 21300000, guid: a74798cdb35fc864e9d6f85f2ccf9a58, type: 3}
    - time: 0.26666668
      value: {fileID: 21300000, guid: 78b3727a46e653d42afa9b22c6964694, type: 3}
    - time: 0.3
      value: {fileID: 21300000, guid: e531f6bcbdcfa6d44824210ad7d33c26, type: 3}
    - time: 0.33333334
      value: {fileID: 21300000, guid: eeb011de254ce1d43a4147870e12a4cf, type: 3}
    - time: 0.36666667
      value: {fileID: 21300000, guid: 31d060a9f5667da418408f00ed893862, type: 3}
    - time: 0.4
      value: {fileID: 21300000, guid: a9e881bcd8c4da242930b1cdef522f16, type: 3}
    - time: 0.43333334
      value: {fileID: 21300000, guid: 728db4b2b3fc67d4faad8c2bba253b2e, type: 3}
    - time: 0.46666667
      value: {fileID: 21300000, guid: 92b37a53fcbb4644298c23bac78d240e, type: 3}
    - time: 0.5
      value: {fileID: 21300000, guid: 376ad69a49b354040b41d9cb7bcade58, type: 3}
    - time: 0.53333336
      value: {fileID: 21300000, guid: b8a8cf992ce109d43a66b1e9aa8d6e64, type: 3}
    - time: 0.56666666
      value: {fileID: 21300000, guid: 997602cc81ed3fe44b2c5c4270627c9a, type: 3}
    - time: 0.6
      value: {fileID: 21300000, guid: c2fd680e770ec7347b2443ab4b9e45bf, type: 3}
    - time: 0.6333333
      value: {fileID: 21300000, guid: 874acca017170644c8e5c49cf540a937, type: 3}
    - time: 0.6666667
      value: {fileID: 21300000, guid: 2eac829ed898492459c8b94caf7124cd, type: 3}
    - time: 0.7
      value: {fileID: 21300000, guid: 042cf85e794aca147b70175f447bf35d, type: 3}
    - time: 0.73333335
      value: {fileID: 21300000, guid: 599826a4016b8ac4c9399d3b78784a31, type: 3}
    - time: 0.76666665
      value: {fileID: 21300000, guid: 484cc4eede961be44abf986e04ca2e83, type: 3}
    - time: 0.8
      value: {fileID: 21300000, guid: 1d1c57c2c6d5b78438c4573b86590f9b, type: 3}
    - time: 0.8333333
      value: {fileID: 21300000, guid: 2c30b7aa768adfa4bb7165090c46c716, type: 3}
    - time: 0.8666667
      value: {fileID: 21300000, guid: af32a5d49dc3475459b2b2fca6ee50fe, type: 3}
    - time: 0.9
      value: {fileID: 21300000, guid: 28b736e45f9de314dbb0bf11785d2249, type: 3}
    - time: 0.93333334
      value: {fileID: 21300000, guid: e6ff3df2e8765014e9382e3ad0a26a7f, type: 3}
    - time: 0.96666664
      value: {fileID: 21300000, guid: 650f83aa3bf4e794ea95278cdda21bc9, type: 3}
    - time: 1
      value: {fileID: 21300000, guid: 89b7f6180ded778468bd368ac10829fb, type: 3}
    - time: 1.0333333
      value: {fileID: 21300000, guid: 9b75f82e1ae24be4c811595eaa22ccdb, type: 3}
    - time: 1.0666667
      value: {fileID: 21300000, guid: 96d89b9e896414e43927e44911791fc7, type: 3}
    - time: 1.1
      value: {fileID: 21300000, guid: 39c43d347c3a8de418f01e0aad5dba44, type: 3}
    - time: 1.1333333
      value: {fileID: 21300000, guid: 848afd3b372db5e4cab1c1ad35d55911, type: 3}
    - time: 1.1666666
      value: {fileID: 21300000, guid: 9222a71d5526c84498a92ccdca49bb26, type: 3}
    - time: 1.2
      value: {fileID: 21300000, guid: 430edf029893324449b5363450a2532c, type: 3}
    - time: 1.2333333
      value: {fileID: 21300000, guid: befed77c9bb553b418373b1bdddc5951, type: 3}
    - time: 1.2666667
      value: {fileID: 21300000, guid: a1318b420ef221e459d7dd11168db1b9, type: 3}
    - time: 1.3
      value: {fileID: 21300000, guid: 862f1a9db0ae6d242bdc1e6b13715ff1, type: 3}
    - time: 1.3333334
      value: {fileID: 21300000, guid: ad8675a61d33cd244a1eb675cd8f03ff, type: 3}
    - time: 1.3666667
      value: {fileID: 21300000, guid: 1bd95e9d617c3854b8f58b0b93eae9f9, type: 3}
    - time: 1.4
      value: {fileID: 21300000, guid: 70b8408365f598e4bb2d538f1846b036, type: 3}
    - time: 1.4333333
      value: {fileID: 21300000, guid: 6b9b357dd42959841b25c6478f853e49, type: 3}
    - time: 1.4666667
      value: {fileID: 21300000, guid: d74f7a5ed7244e54e8464b48adcd2429, type: 3}
    - time: 1.5
      value: {fileID: 21300000, guid: 69c0942ea89b90942913170b4633420c, type: 3}
    - time: 1.5333333
      value: {fileID: 21300000, guid: a9596b93069b2754386dfb419939134f, type: 3}
    - time: 1.5666667
      value: {fileID: 21300000, guid: d4b885c10541f4a429c5a51443516f9b, type: 3}
    - time: 1.6
      value: {fileID: 21300000, guid: 38d1ab2a87f073c4c8588385c92e9013, type: 3}
    - time: 1.6333333
      value: {fileID: 21300000, guid: 898f98bf25fbcac48b7c6bf95d544963, type: 3}
    - time: 1.6666666
      value: {fileID: 21300000, guid: 67150fcb0f7aab14eac39f6babd68065, type: 3}
    - time: 1.7
      value: {fileID: 21300000, guid: 2b88b0b4d77b75443877375f58ed1178, type: 3}
    - time: 1.7333333
      value: {fileID: 21300000, guid: 5bd9bff98e90c5b4db22ca630777801c, type: 3}
    - time: 1.7666667
      value: {fileID: 21300000, guid: 673822aecf8eb9f4da9e00a135ceadc1, type: 3}
    - time: 1.8
      value: {fileID: 21300000, guid: 1a0b042d1b46c0844aef3f85a4852b41, type: 3}
    - time: 1.8333334
      value: {fileID: 21300000, guid: c9fdc93e052fa854680a6c89e53be954, type: 3}
    - time: 1.8666667
      value: {fileID: 21300000, guid: 4d3e39e512dc72143a05ae4072ad0883, type: 3}
    - time: 1.9
      value: {fileID: 21300000, guid: f7faaff47f517724c95568dd86cc8ca1, type: 3}
    - time: 1.9333333
      value: {fileID: 21300000, guid: 5a927351e40f47b478e84fb83ae4633a, type: 3}
    - time: 1.9666667
      value: {fileID: 21300000, guid: 3bf1b8332ffb14942a0309d391cfc1b8, type: 3}
    - time: 2
      value: {fileID: 21300000, guid: 439f4278c69cbdb4bb3a843676227429, type: 3}
    - time: 2.0333333
      value: {fileID: 21300000, guid: 6a21a36b98ca1214b936863394c418c9, type: 3}
    - time: 2.0666666
      value: {fileID: 21300000, guid: d483441d96719614a861140066e1e57d, type: 3}
    - time: 2.1
      value: {fileID: 21300000, guid: 3203c517af17c86449466c5828d019f8, type: 3}
    - time: 2.1333334
      value: {fileID: 21300000, guid: 02a1bb833022b2e488c8564b69939912, type: 3}
    - time: 2.1666667
      value: {fileID: 21300000, guid: a4d18e5d264339448a49fc66f80fa174, type: 3}
    - time: 2.2
      value: {fileID: 21300000, guid: 051be23c8ce6fb5439fc12495a899f29, type: 3}
    - time: 2.2333333
      value: {fileID: 21300000, guid: a56572e886daf2d48a8f83d690486be6, type: 3}
    - time: 2.2666667
      value: {fileID: 21300000, guid: b99746e4170b36b41bab8301c2f18c8a, type: 3}
    - time: 2.3
      value: {fileID: 21300000, guid: c129d348543ba524187fac59178997b6, type: 3}
    - time: 2.3333333
      value: {fileID: 21300000, guid: ee58489e5922d974da6d6cc2570c6f7f, type: 3}
    - time: 2.3666666
      value: {fileID: 21300000, guid: 580ed8c7268e7e643bcea9e0245840e4, type: 3}
    - time: 2.4
      value: {fileID: 21300000, guid: 4a706f065de268344a508ed8284b4c12, type: 3}
    - time: 2.4333334
      value: {fileID: 21300000, guid: dcc7c54e928627c4ca3cd0d13ce6a072, type: 3}
    - time: 2.4666667
      value: {fileID: 21300000, guid: 10a92cd1853b9094cb40b48f5e642382, type: 3}
    - time: 2.5
      value: {fileID: 21300000, guid: ab1c8dd06cd2f3241960f3fd89724fdc, type: 3}
    - time: 2.5333333
      value: {fileID: 21300000, guid: 3d96ec45925665e4eb3eb7507632eef2, type: 3}
    - time: 2.5666666
      value: {fileID: 21300000, guid: 5c24c19e1e20f3844b6d8e2fbd53b3dd, type: 3}
    - time: 2.6
      value: {fileID: 21300000, guid: ab275caabd1ef484c8855e92b9b61f4e, type: 3}
    - time: 2.6333334
      value: {fileID: 21300000, guid: 755e3e0712ce8214e9fb879ae513819d, type: 3}
    - time: 2.6666667
      value: {fileID: 21300000, guid: e2c7fc67d5877d840a1052cc376a9e93, type: 3}
    - time: 2.7
      value: {fileID: 21300000, guid: 77b58e737a56c8e41aa6cd1243ddb6b7, type: 3}
    - time: 2.7333333
      value: {fileID: 21300000, guid: f11c4c6bbbb35f54a9ffed1652342538, type: 3}
    - time: 2.7666667
      value: {fileID: 21300000, guid: 6ddea8b43e5445d4b945abd404b5e7b1, type: 3}
    - time: 2.8
      value: {fileID: 21300000, guid: 8101f720b65e6164c9427071e59cbc89, type: 3}
    - time: 2.8333333
      value: {fileID: 21300000, guid: 739d37de1fcd26046b5f9446691524d2, type: 3}
    - time: 2.8666666
      value: {fileID: 21300000, guid: f1abf405ff0c7e347a3328c544719f3b, type: 3}
    - time: 2.9
      value: {fileID: 21300000, guid: ee2814fa2f943c346961ff1e52f5b84f, type: 3}
    - time: 2.9333334
      value: {fileID: 21300000, guid: d829f4e162f37434482b891efe1e7a97, type: 3}
    - time: 2.9666667
      value: {fileID: 21300000, guid: d3c6dc8f23e67244b9dd03ad20e5c40d, type: 3}
    - time: 3
      value: {fileID: 21300000, guid: c0c5b51807f573c4988349321e905d64, type: 3}
    - time: 3.0333333
      value: {fileID: 21300000, guid: cb74993257a4c6448b3654b2c6bf8b88, type: 3}
    - time: 3.0666666
      value: {fileID: 21300000, guid: 0023aa7d5e41eab4caa5d70133a11606, type: 3}
    - time: 3.1
      value: {fileID: 21300000, guid: 4abc85cbd802cae44b62464388333694, type: 3}
    - time: 3.1333334
      value: {fileID: 21300000, guid: 62220c66acd08a440bdc7f17ff7a9f4f, type: 3}
    - time: 3.1666667
      value: {fileID: 21300000, guid: dcb939c5b5abd3a4aba9cfe36200d7b9, type: 3}
    - time: 3.2
      value: {fileID: 21300000, guid: de11b8578b1a1ae47a37c03a52f4643c, type: 3}
    - time: 3.2333333
      value: {fileID: 21300000, guid: a1fff291e6147c9449499d9a1afe689b, type: 3}
    - time: 3.2666667
      value: {fileID: 21300000, guid: 7316580393ea49e45a4f61b35841a5a8, type: 3}
    - time: 3.3
      value: {fileID: 21300000, guid: 61d3e4dd7fbfb154dbe43782ff9fe39b, type: 3}
    - time: 3.3333333
      value: {fileID: 21300000, guid: 6b3dadb7fea328a458fbb08011a29b0b, type: 3}
    attribute: m_Sprite
    path: 
    classID: 212
    script: {fileID: 0}
  m_SampleRate: 30
  m_WrapMode: 0
  m_Bounds:
    m_Center: {x: 0, y: 0, z: 0}
    m_Extent: {x: 0, y: 0, z: 0}
  m_ClipBindingConstant:
    genericBindings:
    - serializedVersion: 2
      path: 0
      attribute: 0
      script: {fileID: 0}
      typeID: 212
      customType: 23
      isPPtrCurve: 1
    pptrCurveMapping:
    - {fileID: 21300000, guid: baa8445278b836e43a02af6d7133fc30, type: 3}
    - {fileID: 21300000, guid: 33d9b50f0afeb574e9590344000aa43d, type: 3}
    - {fileID: 21300000, guid: baca97676493c2645b1c935c66f54f37, type: 3}
    - {fileID: 21300000, guid: 2aa87e15a9c3e8349813c036477b19ba, type: 3}
    - {fileID: 21300000, guid: 3b5c5f9897a522d4cae5244f634c9423, type: 3}
    - {fileID: 21300000, guid: 436faad13b6ec844284269b6ed5cb6e9, type: 3}
    - {fileID: 21300000, guid: 3c161a17c1f066b458c8405f1c4bfd1e, type: 3}
    - {fileID: 21300000, guid: a74798cdb35fc864e9d6f85f2ccf9a58, type: 3}
    - {fileID: 21300000, guid: 78b3727a46e653d42afa9b22c6964694, type: 3}
    - {fileID: 21300000, guid: e531f6bcbdcfa6d44824210ad7d33c26, type: 3}
    - {fileID: 21300000, guid: eeb011de254ce1d43a4147870e12a4cf, type: 3}
    - {fileID: 21300000, guid: 31d060a9f5667da418408f00ed893862, type: 3}
    - {fileID: 21300000, guid: a9e881bcd8c4da242930b1cdef522f16, type: 3}
    - {fileID: 21300000, guid: 728db4b2b3fc67d4faad8c2bba253b2e, type: 3}
    - {fileID: 21300000, guid: 92b37a53fcbb4644298c23bac78d240e, type: 3}
    - {fileID: 21300000, guid: 376ad69a49b354040b41d9cb7bcade58, type: 3}
    - {fileID: 21300000, guid: b8a8cf992ce109d43a66b1e9aa8d6e64, type: 3}
    - {fileID: 21300000, guid: 997602cc81ed3fe44b2c5c4270627c9a, type: 3}
    - {fileID: 21300000, guid: c2fd680e770ec7347b2443ab4b9e45bf, type: 3}
    - {fileID: 21300000, guid: 874acca017170644c8e5c49cf540a937, type: 3}
    - {fileID: 21300000, guid: 2eac829ed898492459c8b94caf7124cd, type: 3}
    - {fileID: 21300000, guid: 042cf85e794aca147b70175f447bf35d, type: 3}
    - {fileID: 21300000, guid: 599826a4016b8ac4c9399d3b78784a31, type: 3}
    - {fileID: 21300000, guid: 484cc4eede961be44abf986e04ca2e83, type: 3}
    - {fileID: 21300000, guid: 1d1c57c2c6d5b78438c4573b86590f9b, type: 3}
    - {fileID: 21300000, guid: 2c30b7aa768adfa4bb7165090c46c716, type: 3}
    - {fileID: 21300000, guid: af32a5d49dc3475459b2b2fca6ee50fe, type: 3}
    - {fileID: 21300000, guid: 28b736e45f9de314dbb0bf11785d2249, type: 3}
    - {fileID: 21300000, guid: e6ff3df2e8765014e9382e3ad0a26a7f, type: 3}
    - {fileID: 21300000, guid: 650f83aa3bf4e794ea95278cdda21bc9, type: 3}
    - {fileID: 21300000, guid: 89b7f6180ded778468bd368ac10829fb, type: 3}
    - {fileID: 21300000, guid: 9b75f82e1ae24be4c811595eaa22ccdb, type: 3}
    - {fileID: 21300000, guid: 96d89b9e896414e43927e44911791fc7, type: 3}
    - {fileID: 21300000, guid: 39c43d347c3a8de418f01e0aad5dba44, type: 3}
    - {fileID: 21300000, guid: 848afd3b372db5e4cab1c1ad35d55911, type: 3}
    - {fileID: 21300000, guid: 9222a71d5526c84498a92ccdca49bb26, type: 3}
    - {fileID: 21300000, guid: 430edf029893324449b5363450a2532c, type: 3}
    - {fileID: 21300000, guid: befed77c9bb553b418373b1bdddc5951, type: 3}
    - {fileID: 21300000, guid: a1318b420ef221e459d7dd11168db1b9, type: 3}
    - {fileID: 21300000, guid: 862f1a9db0ae6d242bdc1e6b13715ff1, type: 3}
    - {fileID: 21300000, guid: ad8675a61d33cd244a1eb675cd8f03ff, type: 3}
    - {fileID: 21300000, guid: 1bd95e9d617c3854b8f58b0b93eae9f9, type: 3}
    - {fileID: 21300000, guid: 70b8408365f598e4bb2d538f1846b036, type: 3}
    - {fileID: 21300000, guid: 6b9b357dd42959841b25c6478f853e49, type: 3}
    - {fileID: 21300000, guid: d74f7a5ed7244e54e8464b48adcd2429, type: 3}
    - {fileID: 21300000, guid: 69c0942ea89b90942913170b4633420c, type: 3}
    - {fileID: 21300000, guid: a9596b93069b2754386dfb419939134f, type: 3}
    - {fileID: 21300000, guid: d4b885c10541f4a429c5a51443516f9b, type: 3}
    - {fileID: 21300000, guid: 38d1ab2a87f073c4c8588385c92e9013, type: 3}
    - {fileID: 21300000, guid: 898f98bf25fbcac48b7c6bf95d544963, type: 3}
    - {fileID: 21300000, guid: 67150fcb0f7aab14eac39f6babd68065, type: 3}
    - {fileID: 21300000, guid: 2b88b0b4d77b75443877375f58ed1178, type: 3}
    - {fileID: 21300000, guid: 5bd9bff98e90c5b4db22ca630777801c, type: 3}
    - {fileID: 21300000, guid: 673822aecf8eb9f4da9e00a135ceadc1, type: 3}
    - {fileID: 21300000, guid: 1a0b042d1b46c0844aef3f85a4852b41, type: 3}
    - {fileID: 21300000, guid: c9fdc93e052fa854680a6c89e53be954, type: 3}
    - {fileID: 21300000, guid: 4d3e39e512dc72143a05ae4072ad0883, type: 3}
    - {fileID: 21300000, guid: f7faaff47f517724c95568dd86cc8ca1, type: 3}
    - {fileID: 21300000, guid: 5a927351e40f47b478e84fb83ae4633a, type: 3}
    - {fileID: 21300000, guid: 3bf1b8332ffb14942a0309d391cfc1b8, type: 3}
    - {fileID: 21300000, guid: 439f4278c69cbdb4bb3a843676227429, type: 3}
    - {fileID: 21300000, guid: 6a21a36b98ca1214b936863394c418c9, type: 3}
    - {fileID: 21300000, guid: d483441d96719614a861140066e1e57d, type: 3}
    - {fileID: 21300000, guid: 3203c517af17c86449466c5828d019f8, type: 3}
    - {fileID: 21300000, guid: 02a1bb833022b2e488c8564b69939912, type: 3}
    - {fileID: 21300000, guid: a4d18e5d264339448a49fc66f80fa174, type: 3}
    - {fileID: 21300000, guid: 051be23c8ce6fb5439fc12495a899f29, type: 3}
    - {fileID: 21300000, guid: a56572e886daf2d48a8f83d690486be6, type: 3}
    - {fileID: 21300000, guid: b99746e4170b36b41bab8301c2f18c8a, type: 3}
    - {fileID: 21300000, guid: c129d348543ba524187fac59178997b6, type: 3}
    - {fileID: 21300000, guid: ee58489e5922d974da6d6cc2570c6f7f, type: 3}
    - {fileID: 21300000, guid: 580ed8c7268e7e643bcea9e0245840e4, type: 3}
    - {fileID: 21300000, guid: 4a706f065de268344a508ed8284b4c12, type: 3}
    - {fileID: 21300000, guid: dcc7c54e928627c4ca3cd0d13ce6a072, type: 3}
    - {fileID: 21300000, guid: 10a92cd1853b9094cb40b48f5e642382, type: 3}
    - {fileID: 21300000, guid: ab1c8dd06cd2f3241960f3fd89724fdc, type: 3}
    - {fileID: 21300000, guid: 3d96ec45925665e4eb3eb7507632eef2, type: 3}
    - {fileID: 21300000, guid: 5c24c19e1e20f3844b6d8e2fbd53b3dd, type: 3}
    - {fileID: 21300000, guid: ab275caabd1ef484c8855e92b9b61f4e, type: 3}
    - {fileID: 21300000, guid: 755e3e0712ce8214e9fb879ae513819d, type: 3}
    - {fileID: 21300000, guid: e2c7fc67d5877d840a1052cc376a9e93, type: 3}
    - {fileID: 21300000, guid: 77b58e737a56c8e41aa6cd1243ddb6b7, type: 3}
    - {fileID: 21300000, guid: f11c4c6bbbb35f54a9ffed1652342538, type: 3}
    - {fileID: 21300000, guid: 6ddea8b43e5445d4b945abd404b5e7b1, type: 3}
    - {fileID: 21300000, guid: 8101f720b65e6164c9427071e59cbc89, type: 3}
    - {fileID: 21300000, guid: 739d37de1fcd26046b5f9446691524d2, type: 3}
    - {fileID: 21300000, guid: f1abf405ff0c7e347a3328c544719f3b, type: 3}
    - {fileID: 21300000, guid: ee2814fa2f943c346961ff1e52f5b84f, type: 3}
    - {fileID: 21300000, guid: d829f4e162f37434482b891efe1e7a97, type: 3}
    - {fileID: 21300000, guid: d3c6dc8f23e67244b9dd03ad20e5c40d, type: 3}
    - {fileID: 21300000, guid: c0c5b51807f573c4988349321e905d64, type: 3}
    - {fileID: 21300000, guid: cb74993257a4c6448b3654b2c6bf8b88, type: 3}
    - {fileID: 21300000, guid: 0023aa7d5e41eab4caa5d70133a11606, type: 3}
    - {fileID: 21300000, guid: 4abc85cbd802cae44b62464388333694, type: 3}
    - {fileID: 21300000, guid: 62220c66acd08a440bdc7f17ff7a9f4f, type: 3}
    - {fileID: 21300000, guid: dcb939c5b5abd3a4aba9cfe36200d7b9, type: 3}
    - {fileID: 21300000, guid: de11b8578b1a1ae47a37c03a52f4643c, type: 3}
    - {fileID: 21300000, guid: a1fff291e6147c9449499d9a1afe689b, type: 3}
    - {fileID: 21300000, guid: 7316580393ea49e45a4f61b35841a5a8, type: 3}
    - {fileID: 21300000, guid: 61d3e4dd7fbfb154dbe43782ff9fe39b, type: 3}
    - {fileID: 21300000, guid: 6b3dadb7fea328a458fbb08011a29b0b, type: 3}
  m_AnimationClipSettings:
    serializedVersion: 2
    m_AdditiveReferencePoseClip: {fileID: 0}
    m_AdditiveReferencePoseTime: 0
    m_StartTime: 0
    m_StopTime: 3.3666666
    m_OrientationOffsetY: 0
    m_Level: 0
    m_CycleOffset: 0
    m_HasAdditiveReferencePose: 0
    m_LoopTime: 1
    m_LoopBlend: 0
    m_LoopBlendOrientation: 0
    m_LoopBlendPositionY: 0
    m_LoopBlendPositionXZ: 0
    m_KeepOriginalOrientation: 0
    m_KeepOriginalPositionY: 1
    m_KeepOriginalPositionXZ: 0
    m_HeightFromFeet: 0
    m_Mirror: 0
  m_EditorCurves: []
  m_EulerEditorCurves: []
  m_HasGenericRootTransform: 0
  m_HasMotionFloatCurves: 0
  m_Events: []
