%YAML 1.1
%TAG !u! tag:unity3d.com,2011:
--- !u!74 &7400000
AnimationClip:
  m_ObjectHideFlags: 0
  m_CorrespondingSourceObject: {fileID: 0}
  m_PrefabInstance: {fileID: 0}
  m_PrefabAsset: {fileID: 0}
  m_Name: Trash_straw10
  serializedVersion: 6
  m_Legacy: 0
  m_Compressed: 0
  m_UseHighQualityCurve: 1
  m_RotationCurves: []
  m_CompressedRotationCurves: []
  m_EulerCurves: []
  m_PositionCurves: []
  m_ScaleCurves: []
  m_FloatCurves: []
  m_PPtrCurves:
  - curve:
    - time: 0
      value: {fileID: 21300000, guid: 7ff70d377129e8a46b8f14321f0db88a, type: 3}
    - time: 0.033333335
      value: {fileID: 21300000, guid: f859a89607800ff4a88c964aa069f528, type: 3}
    - time: 0.06666667
      value: {fileID: 21300000, guid: 34d6ee43665c1fa47ae125eb8407846f, type: 3}
    - time: 0.1
      value: {fileID: 21300000, guid: 8da910fce90f6d44e8d83a98621e88ad, type: 3}
    - time: 0.13333334
      value: {fileID: 21300000, guid: fe2c75d8d659683439a8ca2815d18c66, type: 3}
    - time: 0.16666667
      value: {fileID: 21300000, guid: 9bd3093368e92774f881aedc0b477467, type: 3}
    - time: 0.2
      value: {fileID: 21300000, guid: 1fa7a80d5b2e3014db12596a51796bf3, type: 3}
    - time: 0.23333333
      value: {fileID: 21300000, guid: 5aba0cca3e3d65842ab648bc02d5c6d9, type: 3}
    - time: 0.26666668
      value: {fileID: 21300000, guid: 0342dfca4019ad94ca92cbf8f083379d, type: 3}
    - time: 0.3
      value: {fileID: 21300000, guid: 18ba99c5f753f07489294b17f68436e9, type: 3}
    - time: 0.33333334
      value: {fileID: 21300000, guid: 37c04e856fea81947817e0683d28f881, type: 3}
    - time: 0.36666667
      value: {fileID: 21300000, guid: 15e4b837f0e0e0245aab2915e7afe692, type: 3}
    - time: 0.4
      value: {fileID: 21300000, guid: a61dbe99fd3825c4f90a65d0878ea88d, type: 3}
    - time: 0.43333334
      value: {fileID: 21300000, guid: ab1049199fa5d184a8ebb3712db84dd4, type: 3}
    - time: 0.46666667
      value: {fileID: 21300000, guid: 9b4746cf4649d214f86882fcb47596aa, type: 3}
    - time: 0.5
      value: {fileID: 21300000, guid: d9223bf8bef40d741bede1a52f217d82, type: 3}
    - time: 0.53333336
      value: {fileID: 21300000, guid: ea932adfc8c72534aaf48a338c94a927, type: 3}
    - time: 0.56666666
      value: {fileID: 21300000, guid: 770a39b1b264ff84fab923bfa7c731b1, type: 3}
    - time: 0.6
      value: {fileID: 21300000, guid: d14898b02c4611f4fa51aa2c2504c737, type: 3}
    - time: 0.6333333
      value: {fileID: 21300000, guid: 17ee5d0de99badd49a338130751b3d97, type: 3}
    - time: 0.6666667
      value: {fileID: 21300000, guid: d64ceed042e8f53498cba4dcabadb445, type: 3}
    - time: 0.7
      value: {fileID: 21300000, guid: 02525863f04db384aa8d161778f2933a, type: 3}
    - time: 0.73333335
      value: {fileID: 21300000, guid: 3719b5f421f4c8048b0e44d527fc5dea, type: 3}
    - time: 0.76666665
      value: {fileID: 21300000, guid: 037cf2d529d974147aa86a1fb297c407, type: 3}
    - time: 0.8
      value: {fileID: 21300000, guid: b5942e76ae631d54aba61f02cac782dc, type: 3}
    - time: 0.8333333
      value: {fileID: 21300000, guid: 8cb052bc5c9150544ad251b831896f2d, type: 3}
    - time: 0.8666667
      value: {fileID: 21300000, guid: 6f93bad17f6847844ad35395c0a751eb, type: 3}
    - time: 0.9
      value: {fileID: 21300000, guid: b2644822437be854793c1a0190a46847, type: 3}
    - time: 0.93333334
      value: {fileID: 21300000, guid: ecfe8f147d1becf48b7ed2af302c8027, type: 3}
    - time: 0.96666664
      value: {fileID: 21300000, guid: 13b8ba180a41e5747993edf2a1dcc629, type: 3}
    - time: 1
      value: {fileID: 21300000, guid: 30acaa7d04cb03641aae66cbf545ec98, type: 3}
    - time: 1.0333333
      value: {fileID: 21300000, guid: 5d25d10002ea0c442a9db17df6e2e283, type: 3}
    - time: 1.0666667
      value: {fileID: 21300000, guid: 2ea963e861e93ae4fb7b0b4b230b7d0f, type: 3}
    - time: 1.1
      value: {fileID: 21300000, guid: 7a9068906051ff14f949a6ab0e1b8b34, type: 3}
    - time: 1.1333333
      value: {fileID: 21300000, guid: 1f1341608d821a54b9353f8ceff383c0, type: 3}
    - time: 1.1666666
      value: {fileID: 21300000, guid: fbc759ffede54f244a85521f4320ccd8, type: 3}
    - time: 1.2
      value: {fileID: 21300000, guid: 955fdf9561dd6204f92f5afb702198e5, type: 3}
    - time: 1.2333333
      value: {fileID: 21300000, guid: 22b146698fa07454eaa52ac00a1440bd, type: 3}
    - time: 1.2666667
      value: {fileID: 21300000, guid: c38284a0866b262489aeadb7440ffbff, type: 3}
    - time: 1.3
      value: {fileID: 21300000, guid: 0c9d819ca71de4445b50d711e446728e, type: 3}
    - time: 1.3333334
      value: {fileID: 21300000, guid: 160dfe1a23769f34b9913f3314e2081f, type: 3}
    - time: 1.3666667
      value: {fileID: 21300000, guid: fd02d303cbadff94aae3af9b605c60c5, type: 3}
    - time: 1.4
      value: {fileID: 21300000, guid: 003184949fb757545a26e311a7d06fb3, type: 3}
    - time: 1.4333333
      value: {fileID: 21300000, guid: 1120a5657bda3bb43861c7b7b54d2be6, type: 3}
    - time: 1.4666667
      value: {fileID: 21300000, guid: b03c255d24969c7448471aed4881767f, type: 3}
    - time: 1.5
      value: {fileID: 21300000, guid: 272708dce656ff949915c0e0bee46634, type: 3}
    - time: 1.5333333
      value: {fileID: 21300000, guid: b810572717ad4c549ab4d64eb2e0199b, type: 3}
    - time: 1.5666667
      value: {fileID: 21300000, guid: bfba3cd462b384e44a2c4c3afe048340, type: 3}
    - time: 1.6
      value: {fileID: 21300000, guid: b58fdba46033bad46b890efda8c6baa6, type: 3}
    - time: 1.6333333
      value: {fileID: 21300000, guid: fa0cca02eadde124a9957f57362a4c60, type: 3}
    - time: 1.6666666
      value: {fileID: 21300000, guid: a8f5cd2e6dc02a140898784588e390b7, type: 3}
    - time: 1.7
      value: {fileID: 21300000, guid: 1c2b821e596f2b145943f3a3f34720f4, type: 3}
    - time: 1.7333333
      value: {fileID: 21300000, guid: 42fea12685242b4458688acb892251ab, type: 3}
    - time: 1.7666667
      value: {fileID: 21300000, guid: 0a67ba218bffe4b47888b1a6d70ee2e3, type: 3}
    - time: 1.8
      value: {fileID: 21300000, guid: 994b1fe0f5802f94196af76103e507d2, type: 3}
    - time: 1.8333334
      value: {fileID: 21300000, guid: 17cffdba809e37b42b4b0d4fafeedc89, type: 3}
    - time: 1.8666667
      value: {fileID: 21300000, guid: 3baf4583dacea8346a504b5c2733ce7b, type: 3}
    - time: 1.9
      value: {fileID: 21300000, guid: 3bf25984d8d2559458f596b31fa51938, type: 3}
    - time: 1.9333333
      value: {fileID: 21300000, guid: e7b49bc89ba367d44943b126894a8f54, type: 3}
    - time: 1.9666667
      value: {fileID: 21300000, guid: 00e193a24e56ad442b8641eadc53e1ed, type: 3}
    - time: 2
      value: {fileID: 21300000, guid: beb14f2864e59e244a44bcb5eb7690f6, type: 3}
    - time: 2.0333333
      value: {fileID: 21300000, guid: 1709aa06f0eea8b428c68ce6f6170092, type: 3}
    - time: 2.0666666
      value: {fileID: 21300000, guid: ca3f8f54a52a3c0409acd5f8e6289705, type: 3}
    - time: 2.1
      value: {fileID: 21300000, guid: a83044ba81f66a147b021ce071b23645, type: 3}
    - time: 2.1333334
      value: {fileID: 21300000, guid: 2f39e663f0977014e9b05fe873258014, type: 3}
    - time: 2.1666667
      value: {fileID: 21300000, guid: c7dd503d28b445344bf3afd1c77e77e4, type: 3}
    - time: 2.2
      value: {fileID: 21300000, guid: 65b75758be32eb74db71283402f76237, type: 3}
    - time: 2.2333333
      value: {fileID: 21300000, guid: 363b7a15a991d1942b83fbe4b4e3a67c, type: 3}
    - time: 2.2666667
      value: {fileID: 21300000, guid: 9b259cd3b2438c449bf2487c9d41025a, type: 3}
    - time: 2.3
      value: {fileID: 21300000, guid: ce1d40c9963348c48be5726c4c24de70, type: 3}
    - time: 2.3333333
      value: {fileID: 21300000, guid: cb74c6f9f1cba564e94be419de47883f, type: 3}
    - time: 2.3666666
      value: {fileID: 21300000, guid: db32a6140955aaa46902e3a958de2815, type: 3}
    - time: 2.4
      value: {fileID: 21300000, guid: 70874e7be1621aa46a3e3388b82e9131, type: 3}
    - time: 2.4333334
      value: {fileID: 21300000, guid: 22653c4d165b99645a7e796c080fd9da, type: 3}
    - time: 2.4666667
      value: {fileID: 21300000, guid: 24fd43df2c8b2c844946583274ef0fa6, type: 3}
    - time: 2.5
      value: {fileID: 21300000, guid: 3b4e839dc468bb74dba46f7492c79aaa, type: 3}
    - time: 2.5333333
      value: {fileID: 21300000, guid: bf8c02bc19f513d4da3cf4b70393d088, type: 3}
    - time: 2.5666666
      value: {fileID: 21300000, guid: d523ad67ceeca4b449a021f8ad9135e4, type: 3}
    - time: 2.6
      value: {fileID: 21300000, guid: f7b59d1aecb191a41b5f7dfc146e18e7, type: 3}
    - time: 2.6333334
      value: {fileID: 21300000, guid: 7cbbd2c1fa492c74b9df2471f978af1b, type: 3}
    - time: 2.6666667
      value: {fileID: 21300000, guid: 4c5095b4c82223a499cbf49f5c5d6e17, type: 3}
    - time: 2.7
      value: {fileID: 21300000, guid: 6c9f7d24928b6df49a93e98b1be4d1db, type: 3}
    - time: 2.7333333
      value: {fileID: 21300000, guid: 9c3683c834fc2e2438fb531c3662b637, type: 3}
    - time: 2.7666667
      value: {fileID: 21300000, guid: 3396c468c908deb4983cbcd6e756d4c2, type: 3}
    - time: 2.8
      value: {fileID: 21300000, guid: 5ab5700ba1e978c4097be500ae026b5b, type: 3}
    - time: 2.8333333
      value: {fileID: 21300000, guid: 88b5f0f3037d59c4d8e532bf9db2e1a7, type: 3}
    - time: 2.8666666
      value: {fileID: 21300000, guid: 0dacb31c24527774b933a50c6bd95158, type: 3}
    - time: 2.9
      value: {fileID: 21300000, guid: 754b1abaa22135642ba059899fe80192, type: 3}
    - time: 2.9333334
      value: {fileID: 21300000, guid: 57fb4cf63da86224d9cc70913aa5045d, type: 3}
    - time: 2.9666667
      value: {fileID: 21300000, guid: 532ecd16c4ed373448e635519799be8e, type: 3}
    - time: 3
      value: {fileID: 21300000, guid: 5febf8f4f8e57da48a0e7e6a51f68141, type: 3}
    - time: 3.0333333
      value: {fileID: 21300000, guid: 8b902a0f13ca83647884cc42e4d005f6, type: 3}
    - time: 3.0666666
      value: {fileID: 21300000, guid: cfe1afa689475f54f99172365f806699, type: 3}
    - time: 3.1
      value: {fileID: 21300000, guid: 8732f17d150ba924dbcdc9230614ca4b, type: 3}
    - time: 3.1333334
      value: {fileID: 21300000, guid: d584068a850c36444a731c89b33c350a, type: 3}
    - time: 3.1666667
      value: {fileID: 21300000, guid: f48420af9d57b78409f4f531fe1df5d3, type: 3}
    - time: 3.2
      value: {fileID: 21300000, guid: 7f76aed3bfbe14f4886f0366fa7842d8, type: 3}
    - time: 3.2333333
      value: {fileID: 21300000, guid: f2b7dfabebbac6048b7ef6bb474de886, type: 3}
    - time: 3.2666667
      value: {fileID: 21300000, guid: 199df04a1ff8ed74780742b12b5bd9ef, type: 3}
    - time: 3.3
      value: {fileID: 21300000, guid: b663d3b98b063d543bb1639e4f8cce7d, type: 3}
    - time: 3.3333333
      value: {fileID: 21300000, guid: 640676f65ff6e9044b77c017ff8630ee, type: 3}
    attribute: m_Sprite
    path: 
    classID: 212
    script: {fileID: 0}
  m_SampleRate: 30
  m_WrapMode: 0
  m_Bounds:
    m_Center: {x: 0, y: 0, z: 0}
    m_Extent: {x: 0, y: 0, z: 0}
  m_ClipBindingConstant:
    genericBindings:
    - serializedVersion: 2
      path: 0
      attribute: 0
      script: {fileID: 0}
      typeID: 212
      customType: 23
      isPPtrCurve: 1
    pptrCurveMapping:
    - {fileID: 21300000, guid: 7ff70d377129e8a46b8f14321f0db88a, type: 3}
    - {fileID: 21300000, guid: f859a89607800ff4a88c964aa069f528, type: 3}
    - {fileID: 21300000, guid: 34d6ee43665c1fa47ae125eb8407846f, type: 3}
    - {fileID: 21300000, guid: 8da910fce90f6d44e8d83a98621e88ad, type: 3}
    - {fileID: 21300000, guid: fe2c75d8d659683439a8ca2815d18c66, type: 3}
    - {fileID: 21300000, guid: 9bd3093368e92774f881aedc0b477467, type: 3}
    - {fileID: 21300000, guid: 1fa7a80d5b2e3014db12596a51796bf3, type: 3}
    - {fileID: 21300000, guid: 5aba0cca3e3d65842ab648bc02d5c6d9, type: 3}
    - {fileID: 21300000, guid: 0342dfca4019ad94ca92cbf8f083379d, type: 3}
    - {fileID: 21300000, guid: 18ba99c5f753f07489294b17f68436e9, type: 3}
    - {fileID: 21300000, guid: 37c04e856fea81947817e0683d28f881, type: 3}
    - {fileID: 21300000, guid: 15e4b837f0e0e0245aab2915e7afe692, type: 3}
    - {fileID: 21300000, guid: a61dbe99fd3825c4f90a65d0878ea88d, type: 3}
    - {fileID: 21300000, guid: ab1049199fa5d184a8ebb3712db84dd4, type: 3}
    - {fileID: 21300000, guid: 9b4746cf4649d214f86882fcb47596aa, type: 3}
    - {fileID: 21300000, guid: d9223bf8bef40d741bede1a52f217d82, type: 3}
    - {fileID: 21300000, guid: ea932adfc8c72534aaf48a338c94a927, type: 3}
    - {fileID: 21300000, guid: 770a39b1b264ff84fab923bfa7c731b1, type: 3}
    - {fileID: 21300000, guid: d14898b02c4611f4fa51aa2c2504c737, type: 3}
    - {fileID: 21300000, guid: 17ee5d0de99badd49a338130751b3d97, type: 3}
    - {fileID: 21300000, guid: d64ceed042e8f53498cba4dcabadb445, type: 3}
    - {fileID: 21300000, guid: 02525863f04db384aa8d161778f2933a, type: 3}
    - {fileID: 21300000, guid: 3719b5f421f4c8048b0e44d527fc5dea, type: 3}
    - {fileID: 21300000, guid: 037cf2d529d974147aa86a1fb297c407, type: 3}
    - {fileID: 21300000, guid: b5942e76ae631d54aba61f02cac782dc, type: 3}
    - {fileID: 21300000, guid: 8cb052bc5c9150544ad251b831896f2d, type: 3}
    - {fileID: 21300000, guid: 6f93bad17f6847844ad35395c0a751eb, type: 3}
    - {fileID: 21300000, guid: b2644822437be854793c1a0190a46847, type: 3}
    - {fileID: 21300000, guid: ecfe8f147d1becf48b7ed2af302c8027, type: 3}
    - {fileID: 21300000, guid: 13b8ba180a41e5747993edf2a1dcc629, type: 3}
    - {fileID: 21300000, guid: 30acaa7d04cb03641aae66cbf545ec98, type: 3}
    - {fileID: 21300000, guid: 5d25d10002ea0c442a9db17df6e2e283, type: 3}
    - {fileID: 21300000, guid: 2ea963e861e93ae4fb7b0b4b230b7d0f, type: 3}
    - {fileID: 21300000, guid: 7a9068906051ff14f949a6ab0e1b8b34, type: 3}
    - {fileID: 21300000, guid: 1f1341608d821a54b9353f8ceff383c0, type: 3}
    - {fileID: 21300000, guid: fbc759ffede54f244a85521f4320ccd8, type: 3}
    - {fileID: 21300000, guid: 955fdf9561dd6204f92f5afb702198e5, type: 3}
    - {fileID: 21300000, guid: 22b146698fa07454eaa52ac00a1440bd, type: 3}
    - {fileID: 21300000, guid: c38284a0866b262489aeadb7440ffbff, type: 3}
    - {fileID: 21300000, guid: 0c9d819ca71de4445b50d711e446728e, type: 3}
    - {fileID: 21300000, guid: 160dfe1a23769f34b9913f3314e2081f, type: 3}
    - {fileID: 21300000, guid: fd02d303cbadff94aae3af9b605c60c5, type: 3}
    - {fileID: 21300000, guid: 003184949fb757545a26e311a7d06fb3, type: 3}
    - {fileID: 21300000, guid: 1120a5657bda3bb43861c7b7b54d2be6, type: 3}
    - {fileID: 21300000, guid: b03c255d24969c7448471aed4881767f, type: 3}
    - {fileID: 21300000, guid: 272708dce656ff949915c0e0bee46634, type: 3}
    - {fileID: 21300000, guid: b810572717ad4c549ab4d64eb2e0199b, type: 3}
    - {fileID: 21300000, guid: bfba3cd462b384e44a2c4c3afe048340, type: 3}
    - {fileID: 21300000, guid: b58fdba46033bad46b890efda8c6baa6, type: 3}
    - {fileID: 21300000, guid: fa0cca02eadde124a9957f57362a4c60, type: 3}
    - {fileID: 21300000, guid: a8f5cd2e6dc02a140898784588e390b7, type: 3}
    - {fileID: 21300000, guid: 1c2b821e596f2b145943f3a3f34720f4, type: 3}
    - {fileID: 21300000, guid: 42fea12685242b4458688acb892251ab, type: 3}
    - {fileID: 21300000, guid: 0a67ba218bffe4b47888b1a6d70ee2e3, type: 3}
    - {fileID: 21300000, guid: 994b1fe0f5802f94196af76103e507d2, type: 3}
    - {fileID: 21300000, guid: 17cffdba809e37b42b4b0d4fafeedc89, type: 3}
    - {fileID: 21300000, guid: 3baf4583dacea8346a504b5c2733ce7b, type: 3}
    - {fileID: 21300000, guid: 3bf25984d8d2559458f596b31fa51938, type: 3}
    - {fileID: 21300000, guid: e7b49bc89ba367d44943b126894a8f54, type: 3}
    - {fileID: 21300000, guid: 00e193a24e56ad442b8641eadc53e1ed, type: 3}
    - {fileID: 21300000, guid: beb14f2864e59e244a44bcb5eb7690f6, type: 3}
    - {fileID: 21300000, guid: 1709aa06f0eea8b428c68ce6f6170092, type: 3}
    - {fileID: 21300000, guid: ca3f8f54a52a3c0409acd5f8e6289705, type: 3}
    - {fileID: 21300000, guid: a83044ba81f66a147b021ce071b23645, type: 3}
    - {fileID: 21300000, guid: 2f39e663f0977014e9b05fe873258014, type: 3}
    - {fileID: 21300000, guid: c7dd503d28b445344bf3afd1c77e77e4, type: 3}
    - {fileID: 21300000, guid: 65b75758be32eb74db71283402f76237, type: 3}
    - {fileID: 21300000, guid: 363b7a15a991d1942b83fbe4b4e3a67c, type: 3}
    - {fileID: 21300000, guid: 9b259cd3b2438c449bf2487c9d41025a, type: 3}
    - {fileID: 21300000, guid: ce1d40c9963348c48be5726c4c24de70, type: 3}
    - {fileID: 21300000, guid: cb74c6f9f1cba564e94be419de47883f, type: 3}
    - {fileID: 21300000, guid: db32a6140955aaa46902e3a958de2815, type: 3}
    - {fileID: 21300000, guid: 70874e7be1621aa46a3e3388b82e9131, type: 3}
    - {fileID: 21300000, guid: 22653c4d165b99645a7e796c080fd9da, type: 3}
    - {fileID: 21300000, guid: 24fd43df2c8b2c844946583274ef0fa6, type: 3}
    - {fileID: 21300000, guid: 3b4e839dc468bb74dba46f7492c79aaa, type: 3}
    - {fileID: 21300000, guid: bf8c02bc19f513d4da3cf4b70393d088, type: 3}
    - {fileID: 21300000, guid: d523ad67ceeca4b449a021f8ad9135e4, type: 3}
    - {fileID: 21300000, guid: f7b59d1aecb191a41b5f7dfc146e18e7, type: 3}
    - {fileID: 21300000, guid: 7cbbd2c1fa492c74b9df2471f978af1b, type: 3}
    - {fileID: 21300000, guid: 4c5095b4c82223a499cbf49f5c5d6e17, type: 3}
    - {fileID: 21300000, guid: 6c9f7d24928b6df49a93e98b1be4d1db, type: 3}
    - {fileID: 21300000, guid: 9c3683c834fc2e2438fb531c3662b637, type: 3}
    - {fileID: 21300000, guid: 3396c468c908deb4983cbcd6e756d4c2, type: 3}
    - {fileID: 21300000, guid: 5ab5700ba1e978c4097be500ae026b5b, type: 3}
    - {fileID: 21300000, guid: 88b5f0f3037d59c4d8e532bf9db2e1a7, type: 3}
    - {fileID: 21300000, guid: 0dacb31c24527774b933a50c6bd95158, type: 3}
    - {fileID: 21300000, guid: 754b1abaa22135642ba059899fe80192, type: 3}
    - {fileID: 21300000, guid: 57fb4cf63da86224d9cc70913aa5045d, type: 3}
    - {fileID: 21300000, guid: 532ecd16c4ed373448e635519799be8e, type: 3}
    - {fileID: 21300000, guid: 5febf8f4f8e57da48a0e7e6a51f68141, type: 3}
    - {fileID: 21300000, guid: 8b902a0f13ca83647884cc42e4d005f6, type: 3}
    - {fileID: 21300000, guid: cfe1afa689475f54f99172365f806699, type: 3}
    - {fileID: 21300000, guid: 8732f17d150ba924dbcdc9230614ca4b, type: 3}
    - {fileID: 21300000, guid: d584068a850c36444a731c89b33c350a, type: 3}
    - {fileID: 21300000, guid: f48420af9d57b78409f4f531fe1df5d3, type: 3}
    - {fileID: 21300000, guid: 7f76aed3bfbe14f4886f0366fa7842d8, type: 3}
    - {fileID: 21300000, guid: f2b7dfabebbac6048b7ef6bb474de886, type: 3}
    - {fileID: 21300000, guid: 199df04a1ff8ed74780742b12b5bd9ef, type: 3}
    - {fileID: 21300000, guid: b663d3b98b063d543bb1639e4f8cce7d, type: 3}
    - {fileID: 21300000, guid: 640676f65ff6e9044b77c017ff8630ee, type: 3}
  m_AnimationClipSettings:
    serializedVersion: 2
    m_AdditiveReferencePoseClip: {fileID: 0}
    m_AdditiveReferencePoseTime: 0
    m_StartTime: 0
    m_StopTime: 3.3666666
    m_OrientationOffsetY: 0
    m_Level: 0
    m_CycleOffset: 0
    m_HasAdditiveReferencePose: 0
    m_LoopTime: 1
    m_LoopBlend: 0
    m_LoopBlendOrientation: 0
    m_LoopBlendPositionY: 0
    m_LoopBlendPositionXZ: 0
    m_KeepOriginalOrientation: 0
    m_KeepOriginalPositionY: 1
    m_KeepOriginalPositionXZ: 0
    m_HeightFromFeet: 0
    m_Mirror: 0
  m_EditorCurves: []
  m_EulerEditorCurves: []
  m_HasGenericRootTransform: 0
  m_HasMotionFloatCurves: 0
  m_Events: []
