%YAML 1.1
%TAG !u! tag:unity3d.com,2011:
--- !u!74 &7400000
AnimationClip:
  m_ObjectHideFlags: 0
  m_CorrespondingSourceObject: {fileID: 0}
  m_PrefabInstance: {fileID: 0}
  m_PrefabAsset: {fileID: 0}
  m_Name: Trash_Lightbulb2
  serializedVersion: 6
  m_Legacy: 0
  m_Compressed: 0
  m_UseHighQualityCurve: 1
  m_RotationCurves: []
  m_CompressedRotationCurves: []
  m_EulerCurves: []
  m_PositionCurves: []
  m_ScaleCurves: []
  m_FloatCurves: []
  m_PPtrCurves:
  - curve:
    - time: 0
      value: {fileID: 21300000, guid: 9fa5818807c2127439a6c0a1ee92359b, type: 3}
    - time: 0.033333335
      value: {fileID: 21300000, guid: abfe7c70e3dd17742805cfa342d06dda, type: 3}
    - time: 0.06666667
      value: {fileID: 21300000, guid: d477c875731743345a442947f9240bf5, type: 3}
    - time: 0.1
      value: {fileID: 21300000, guid: 44144eb5f5dae414baca2c49d620ee76, type: 3}
    - time: 0.13333334
      value: {fileID: 21300000, guid: c6bba92eaa713d543a96b0b4b97995a2, type: 3}
    - time: 0.16666667
      value: {fileID: 21300000, guid: 0bcb1fcc7bbfd7a4d8e17450174812f6, type: 3}
    - time: 0.2
      value: {fileID: 21300000, guid: 14b032cb19cfb1b4bb8485b18dc3d70a, type: 3}
    - time: 0.23333333
      value: {fileID: 21300000, guid: edc0fc5fd3a3193448b3929a55a78f7c, type: 3}
    - time: 0.26666668
      value: {fileID: 21300000, guid: bc95f270a3fcf83498792e470d385662, type: 3}
    - time: 0.3
      value: {fileID: 21300000, guid: 4a9f6f94679177544ab4e962ce878bff, type: 3}
    - time: 0.33333334
      value: {fileID: 21300000, guid: e90ac19a26eda21418860856f695ff01, type: 3}
    - time: 0.36666667
      value: {fileID: 21300000, guid: c7136851cdd44474eb3cc5f7e4409be8, type: 3}
    - time: 0.4
      value: {fileID: 21300000, guid: cb88910a588f97b49a666b1bb7000447, type: 3}
    - time: 0.43333334
      value: {fileID: 21300000, guid: a3c2ab831cc590441a4ea67c870cfb87, type: 3}
    - time: 0.46666667
      value: {fileID: 21300000, guid: c1f28ea6865be5643b20d94e58c834ec, type: 3}
    - time: 0.5
      value: {fileID: 21300000, guid: 5a3f6ae0cc5a7c845aae6710d00bfe23, type: 3}
    - time: 0.53333336
      value: {fileID: 21300000, guid: 214b9d793395755488bf67deb92fe925, type: 3}
    - time: 0.56666666
      value: {fileID: 21300000, guid: 1f61f64684f8c824cb25f2b0ddc0dc46, type: 3}
    - time: 0.6
      value: {fileID: 21300000, guid: d6e1ca549a22d924292f2b9e56339861, type: 3}
    - time: 0.6333333
      value: {fileID: 21300000, guid: fc8466914a150d647899a816015f61e1, type: 3}
    - time: 0.6666667
      value: {fileID: 21300000, guid: b26d5490d1768bf419a556a406c71e0c, type: 3}
    - time: 0.7
      value: {fileID: 21300000, guid: 32991a8bae0cf2749941c864cc20d70e, type: 3}
    - time: 0.73333335
      value: {fileID: 21300000, guid: 2199dbb50abc4c148b3a4ab74be899f3, type: 3}
    - time: 0.76666665
      value: {fileID: 21300000, guid: bbea346fa1f22b24db1bcd314ce9bdb2, type: 3}
    - time: 0.8
      value: {fileID: 21300000, guid: 4ca80d2ccdee3b64e9ac1cdd926f6f2c, type: 3}
    - time: 0.8333333
      value: {fileID: 21300000, guid: e7339425155d2d04d98072b41e3ee936, type: 3}
    - time: 0.8666667
      value: {fileID: 21300000, guid: e2e218479ee615e4bb88fda1e83c946b, type: 3}
    - time: 0.9
      value: {fileID: 21300000, guid: d296ca68fcda1df498087f3e2c12124d, type: 3}
    - time: 0.93333334
      value: {fileID: 21300000, guid: 2e2f8dcefe42fd648afdd98c25ac95b7, type: 3}
    - time: 0.96666664
      value: {fileID: 21300000, guid: 72b13e315806f2c499688985fb11e75d, type: 3}
    - time: 1
      value: {fileID: 21300000, guid: a7db5c40d0f20214f993e723ca3037dd, type: 3}
    - time: 1.0333333
      value: {fileID: 21300000, guid: 52de183970d4aae428a89a4fea670307, type: 3}
    - time: 1.0666667
      value: {fileID: 21300000, guid: 52a582f0e3ae21b43b49d27d7b7e9992, type: 3}
    - time: 1.1
      value: {fileID: 21300000, guid: e62b5213dba867e4f88fa5122bec3977, type: 3}
    - time: 1.1333333
      value: {fileID: 21300000, guid: 638cde33fadb140469660983ecb6fdfc, type: 3}
    - time: 1.1666666
      value: {fileID: 21300000, guid: 0985016bdf9ac47498576473f7c6aa8a, type: 3}
    - time: 1.2
      value: {fileID: 21300000, guid: e08588ec1eaec574c8abc9363ed13a61, type: 3}
    - time: 1.2333333
      value: {fileID: 21300000, guid: c97e1cc5832aecd44ba4380044722fe1, type: 3}
    - time: 1.2666667
      value: {fileID: 21300000, guid: 4524ef7ee3f73bd46a891809a75f24c4, type: 3}
    - time: 1.3
      value: {fileID: 21300000, guid: a3088c031f5b0074c86ec6f0aa484478, type: 3}
    - time: 1.3333334
      value: {fileID: 21300000, guid: 50785714f37ad1646b8cdcb35fee4cb6, type: 3}
    - time: 1.3666667
      value: {fileID: 21300000, guid: bcf7c7e929334174b91936f235cc4c9f, type: 3}
    - time: 1.4
      value: {fileID: 21300000, guid: a3f0f2fdbbba7a144af1ee7acfcd9273, type: 3}
    - time: 1.4333333
      value: {fileID: 21300000, guid: 5869650136e619349af769554d75be1f, type: 3}
    - time: 1.4666667
      value: {fileID: 21300000, guid: a5d79f49bef68604ebdca720c2c84689, type: 3}
    - time: 1.5
      value: {fileID: 21300000, guid: f9c05201bfed09643b7a696101f51b6b, type: 3}
    - time: 1.5333333
      value: {fileID: 21300000, guid: 44b60436c18fc3247840d6aa22c449b2, type: 3}
    - time: 1.5666667
      value: {fileID: 21300000, guid: e7cf6adf3391f5b41993537fb265a8e5, type: 3}
    - time: 1.6
      value: {fileID: 21300000, guid: 0405672bde175964490cc4d428b6f453, type: 3}
    - time: 1.6333333
      value: {fileID: 21300000, guid: e01fe0ba35ec6754ea431c2a65d95eb7, type: 3}
    - time: 1.6666666
      value: {fileID: 21300000, guid: fe9104b9ac6a23444adc63d4ddedd575, type: 3}
    - time: 1.7
      value: {fileID: 21300000, guid: d99174f94b8193941b94bdba2654c6c5, type: 3}
    - time: 1.7333333
      value: {fileID: 21300000, guid: 447fff1fa26bb99409c3be7dc978a542, type: 3}
    - time: 1.7666667
      value: {fileID: 21300000, guid: 614c0defbcbf29849bb28f3ae53d4337, type: 3}
    - time: 1.8
      value: {fileID: 21300000, guid: 6e8e5590ae35ace458910c500d000b5d, type: 3}
    - time: 1.8333334
      value: {fileID: 21300000, guid: 191142b61f698174791bf94abdd2cb60, type: 3}
    - time: 1.8666667
      value: {fileID: 21300000, guid: 6aa25a26b8a0ac3428dc07b78ecdbdb6, type: 3}
    - time: 1.9
      value: {fileID: 21300000, guid: f922b3dd57d707e4abc50364bb7cbc7b, type: 3}
    - time: 1.9333333
      value: {fileID: 21300000, guid: 9fd24335bfccdf4468ec46f45d2afe09, type: 3}
    - time: 1.9666667
      value: {fileID: 21300000, guid: 31cfc78f2eadd1c4186f37b5bc5aaa1b, type: 3}
    - time: 2
      value: {fileID: 21300000, guid: 37d4fa5276ff94a4bbb0797170d31acd, type: 3}
    - time: 2.0333333
      value: {fileID: 21300000, guid: 9378fdffb5a20c849a7969ac5fcab531, type: 3}
    - time: 2.0666666
      value: {fileID: 21300000, guid: 5b15fcbb8771e2744a6ad23efe871035, type: 3}
    - time: 2.1
      value: {fileID: 21300000, guid: febb7be1efdfd67459a51c6d37bdf10a, type: 3}
    - time: 2.1333334
      value: {fileID: 21300000, guid: a8401dbf140ab2643a9d9212437a8adc, type: 3}
    - time: 2.1666667
      value: {fileID: 21300000, guid: 52b82244fa60b5c4b86d46772e8dc069, type: 3}
    - time: 2.2
      value: {fileID: 21300000, guid: 6b39fbe67b04d9248a7197abe37b42b4, type: 3}
    - time: 2.2333333
      value: {fileID: 21300000, guid: bec925ead8aa2bb4583680935b982aaf, type: 3}
    - time: 2.2666667
      value: {fileID: 21300000, guid: 128d04d02bd607e47a02ee2034cf53f6, type: 3}
    - time: 2.3
      value: {fileID: 21300000, guid: 3e081af624fa6a14bbed7b85a4799084, type: 3}
    - time: 2.3333333
      value: {fileID: 21300000, guid: b9df65055812b4d4c9415d9f1143e35b, type: 3}
    - time: 2.3666666
      value: {fileID: 21300000, guid: 39e892be1bd27e34a90bbb6a5c2428b0, type: 3}
    - time: 2.4
      value: {fileID: 21300000, guid: a98531ad0ef0b2d4ca909821cba92754, type: 3}
    - time: 2.4333334
      value: {fileID: 21300000, guid: e7cce8d36ba442d4ca3e333cdeac5a2e, type: 3}
    - time: 2.4666667
      value: {fileID: 21300000, guid: d5a6010b75e0cc14099f8737b388b940, type: 3}
    - time: 2.5
      value: {fileID: 21300000, guid: 99f3b6327737d4f45bf4772909be8506, type: 3}
    - time: 2.5333333
      value: {fileID: 21300000, guid: 1c75fa574359c674092fb78e483307a4, type: 3}
    - time: 2.5666666
      value: {fileID: 21300000, guid: d4a089009cfb3f740a2d9839ca53e438, type: 3}
    - time: 2.6
      value: {fileID: 21300000, guid: dc1606228f0082e49ae50353b18e11cd, type: 3}
    - time: 2.6333334
      value: {fileID: 21300000, guid: a19f2a809e6370542936e6004ed343f4, type: 3}
    - time: 2.6666667
      value: {fileID: 21300000, guid: 578281a051adf514ab1423c758f667d0, type: 3}
    - time: 2.7
      value: {fileID: 21300000, guid: 1c5428f0d9b92f6439fd50d5ac668964, type: 3}
    - time: 2.7333333
      value: {fileID: 21300000, guid: 2a214e1c3bdda494a8760790468ba2df, type: 3}
    - time: 2.7666667
      value: {fileID: 21300000, guid: c9988969f5331a649b03eb30a4ecc2ba, type: 3}
    - time: 2.8
      value: {fileID: 21300000, guid: b6ecf3376563ebf41a0540f10c1f043c, type: 3}
    - time: 2.8333333
      value: {fileID: 21300000, guid: c50fb6a8b01564c48b4418e1200e777e, type: 3}
    - time: 2.8666666
      value: {fileID: 21300000, guid: 4daf87d88953c5248adc7e96aada9782, type: 3}
    - time: 2.9
      value: {fileID: 21300000, guid: 63517762005e3ae48bb41711dc6d0aa3, type: 3}
    - time: 2.9333334
      value: {fileID: 21300000, guid: 814d508ae2a5ac54e811be2986187803, type: 3}
    - time: 2.9666667
      value: {fileID: 21300000, guid: 7992361104a832e4eb699bd62ed37eb9, type: 3}
    - time: 3
      value: {fileID: 21300000, guid: 597227cc1cb17c548b23061e42689db2, type: 3}
    - time: 3.0333333
      value: {fileID: 21300000, guid: 19a1a223238c87e4fb3c5ea0cb1dea02, type: 3}
    - time: 3.0666666
      value: {fileID: 21300000, guid: c89235eacb79b17478a5d86406a1aae7, type: 3}
    - time: 3.1
      value: {fileID: 21300000, guid: f7f62da91689d7744922a2fcb4632dfc, type: 3}
    - time: 3.1333334
      value: {fileID: 21300000, guid: 6e0d0c06f6d640041b7a4cdd34d10d67, type: 3}
    - time: 3.1666667
      value: {fileID: 21300000, guid: c03438080ed87dc428312dfcc6c76f89, type: 3}
    - time: 3.2
      value: {fileID: 21300000, guid: 2071e816c5810db48869d5064661b469, type: 3}
    - time: 3.2333333
      value: {fileID: 21300000, guid: 42e284b0587622548a6bfcb4cb734a3a, type: 3}
    - time: 3.2666667
      value: {fileID: 21300000, guid: 5736914c27c78b941a9c6323940212a2, type: 3}
    - time: 3.3
      value: {fileID: 21300000, guid: 1bc99b8ebd10fc046a42b3ec3418fc33, type: 3}
    - time: 3.3333333
      value: {fileID: 21300000, guid: 783049f8bfc4b214aa66b3c1c6d7d783, type: 3}
    attribute: m_Sprite
    path: 
    classID: 212
    script: {fileID: 0}
  m_SampleRate: 30
  m_WrapMode: 0
  m_Bounds:
    m_Center: {x: 0, y: 0, z: 0}
    m_Extent: {x: 0, y: 0, z: 0}
  m_ClipBindingConstant:
    genericBindings:
    - serializedVersion: 2
      path: 0
      attribute: 0
      script: {fileID: 0}
      typeID: 212
      customType: 23
      isPPtrCurve: 1
    pptrCurveMapping:
    - {fileID: 21300000, guid: 9fa5818807c2127439a6c0a1ee92359b, type: 3}
    - {fileID: 21300000, guid: abfe7c70e3dd17742805cfa342d06dda, type: 3}
    - {fileID: 21300000, guid: d477c875731743345a442947f9240bf5, type: 3}
    - {fileID: 21300000, guid: 44144eb5f5dae414baca2c49d620ee76, type: 3}
    - {fileID: 21300000, guid: c6bba92eaa713d543a96b0b4b97995a2, type: 3}
    - {fileID: 21300000, guid: 0bcb1fcc7bbfd7a4d8e17450174812f6, type: 3}
    - {fileID: 21300000, guid: 14b032cb19cfb1b4bb8485b18dc3d70a, type: 3}
    - {fileID: 21300000, guid: edc0fc5fd3a3193448b3929a55a78f7c, type: 3}
    - {fileID: 21300000, guid: bc95f270a3fcf83498792e470d385662, type: 3}
    - {fileID: 21300000, guid: 4a9f6f94679177544ab4e962ce878bff, type: 3}
    - {fileID: 21300000, guid: e90ac19a26eda21418860856f695ff01, type: 3}
    - {fileID: 21300000, guid: c7136851cdd44474eb3cc5f7e4409be8, type: 3}
    - {fileID: 21300000, guid: cb88910a588f97b49a666b1bb7000447, type: 3}
    - {fileID: 21300000, guid: a3c2ab831cc590441a4ea67c870cfb87, type: 3}
    - {fileID: 21300000, guid: c1f28ea6865be5643b20d94e58c834ec, type: 3}
    - {fileID: 21300000, guid: 5a3f6ae0cc5a7c845aae6710d00bfe23, type: 3}
    - {fileID: 21300000, guid: 214b9d793395755488bf67deb92fe925, type: 3}
    - {fileID: 21300000, guid: 1f61f64684f8c824cb25f2b0ddc0dc46, type: 3}
    - {fileID: 21300000, guid: d6e1ca549a22d924292f2b9e56339861, type: 3}
    - {fileID: 21300000, guid: fc8466914a150d647899a816015f61e1, type: 3}
    - {fileID: 21300000, guid: b26d5490d1768bf419a556a406c71e0c, type: 3}
    - {fileID: 21300000, guid: 32991a8bae0cf2749941c864cc20d70e, type: 3}
    - {fileID: 21300000, guid: 2199dbb50abc4c148b3a4ab74be899f3, type: 3}
    - {fileID: 21300000, guid: bbea346fa1f22b24db1bcd314ce9bdb2, type: 3}
    - {fileID: 21300000, guid: 4ca80d2ccdee3b64e9ac1cdd926f6f2c, type: 3}
    - {fileID: 21300000, guid: e7339425155d2d04d98072b41e3ee936, type: 3}
    - {fileID: 21300000, guid: e2e218479ee615e4bb88fda1e83c946b, type: 3}
    - {fileID: 21300000, guid: d296ca68fcda1df498087f3e2c12124d, type: 3}
    - {fileID: 21300000, guid: 2e2f8dcefe42fd648afdd98c25ac95b7, type: 3}
    - {fileID: 21300000, guid: 72b13e315806f2c499688985fb11e75d, type: 3}
    - {fileID: 21300000, guid: a7db5c40d0f20214f993e723ca3037dd, type: 3}
    - {fileID: 21300000, guid: 52de183970d4aae428a89a4fea670307, type: 3}
    - {fileID: 21300000, guid: 52a582f0e3ae21b43b49d27d7b7e9992, type: 3}
    - {fileID: 21300000, guid: e62b5213dba867e4f88fa5122bec3977, type: 3}
    - {fileID: 21300000, guid: 638cde33fadb140469660983ecb6fdfc, type: 3}
    - {fileID: 21300000, guid: 0985016bdf9ac47498576473f7c6aa8a, type: 3}
    - {fileID: 21300000, guid: e08588ec1eaec574c8abc9363ed13a61, type: 3}
    - {fileID: 21300000, guid: c97e1cc5832aecd44ba4380044722fe1, type: 3}
    - {fileID: 21300000, guid: 4524ef7ee3f73bd46a891809a75f24c4, type: 3}
    - {fileID: 21300000, guid: a3088c031f5b0074c86ec6f0aa484478, type: 3}
    - {fileID: 21300000, guid: 50785714f37ad1646b8cdcb35fee4cb6, type: 3}
    - {fileID: 21300000, guid: bcf7c7e929334174b91936f235cc4c9f, type: 3}
    - {fileID: 21300000, guid: a3f0f2fdbbba7a144af1ee7acfcd9273, type: 3}
    - {fileID: 21300000, guid: 5869650136e619349af769554d75be1f, type: 3}
    - {fileID: 21300000, guid: a5d79f49bef68604ebdca720c2c84689, type: 3}
    - {fileID: 21300000, guid: f9c05201bfed09643b7a696101f51b6b, type: 3}
    - {fileID: 21300000, guid: 44b60436c18fc3247840d6aa22c449b2, type: 3}
    - {fileID: 21300000, guid: e7cf6adf3391f5b41993537fb265a8e5, type: 3}
    - {fileID: 21300000, guid: 0405672bde175964490cc4d428b6f453, type: 3}
    - {fileID: 21300000, guid: e01fe0ba35ec6754ea431c2a65d95eb7, type: 3}
    - {fileID: 21300000, guid: fe9104b9ac6a23444adc63d4ddedd575, type: 3}
    - {fileID: 21300000, guid: d99174f94b8193941b94bdba2654c6c5, type: 3}
    - {fileID: 21300000, guid: 447fff1fa26bb99409c3be7dc978a542, type: 3}
    - {fileID: 21300000, guid: 614c0defbcbf29849bb28f3ae53d4337, type: 3}
    - {fileID: 21300000, guid: 6e8e5590ae35ace458910c500d000b5d, type: 3}
    - {fileID: 21300000, guid: 191142b61f698174791bf94abdd2cb60, type: 3}
    - {fileID: 21300000, guid: 6aa25a26b8a0ac3428dc07b78ecdbdb6, type: 3}
    - {fileID: 21300000, guid: f922b3dd57d707e4abc50364bb7cbc7b, type: 3}
    - {fileID: 21300000, guid: 9fd24335bfccdf4468ec46f45d2afe09, type: 3}
    - {fileID: 21300000, guid: 31cfc78f2eadd1c4186f37b5bc5aaa1b, type: 3}
    - {fileID: 21300000, guid: 37d4fa5276ff94a4bbb0797170d31acd, type: 3}
    - {fileID: 21300000, guid: 9378fdffb5a20c849a7969ac5fcab531, type: 3}
    - {fileID: 21300000, guid: 5b15fcbb8771e2744a6ad23efe871035, type: 3}
    - {fileID: 21300000, guid: febb7be1efdfd67459a51c6d37bdf10a, type: 3}
    - {fileID: 21300000, guid: a8401dbf140ab2643a9d9212437a8adc, type: 3}
    - {fileID: 21300000, guid: 52b82244fa60b5c4b86d46772e8dc069, type: 3}
    - {fileID: 21300000, guid: 6b39fbe67b04d9248a7197abe37b42b4, type: 3}
    - {fileID: 21300000, guid: bec925ead8aa2bb4583680935b982aaf, type: 3}
    - {fileID: 21300000, guid: 128d04d02bd607e47a02ee2034cf53f6, type: 3}
    - {fileID: 21300000, guid: 3e081af624fa6a14bbed7b85a4799084, type: 3}
    - {fileID: 21300000, guid: b9df65055812b4d4c9415d9f1143e35b, type: 3}
    - {fileID: 21300000, guid: 39e892be1bd27e34a90bbb6a5c2428b0, type: 3}
    - {fileID: 21300000, guid: a98531ad0ef0b2d4ca909821cba92754, type: 3}
    - {fileID: 21300000, guid: e7cce8d36ba442d4ca3e333cdeac5a2e, type: 3}
    - {fileID: 21300000, guid: d5a6010b75e0cc14099f8737b388b940, type: 3}
    - {fileID: 21300000, guid: 99f3b6327737d4f45bf4772909be8506, type: 3}
    - {fileID: 21300000, guid: 1c75fa574359c674092fb78e483307a4, type: 3}
    - {fileID: 21300000, guid: d4a089009cfb3f740a2d9839ca53e438, type: 3}
    - {fileID: 21300000, guid: dc1606228f0082e49ae50353b18e11cd, type: 3}
    - {fileID: 21300000, guid: a19f2a809e6370542936e6004ed343f4, type: 3}
    - {fileID: 21300000, guid: 578281a051adf514ab1423c758f667d0, type: 3}
    - {fileID: 21300000, guid: 1c5428f0d9b92f6439fd50d5ac668964, type: 3}
    - {fileID: 21300000, guid: 2a214e1c3bdda494a8760790468ba2df, type: 3}
    - {fileID: 21300000, guid: c9988969f5331a649b03eb30a4ecc2ba, type: 3}
    - {fileID: 21300000, guid: b6ecf3376563ebf41a0540f10c1f043c, type: 3}
    - {fileID: 21300000, guid: c50fb6a8b01564c48b4418e1200e777e, type: 3}
    - {fileID: 21300000, guid: 4daf87d88953c5248adc7e96aada9782, type: 3}
    - {fileID: 21300000, guid: 63517762005e3ae48bb41711dc6d0aa3, type: 3}
    - {fileID: 21300000, guid: 814d508ae2a5ac54e811be2986187803, type: 3}
    - {fileID: 21300000, guid: 7992361104a832e4eb699bd62ed37eb9, type: 3}
    - {fileID: 21300000, guid: 597227cc1cb17c548b23061e42689db2, type: 3}
    - {fileID: 21300000, guid: 19a1a223238c87e4fb3c5ea0cb1dea02, type: 3}
    - {fileID: 21300000, guid: c89235eacb79b17478a5d86406a1aae7, type: 3}
    - {fileID: 21300000, guid: f7f62da91689d7744922a2fcb4632dfc, type: 3}
    - {fileID: 21300000, guid: 6e0d0c06f6d640041b7a4cdd34d10d67, type: 3}
    - {fileID: 21300000, guid: c03438080ed87dc428312dfcc6c76f89, type: 3}
    - {fileID: 21300000, guid: 2071e816c5810db48869d5064661b469, type: 3}
    - {fileID: 21300000, guid: 42e284b0587622548a6bfcb4cb734a3a, type: 3}
    - {fileID: 21300000, guid: 5736914c27c78b941a9c6323940212a2, type: 3}
    - {fileID: 21300000, guid: 1bc99b8ebd10fc046a42b3ec3418fc33, type: 3}
    - {fileID: 21300000, guid: 783049f8bfc4b214aa66b3c1c6d7d783, type: 3}
  m_AnimationClipSettings:
    serializedVersion: 2
    m_AdditiveReferencePoseClip: {fileID: 0}
    m_AdditiveReferencePoseTime: 0
    m_StartTime: 0
    m_StopTime: 3.3666666
    m_OrientationOffsetY: 0
    m_Level: 0
    m_CycleOffset: 0
    m_HasAdditiveReferencePose: 0
    m_LoopTime: 1
    m_LoopBlend: 0
    m_LoopBlendOrientation: 0
    m_LoopBlendPositionY: 0
    m_LoopBlendPositionXZ: 0
    m_KeepOriginalOrientation: 0
    m_KeepOriginalPositionY: 1
    m_KeepOriginalPositionXZ: 0
    m_HeightFromFeet: 0
    m_Mirror: 0
  m_EditorCurves: []
  m_EulerEditorCurves: []
  m_HasGenericRootTransform: 0
  m_HasMotionFloatCurves: 0
  m_Events: []
