%YAML 1.1
%TAG !u! tag:unity3d.com,2011:
--- !u!74 &7400000
AnimationClip:
  m_ObjectHideFlags: 0
  m_CorrespondingSourceObject: {fileID: 0}
  m_PrefabInstance: {fileID: 0}
  m_PrefabAsset: {fileID: 0}
  m_Name: Trash_Apple
  serializedVersion: 6
  m_Legacy: 0
  m_Compressed: 0
  m_UseHighQualityCurve: 1
  m_RotationCurves: []
  m_CompressedRotationCurves: []
  m_EulerCurves: []
  m_PositionCurves: []
  m_ScaleCurves: []
  m_FloatCurves: []
  m_PPtrCurves:
  - curve:
    - time: 0
      value: {fileID: 21300000, guid: af076ad08c3f0e94aaaccf7775a0cef7, type: 3}
    - time: 0.033333335
      value: {fileID: 21300000, guid: 49775efdbcaaeca4480c59127ca10d85, type: 3}
    - time: 0.06666667
      value: {fileID: 21300000, guid: 16c01e99dd7447c4fa072f1b5ce21b02, type: 3}
    - time: 0.1
      value: {fileID: 21300000, guid: 19168da12e2a1674b8afd799905bd274, type: 3}
    - time: 0.13333334
      value: {fileID: 21300000, guid: 5cf789cbcb1222a48a205497e281208c, type: 3}
    - time: 0.16666667
      value: {fileID: 21300000, guid: da05ef439d193f1428a6e682e44bca71, type: 3}
    - time: 0.2
      value: {fileID: 21300000, guid: cc8f06ddbc1f1094f8b52bac8c6ed2ab, type: 3}
    - time: 0.23333333
      value: {fileID: 21300000, guid: 4436d8191009ce4498c3c27dff159658, type: 3}
    - time: 0.26666668
      value: {fileID: 21300000, guid: d1001f2decae5684db2cc64bb4bad2fd, type: 3}
    - time: 0.3
      value: {fileID: 21300000, guid: 51001c508391d124580bf5c916322e24, type: 3}
    - time: 0.33333334
      value: {fileID: 21300000, guid: bcb287d1e3fbb604690bb68baeaf6bad, type: 3}
    - time: 0.36666667
      value: {fileID: 21300000, guid: 38446936973a6ac4fbc4b1e7d1fc90c0, type: 3}
    - time: 0.4
      value: {fileID: 21300000, guid: 2e204d0a49738e84baf5ce24cf49ff97, type: 3}
    - time: 0.43333334
      value: {fileID: 21300000, guid: 0dc94ad429c86244abca25dda6878115, type: 3}
    - time: 0.46666667
      value: {fileID: 21300000, guid: c8371ed63774d4944b28ba8effb90fb3, type: 3}
    - time: 0.5
      value: {fileID: 21300000, guid: 860bccfde19d2eb4db4c50bffbdb0c3d, type: 3}
    - time: 0.53333336
      value: {fileID: 21300000, guid: 2d0c447a9c56a5d4a9899226b954a3f0, type: 3}
    - time: 0.56666666
      value: {fileID: 21300000, guid: 5fe565a103953554fbc1db8b6ad732b5, type: 3}
    - time: 0.6
      value: {fileID: 21300000, guid: c02b9d21fd8486c45b3da35b14836248, type: 3}
    - time: 0.6333333
      value: {fileID: 21300000, guid: e53ad76f2c45c0044b3ad70d2f67f237, type: 3}
    - time: 0.6666667
      value: {fileID: 21300000, guid: 62c788e5c8727164f87574688dcff168, type: 3}
    - time: 0.7
      value: {fileID: 21300000, guid: bc776ea15d1fa3842bc212c15cb6b011, type: 3}
    - time: 0.73333335
      value: {fileID: 21300000, guid: acd81f3dde1e41d4c813ac025633ee88, type: 3}
    - time: 0.76666665
      value: {fileID: 21300000, guid: b0832256c8509cc47850573a3856ebe5, type: 3}
    - time: 0.8
      value: {fileID: 21300000, guid: df06eb8423f74f54eab8f7de0abf9ebb, type: 3}
    - time: 0.8333333
      value: {fileID: 21300000, guid: 1fe89944b4ffb2249988d9c7879d6610, type: 3}
    - time: 0.8666667
      value: {fileID: 21300000, guid: f14d71fcdbc957847b6fd4a801b47e85, type: 3}
    - time: 0.9
      value: {fileID: 21300000, guid: 3bdbc6bd5270c5544b434a223d91f361, type: 3}
    - time: 0.93333334
      value: {fileID: 21300000, guid: 2f4b35fca93be4747a5a6951609ff03c, type: 3}
    - time: 0.96666664
      value: {fileID: 21300000, guid: 77df9cf53cbaac54e88ed4f33ab36596, type: 3}
    - time: 1
      value: {fileID: 21300000, guid: 89c1fa84162f9f54192a409e5aeacb49, type: 3}
    - time: 1.0333333
      value: {fileID: 21300000, guid: fada7bd150dda7144a43c2c4f5af4dc3, type: 3}
    - time: 1.0666667
      value: {fileID: 21300000, guid: bb53a5b0b428a454988462a0f061f5ba, type: 3}
    - time: 1.1
      value: {fileID: 21300000, guid: 0087669c7b73c2f4b81c7805bf317633, type: 3}
    - time: 1.1333333
      value: {fileID: 21300000, guid: 9c4c2a83ce9b50f459c3be000db73f98, type: 3}
    - time: 1.1666666
      value: {fileID: 21300000, guid: c963af662b7f8674ba5260ac021ad622, type: 3}
    - time: 1.2
      value: {fileID: 21300000, guid: 07a8829059f4ad743a0fd4b3d4a35eec, type: 3}
    - time: 1.2333333
      value: {fileID: 21300000, guid: 4ffb08211428f904096c3099cb742b3f, type: 3}
    - time: 1.2666667
      value: {fileID: 21300000, guid: 2463b00ab37536144926a0d476cf7f78, type: 3}
    - time: 1.3
      value: {fileID: 21300000, guid: 0b6e599913a6e224fbc24f27469c0e2c, type: 3}
    - time: 1.3333334
      value: {fileID: 21300000, guid: 335c115bbd7d2dc4c80e4a6743bc3237, type: 3}
    - time: 1.3666667
      value: {fileID: 21300000, guid: 34016a2eccdd8244e89cea1001432764, type: 3}
    - time: 1.4
      value: {fileID: 21300000, guid: 2c9849af280fa69439081415595125fe, type: 3}
    - time: 1.4333333
      value: {fileID: 21300000, guid: 32894cc5c3673ff489312c9f9862b0c0, type: 3}
    - time: 1.4666667
      value: {fileID: 21300000, guid: 6281ef8599378654ea785935c016f14e, type: 3}
    - time: 1.5
      value: {fileID: 21300000, guid: 060e542256b171347bcb05380dd1b7f2, type: 3}
    - time: 1.5333333
      value: {fileID: 21300000, guid: edff124faf60c724cab90467c011d8ef, type: 3}
    - time: 1.5666667
      value: {fileID: 21300000, guid: 74a1c20e841c45042ad4bbb65d2bc5c0, type: 3}
    - time: 1.6
      value: {fileID: 21300000, guid: 6377608e41051be4b9a2130a8995b40b, type: 3}
    - time: 1.6333333
      value: {fileID: 21300000, guid: 19faae3cdbdb4e1418af6b29e462b16f, type: 3}
    - time: 1.6666666
      value: {fileID: 21300000, guid: 8488d3f41befff34ab73a0e66f2ac5aa, type: 3}
    - time: 1.7
      value: {fileID: 21300000, guid: ab8b7be7b4fe7064698647829d37ef2d, type: 3}
    - time: 1.7333333
      value: {fileID: 21300000, guid: 18caa29c7e2e25f4f8cd2a2ef3645080, type: 3}
    - time: 1.7666667
      value: {fileID: 21300000, guid: b7de4f078aaea5743a008c9dac0471b1, type: 3}
    - time: 1.8
      value: {fileID: 21300000, guid: b2863f60b661eab44ad2eb1334568d15, type: 3}
    - time: 1.8333334
      value: {fileID: 21300000, guid: 82ddfa3f8bbe4144b86b46ef656fc317, type: 3}
    - time: 1.8666667
      value: {fileID: 21300000, guid: 83f92e1129880104e8f48737f30682f0, type: 3}
    - time: 1.9
      value: {fileID: 21300000, guid: 7b759a2a0e2fc2e48b1e286b7bfa9285, type: 3}
    - time: 1.9333333
      value: {fileID: 21300000, guid: 51d5e8b3bfa13b64fb743b88f0940a14, type: 3}
    - time: 1.9666667
      value: {fileID: 21300000, guid: 2e632ff8aa9984a478c3275615af855c, type: 3}
    - time: 2
      value: {fileID: 21300000, guid: 6e501e70e8d5e334386fa5c2ff7d97b3, type: 3}
    - time: 2.0333333
      value: {fileID: 21300000, guid: b33c3461a04ac2e4cbbc80bd140b2b2e, type: 3}
    - time: 2.0666666
      value: {fileID: 21300000, guid: 7ffbcb11d43d61346b88c706320d3db0, type: 3}
    - time: 2.1
      value: {fileID: 21300000, guid: ce93bfe2adabe7b4fa9bc16fcd0bfcac, type: 3}
    - time: 2.1333334
      value: {fileID: 21300000, guid: b9aef376f876a524d897b7f416505994, type: 3}
    - time: 2.1666667
      value: {fileID: 21300000, guid: 62ab4f95041dc4d47a9b9088a0cd84ca, type: 3}
    - time: 2.2
      value: {fileID: 21300000, guid: 3318449284f7224408c99cba0fa32974, type: 3}
    - time: 2.2333333
      value: {fileID: 21300000, guid: 8919608214609384ea61b0c94f8d42a4, type: 3}
    - time: 2.2666667
      value: {fileID: 21300000, guid: 3205f0e5e418cfa49aeef720ec3a60ed, type: 3}
    - time: 2.3
      value: {fileID: 21300000, guid: 2f4e35d00ab7e8c40afacefa1ce69b28, type: 3}
    - time: 2.3333333
      value: {fileID: 21300000, guid: bc3e2b4aab9d8474a9485e572501f643, type: 3}
    - time: 2.3666666
      value: {fileID: 21300000, guid: 30bb5f36eb8252841aa0a86ab3177c12, type: 3}
    - time: 2.4
      value: {fileID: 21300000, guid: 78e0de715e68548478e72ed4e449dcb0, type: 3}
    - time: 2.4333334
      value: {fileID: 21300000, guid: 6ceca3bffe3f4a34aa5b6536e98a01c6, type: 3}
    - time: 2.4666667
      value: {fileID: 21300000, guid: 76dceb37b218de14d916d010c3a4e9b9, type: 3}
    - time: 2.5
      value: {fileID: 21300000, guid: 7121d772574f0524883bada127088ecf, type: 3}
    - time: 2.5333333
      value: {fileID: 21300000, guid: 4d9a9d22ecba2184cab3832eb7b2baec, type: 3}
    - time: 2.5666666
      value: {fileID: 21300000, guid: 83cf809efd86f6240a025a88692e93b5, type: 3}
    - time: 2.6
      value: {fileID: 21300000, guid: 5c46df8a6dd26ba499b3a8a26cd28502, type: 3}
    - time: 2.6333334
      value: {fileID: 21300000, guid: 3ac5c1e2533fdac438d7ee48e27a5c7c, type: 3}
    - time: 2.6666667
      value: {fileID: 21300000, guid: 2806d5a523785244c84c0f6ac4692605, type: 3}
    - time: 2.7
      value: {fileID: 21300000, guid: 1712b91fbf4e71b48a065f3c153ffff4, type: 3}
    - time: 2.7333333
      value: {fileID: 21300000, guid: 44c9c7a7b06417941b1b438a28a2396f, type: 3}
    - time: 2.7666667
      value: {fileID: 21300000, guid: ff92504264b58b74dbe4a7a8a2460efe, type: 3}
    - time: 2.8
      value: {fileID: 21300000, guid: af26a80af96e70242a563ace684729a5, type: 3}
    - time: 2.8333333
      value: {fileID: 21300000, guid: 64dc23402c0e6324e8b040f8c514264a, type: 3}
    - time: 2.8666666
      value: {fileID: 21300000, guid: 0fda61f957e8ff04d9b8d0761d0393c9, type: 3}
    - time: 2.9
      value: {fileID: 21300000, guid: 9db0582f3672b5f478c035ec460dcd21, type: 3}
    - time: 2.9333334
      value: {fileID: 21300000, guid: 84c057916d5e3ce4c9ae45c80cbcc6d1, type: 3}
    - time: 2.9666667
      value: {fileID: 21300000, guid: 673b772fdfd4d884da0f913e209ab0f1, type: 3}
    - time: 3
      value: {fileID: 21300000, guid: 2b6334b7e3f415a44abdfffcf88669cc, type: 3}
    - time: 3.0333333
      value: {fileID: 21300000, guid: 33631e2f677cfbd42a78217628663009, type: 3}
    - time: 3.0666666
      value: {fileID: 21300000, guid: 2067e1c1afc7ec64e9b89a5d473e224f, type: 3}
    - time: 3.1
      value: {fileID: 21300000, guid: 5dfb3ca83bafe664a85f00dfae7e5e07, type: 3}
    - time: 3.1333334
      value: {fileID: 21300000, guid: 91bab172f03251543a358bab511b4cd9, type: 3}
    - time: 3.1666667
      value: {fileID: 21300000, guid: b750f26cd6102e14b9aaacd98ffd57cf, type: 3}
    - time: 3.2
      value: {fileID: 21300000, guid: 4a0c9c1d5e9f7674db5c4b106c59864d, type: 3}
    - time: 3.2333333
      value: {fileID: 21300000, guid: 97622cf2c495fa94ead8d3ed797d2162, type: 3}
    - time: 3.2666667
      value: {fileID: 21300000, guid: 4b82a488d475a0948b92fbd6a8c7f7bc, type: 3}
    - time: 3.3
      value: {fileID: 21300000, guid: 7ad76efa9c158b54ab02e40ee4eac792, type: 3}
    - time: 3.3333333
      value: {fileID: 21300000, guid: 3e081c160791bc846826cf3b90f17101, type: 3}
    attribute: m_Sprite
    path: 
    classID: 212
    script: {fileID: 0}
  m_SampleRate: 30
  m_WrapMode: 0
  m_Bounds:
    m_Center: {x: 0, y: 0, z: 0}
    m_Extent: {x: 0, y: 0, z: 0}
  m_ClipBindingConstant:
    genericBindings:
    - serializedVersion: 2
      path: 0
      attribute: 0
      script: {fileID: 0}
      typeID: 212
      customType: 23
      isPPtrCurve: 1
    pptrCurveMapping:
    - {fileID: 21300000, guid: af076ad08c3f0e94aaaccf7775a0cef7, type: 3}
    - {fileID: 21300000, guid: 49775efdbcaaeca4480c59127ca10d85, type: 3}
    - {fileID: 21300000, guid: 16c01e99dd7447c4fa072f1b5ce21b02, type: 3}
    - {fileID: 21300000, guid: 19168da12e2a1674b8afd799905bd274, type: 3}
    - {fileID: 21300000, guid: 5cf789cbcb1222a48a205497e281208c, type: 3}
    - {fileID: 21300000, guid: da05ef439d193f1428a6e682e44bca71, type: 3}
    - {fileID: 21300000, guid: cc8f06ddbc1f1094f8b52bac8c6ed2ab, type: 3}
    - {fileID: 21300000, guid: 4436d8191009ce4498c3c27dff159658, type: 3}
    - {fileID: 21300000, guid: d1001f2decae5684db2cc64bb4bad2fd, type: 3}
    - {fileID: 21300000, guid: 51001c508391d124580bf5c916322e24, type: 3}
    - {fileID: 21300000, guid: bcb287d1e3fbb604690bb68baeaf6bad, type: 3}
    - {fileID: 21300000, guid: 38446936973a6ac4fbc4b1e7d1fc90c0, type: 3}
    - {fileID: 21300000, guid: 2e204d0a49738e84baf5ce24cf49ff97, type: 3}
    - {fileID: 21300000, guid: 0dc94ad429c86244abca25dda6878115, type: 3}
    - {fileID: 21300000, guid: c8371ed63774d4944b28ba8effb90fb3, type: 3}
    - {fileID: 21300000, guid: 860bccfde19d2eb4db4c50bffbdb0c3d, type: 3}
    - {fileID: 21300000, guid: 2d0c447a9c56a5d4a9899226b954a3f0, type: 3}
    - {fileID: 21300000, guid: 5fe565a103953554fbc1db8b6ad732b5, type: 3}
    - {fileID: 21300000, guid: c02b9d21fd8486c45b3da35b14836248, type: 3}
    - {fileID: 21300000, guid: e53ad76f2c45c0044b3ad70d2f67f237, type: 3}
    - {fileID: 21300000, guid: 62c788e5c8727164f87574688dcff168, type: 3}
    - {fileID: 21300000, guid: bc776ea15d1fa3842bc212c15cb6b011, type: 3}
    - {fileID: 21300000, guid: acd81f3dde1e41d4c813ac025633ee88, type: 3}
    - {fileID: 21300000, guid: b0832256c8509cc47850573a3856ebe5, type: 3}
    - {fileID: 21300000, guid: df06eb8423f74f54eab8f7de0abf9ebb, type: 3}
    - {fileID: 21300000, guid: 1fe89944b4ffb2249988d9c7879d6610, type: 3}
    - {fileID: 21300000, guid: f14d71fcdbc957847b6fd4a801b47e85, type: 3}
    - {fileID: 21300000, guid: 3bdbc6bd5270c5544b434a223d91f361, type: 3}
    - {fileID: 21300000, guid: 2f4b35fca93be4747a5a6951609ff03c, type: 3}
    - {fileID: 21300000, guid: 77df9cf53cbaac54e88ed4f33ab36596, type: 3}
    - {fileID: 21300000, guid: 89c1fa84162f9f54192a409e5aeacb49, type: 3}
    - {fileID: 21300000, guid: fada7bd150dda7144a43c2c4f5af4dc3, type: 3}
    - {fileID: 21300000, guid: bb53a5b0b428a454988462a0f061f5ba, type: 3}
    - {fileID: 21300000, guid: 0087669c7b73c2f4b81c7805bf317633, type: 3}
    - {fileID: 21300000, guid: 9c4c2a83ce9b50f459c3be000db73f98, type: 3}
    - {fileID: 21300000, guid: c963af662b7f8674ba5260ac021ad622, type: 3}
    - {fileID: 21300000, guid: 07a8829059f4ad743a0fd4b3d4a35eec, type: 3}
    - {fileID: 21300000, guid: 4ffb08211428f904096c3099cb742b3f, type: 3}
    - {fileID: 21300000, guid: 2463b00ab37536144926a0d476cf7f78, type: 3}
    - {fileID: 21300000, guid: 0b6e599913a6e224fbc24f27469c0e2c, type: 3}
    - {fileID: 21300000, guid: 335c115bbd7d2dc4c80e4a6743bc3237, type: 3}
    - {fileID: 21300000, guid: 34016a2eccdd8244e89cea1001432764, type: 3}
    - {fileID: 21300000, guid: 2c9849af280fa69439081415595125fe, type: 3}
    - {fileID: 21300000, guid: 32894cc5c3673ff489312c9f9862b0c0, type: 3}
    - {fileID: 21300000, guid: 6281ef8599378654ea785935c016f14e, type: 3}
    - {fileID: 21300000, guid: 060e542256b171347bcb05380dd1b7f2, type: 3}
    - {fileID: 21300000, guid: edff124faf60c724cab90467c011d8ef, type: 3}
    - {fileID: 21300000, guid: 74a1c20e841c45042ad4bbb65d2bc5c0, type: 3}
    - {fileID: 21300000, guid: 6377608e41051be4b9a2130a8995b40b, type: 3}
    - {fileID: 21300000, guid: 19faae3cdbdb4e1418af6b29e462b16f, type: 3}
    - {fileID: 21300000, guid: 8488d3f41befff34ab73a0e66f2ac5aa, type: 3}
    - {fileID: 21300000, guid: ab8b7be7b4fe7064698647829d37ef2d, type: 3}
    - {fileID: 21300000, guid: 18caa29c7e2e25f4f8cd2a2ef3645080, type: 3}
    - {fileID: 21300000, guid: b7de4f078aaea5743a008c9dac0471b1, type: 3}
    - {fileID: 21300000, guid: b2863f60b661eab44ad2eb1334568d15, type: 3}
    - {fileID: 21300000, guid: 82ddfa3f8bbe4144b86b46ef656fc317, type: 3}
    - {fileID: 21300000, guid: 83f92e1129880104e8f48737f30682f0, type: 3}
    - {fileID: 21300000, guid: 7b759a2a0e2fc2e48b1e286b7bfa9285, type: 3}
    - {fileID: 21300000, guid: 51d5e8b3bfa13b64fb743b88f0940a14, type: 3}
    - {fileID: 21300000, guid: 2e632ff8aa9984a478c3275615af855c, type: 3}
    - {fileID: 21300000, guid: 6e501e70e8d5e334386fa5c2ff7d97b3, type: 3}
    - {fileID: 21300000, guid: b33c3461a04ac2e4cbbc80bd140b2b2e, type: 3}
    - {fileID: 21300000, guid: 7ffbcb11d43d61346b88c706320d3db0, type: 3}
    - {fileID: 21300000, guid: ce93bfe2adabe7b4fa9bc16fcd0bfcac, type: 3}
    - {fileID: 21300000, guid: b9aef376f876a524d897b7f416505994, type: 3}
    - {fileID: 21300000, guid: 62ab4f95041dc4d47a9b9088a0cd84ca, type: 3}
    - {fileID: 21300000, guid: 3318449284f7224408c99cba0fa32974, type: 3}
    - {fileID: 21300000, guid: 8919608214609384ea61b0c94f8d42a4, type: 3}
    - {fileID: 21300000, guid: 3205f0e5e418cfa49aeef720ec3a60ed, type: 3}
    - {fileID: 21300000, guid: 2f4e35d00ab7e8c40afacefa1ce69b28, type: 3}
    - {fileID: 21300000, guid: bc3e2b4aab9d8474a9485e572501f643, type: 3}
    - {fileID: 21300000, guid: 30bb5f36eb8252841aa0a86ab3177c12, type: 3}
    - {fileID: 21300000, guid: 78e0de715e68548478e72ed4e449dcb0, type: 3}
    - {fileID: 21300000, guid: 6ceca3bffe3f4a34aa5b6536e98a01c6, type: 3}
    - {fileID: 21300000, guid: 76dceb37b218de14d916d010c3a4e9b9, type: 3}
    - {fileID: 21300000, guid: 7121d772574f0524883bada127088ecf, type: 3}
    - {fileID: 21300000, guid: 4d9a9d22ecba2184cab3832eb7b2baec, type: 3}
    - {fileID: 21300000, guid: 83cf809efd86f6240a025a88692e93b5, type: 3}
    - {fileID: 21300000, guid: 5c46df8a6dd26ba499b3a8a26cd28502, type: 3}
    - {fileID: 21300000, guid: 3ac5c1e2533fdac438d7ee48e27a5c7c, type: 3}
    - {fileID: 21300000, guid: 2806d5a523785244c84c0f6ac4692605, type: 3}
    - {fileID: 21300000, guid: 1712b91fbf4e71b48a065f3c153ffff4, type: 3}
    - {fileID: 21300000, guid: 44c9c7a7b06417941b1b438a28a2396f, type: 3}
    - {fileID: 21300000, guid: ff92504264b58b74dbe4a7a8a2460efe, type: 3}
    - {fileID: 21300000, guid: af26a80af96e70242a563ace684729a5, type: 3}
    - {fileID: 21300000, guid: 64dc23402c0e6324e8b040f8c514264a, type: 3}
    - {fileID: 21300000, guid: 0fda61f957e8ff04d9b8d0761d0393c9, type: 3}
    - {fileID: 21300000, guid: 9db0582f3672b5f478c035ec460dcd21, type: 3}
    - {fileID: 21300000, guid: 84c057916d5e3ce4c9ae45c80cbcc6d1, type: 3}
    - {fileID: 21300000, guid: 673b772fdfd4d884da0f913e209ab0f1, type: 3}
    - {fileID: 21300000, guid: 2b6334b7e3f415a44abdfffcf88669cc, type: 3}
    - {fileID: 21300000, guid: 33631e2f677cfbd42a78217628663009, type: 3}
    - {fileID: 21300000, guid: 2067e1c1afc7ec64e9b89a5d473e224f, type: 3}
    - {fileID: 21300000, guid: 5dfb3ca83bafe664a85f00dfae7e5e07, type: 3}
    - {fileID: 21300000, guid: 91bab172f03251543a358bab511b4cd9, type: 3}
    - {fileID: 21300000, guid: b750f26cd6102e14b9aaacd98ffd57cf, type: 3}
    - {fileID: 21300000, guid: 4a0c9c1d5e9f7674db5c4b106c59864d, type: 3}
    - {fileID: 21300000, guid: 97622cf2c495fa94ead8d3ed797d2162, type: 3}
    - {fileID: 21300000, guid: 4b82a488d475a0948b92fbd6a8c7f7bc, type: 3}
    - {fileID: 21300000, guid: 7ad76efa9c158b54ab02e40ee4eac792, type: 3}
    - {fileID: 21300000, guid: 3e081c160791bc846826cf3b90f17101, type: 3}
  m_AnimationClipSettings:
    serializedVersion: 2
    m_AdditiveReferencePoseClip: {fileID: 0}
    m_AdditiveReferencePoseTime: 0
    m_StartTime: 0
    m_StopTime: 3.3666666
    m_OrientationOffsetY: 0
    m_Level: 0
    m_CycleOffset: 0
    m_HasAdditiveReferencePose: 0
    m_LoopTime: 1
    m_LoopBlend: 0
    m_LoopBlendOrientation: 0
    m_LoopBlendPositionY: 0
    m_LoopBlendPositionXZ: 0
    m_KeepOriginalOrientation: 0
    m_KeepOriginalPositionY: 1
    m_KeepOriginalPositionXZ: 0
    m_HeightFromFeet: 0
    m_Mirror: 0
  m_EditorCurves: []
  m_EulerEditorCurves: []
  m_HasGenericRootTransform: 0
  m_HasMotionFloatCurves: 0
  m_Events: []
