%YAML 1.1
%TAG !u! tag:unity3d.com,2011:
--- !u!74 &7400000
AnimationClip:
  m_ObjectHideFlags: 0
  m_CorrespondingSourceObject: {fileID: 0}
  m_PrefabInstance: {fileID: 0}
  m_PrefabAsset: {fileID: 0}
  m_Name: Trash_Battrie_02.003
  serializedVersion: 6
  m_Legacy: 0
  m_Compressed: 0
  m_UseHighQualityCurve: 1
  m_RotationCurves: []
  m_CompressedRotationCurves: []
  m_EulerCurves: []
  m_PositionCurves: []
  m_ScaleCurves: []
  m_FloatCurves: []
  m_PPtrCurves:
  - curve:
    - time: 0
      value: {fileID: 21300000, guid: 3a3897ef925eec445a02e23aefbd421b, type: 3}
    - time: 0.033333335
      value: {fileID: 21300000, guid: 1622063d6b1fbe8498ea01821ec87be9, type: 3}
    - time: 0.06666667
      value: {fileID: 21300000, guid: dc20ae22f5df2fd4b99d0a018cfcee3f, type: 3}
    - time: 0.1
      value: {fileID: 21300000, guid: d4a6607f2ac2ed04a97e459c0efa29b0, type: 3}
    - time: 0.13333334
      value: {fileID: 21300000, guid: 0eaf0243adf0a80428d23109d530e04b, type: 3}
    - time: 0.16666667
      value: {fileID: 21300000, guid: 1f660ee8dea52044bbdccce0c8d877b8, type: 3}
    - time: 0.2
      value: {fileID: 21300000, guid: 49c9d77d01088b043860bd228f5305da, type: 3}
    - time: 0.23333333
      value: {fileID: 21300000, guid: b617277a03a50b6438a61bdce6f55074, type: 3}
    - time: 0.26666668
      value: {fileID: 21300000, guid: 25f89535853d5d84da418d5c9e6be496, type: 3}
    - time: 0.3
      value: {fileID: 21300000, guid: c3376d1eeab9c3b47a86331e1d9c7260, type: 3}
    - time: 0.33333334
      value: {fileID: 21300000, guid: 69abf5d71169efb4ebbd691d81c18893, type: 3}
    - time: 0.36666667
      value: {fileID: 21300000, guid: 0446d61b885b63d47aa149e1f4f5d6b6, type: 3}
    - time: 0.4
      value: {fileID: 21300000, guid: 7aa2dce187b28d74496e805a44af1b1f, type: 3}
    - time: 0.43333334
      value: {fileID: 21300000, guid: 2be6ff8df541be94ebfb702726bb1a30, type: 3}
    - time: 0.46666667
      value: {fileID: 21300000, guid: 183771d4c9ec2514d87951f0c96e16b8, type: 3}
    - time: 0.5
      value: {fileID: 21300000, guid: a6e0d10e0e6cfaf4883a7eb15c069e0a, type: 3}
    - time: 0.53333336
      value: {fileID: 21300000, guid: 4e8788e0de1ae7345bf8ab05a141d304, type: 3}
    - time: 0.56666666
      value: {fileID: 21300000, guid: c3e4bf588bd6db54b8134b3ac009e3f9, type: 3}
    - time: 0.6
      value: {fileID: 21300000, guid: c4b1695a29ceb434699296ac110e924b, type: 3}
    - time: 0.6333333
      value: {fileID: 21300000, guid: 4da087ccf4381f44a912f10bfce57a22, type: 3}
    - time: 0.6666667
      value: {fileID: 21300000, guid: f71b6ec60689f3a41b664ff69e78590e, type: 3}
    - time: 0.7
      value: {fileID: 21300000, guid: 1c7c284fd7a960e47901b55508c92756, type: 3}
    - time: 0.73333335
      value: {fileID: 21300000, guid: dd9b62fa250e3394cb22da4f7b197ce3, type: 3}
    - time: 0.76666665
      value: {fileID: 21300000, guid: b209b4e75c3567f4cbf054657e01ca1f, type: 3}
    - time: 0.8
      value: {fileID: 21300000, guid: 6ecbbdbd88ec3534798237cef539d12b, type: 3}
    - time: 0.8333333
      value: {fileID: 21300000, guid: 250f8e40ccebb0a48ae8327a941b5dcb, type: 3}
    - time: 0.8666667
      value: {fileID: 21300000, guid: a226319ccbf198540ba8fb408ee84f22, type: 3}
    - time: 0.9
      value: {fileID: 21300000, guid: 0efd0a7df961f7240b29825838868f5c, type: 3}
    - time: 0.93333334
      value: {fileID: 21300000, guid: 1f212031c409a114694faac823d5555a, type: 3}
    - time: 0.96666664
      value: {fileID: 21300000, guid: a57d06e243824ff439d10e5ce7bc8b85, type: 3}
    - time: 1
      value: {fileID: 21300000, guid: e9e9bcbbbea47704d909bb48d8817171, type: 3}
    - time: 1.0333333
      value: {fileID: 21300000, guid: 56c2f4a44e0fd1049acf47d82f4f3dde, type: 3}
    - time: 1.0666667
      value: {fileID: 21300000, guid: f25a8dfd88d8d9f4a96576c4489f0aea, type: 3}
    - time: 1.1
      value: {fileID: 21300000, guid: ae5f3c192c1603c4688dcc5d877c089a, type: 3}
    - time: 1.1333333
      value: {fileID: 21300000, guid: 30d60e36d25df734099164c0504cb1d8, type: 3}
    - time: 1.1666666
      value: {fileID: 21300000, guid: 6a10d67213dd2c343b1589f14ee226e1, type: 3}
    - time: 1.2
      value: {fileID: 21300000, guid: 5498ac40616da51478f72d14d743b496, type: 3}
    - time: 1.2333333
      value: {fileID: 21300000, guid: c586d20553abf9444bfdb75e493fb377, type: 3}
    - time: 1.2666667
      value: {fileID: 21300000, guid: cd025ac6239c52a4eab3f2145d93e449, type: 3}
    - time: 1.3
      value: {fileID: 21300000, guid: d971350601251ac429b97c42ff034b5c, type: 3}
    - time: 1.3333334
      value: {fileID: 21300000, guid: fe8cc882f0df7ee4d9e3e82d9e7ad949, type: 3}
    - time: 1.3666667
      value: {fileID: 21300000, guid: c53494e057a58ba438278566c7535bd0, type: 3}
    - time: 1.4
      value: {fileID: 21300000, guid: d108f4e8209e2894d814c7d5faac525f, type: 3}
    - time: 1.4333333
      value: {fileID: 21300000, guid: 0ddd5cfb1d1565947bbb490ab0fed952, type: 3}
    - time: 1.4666667
      value: {fileID: 21300000, guid: e10af70cc5bd58c45b1a28b448f4421b, type: 3}
    - time: 1.5
      value: {fileID: 21300000, guid: 43a9ea8f080e9c84ab9a1c1afc826ea8, type: 3}
    - time: 1.5333333
      value: {fileID: 21300000, guid: a77c7b93e6e59714f8579538d63d4c05, type: 3}
    - time: 1.5666667
      value: {fileID: 21300000, guid: 65212b34a6a629347a574a6b188fc814, type: 3}
    - time: 1.6
      value: {fileID: 21300000, guid: f731542c3f1b96e4fa8987ba30f86c8b, type: 3}
    - time: 1.6333333
      value: {fileID: 21300000, guid: 6ac47da907f7b634cb6978665c37fdf2, type: 3}
    - time: 1.6666666
      value: {fileID: 21300000, guid: b0c236e6deb126e4799d79138a6acf8f, type: 3}
    - time: 1.7
      value: {fileID: 21300000, guid: 1a5cd105ae871d04ebd08ad9c750e75c, type: 3}
    - time: 1.7333333
      value: {fileID: 21300000, guid: a45b317762589dc45b359a260a2d0e3a, type: 3}
    - time: 1.7666667
      value: {fileID: 21300000, guid: 6babe97eafd729e41b4b523eb51282bd, type: 3}
    - time: 1.8
      value: {fileID: 21300000, guid: 4156c6db2186de04eabea83dd2b839cd, type: 3}
    - time: 1.8333334
      value: {fileID: 21300000, guid: 60a7c7ef57e38af45a051deb3f0437a1, type: 3}
    - time: 1.8666667
      value: {fileID: 21300000, guid: 19c285a4a5aec8d40a591818d5cf90ea, type: 3}
    - time: 1.9
      value: {fileID: 21300000, guid: 9b523cad9c8d8d7499c621c2ff1edbbb, type: 3}
    - time: 1.9333333
      value: {fileID: 21300000, guid: 7e73a18d12606e044bbe2f60eeb51c5d, type: 3}
    - time: 1.9666667
      value: {fileID: 21300000, guid: 38d986ede27424540ac3a7123b2cce39, type: 3}
    - time: 2
      value: {fileID: 21300000, guid: f35f62576bf45c740b14cd1c031f4ee5, type: 3}
    - time: 2.0333333
      value: {fileID: 21300000, guid: fbab5199706898649bc17dd628380ea0, type: 3}
    - time: 2.0666666
      value: {fileID: 21300000, guid: c143e7bd588e9924c8d1c2e29fdfbec8, type: 3}
    - time: 2.1
      value: {fileID: 21300000, guid: d0fcbee87d0d62c4c853a440c033dac0, type: 3}
    - time: 2.1333334
      value: {fileID: 21300000, guid: 5fa4562e484f4814cb04918b74e588f4, type: 3}
    - time: 2.1666667
      value: {fileID: 21300000, guid: f9048cf17bba41047a27a634c9e83ce8, type: 3}
    - time: 2.2
      value: {fileID: 21300000, guid: ee35324452a084745b23c12578207627, type: 3}
    - time: 2.2333333
      value: {fileID: 21300000, guid: 5abb87553f195ba4e8d28e89c3fb6ac5, type: 3}
    - time: 2.2666667
      value: {fileID: 21300000, guid: 9449244287124a243902807ee84395c9, type: 3}
    - time: 2.3
      value: {fileID: 21300000, guid: 5ccfbc76b1534ad4dbe6383c0f1236c3, type: 3}
    - time: 2.3333333
      value: {fileID: 21300000, guid: 7a96a05fad312b94f989c5d1f72550f1, type: 3}
    - time: 2.3666666
      value: {fileID: 21300000, guid: cc48b2ee0b36068449b12bf9792251c7, type: 3}
    - time: 2.4
      value: {fileID: 21300000, guid: eeb47b490ce2d1341bfb210692661319, type: 3}
    - time: 2.4333334
      value: {fileID: 21300000, guid: 6a5aa9906b01e33418ab3666b6931d2d, type: 3}
    - time: 2.4666667
      value: {fileID: 21300000, guid: 73507b2a0fb51ec40b8da1896f1b0695, type: 3}
    - time: 2.5
      value: {fileID: 21300000, guid: 86c6043dd678cd148a9c3c7b6435f605, type: 3}
    - time: 2.5333333
      value: {fileID: 21300000, guid: 0e2618b4a98a3a549ac64c29e10c973c, type: 3}
    - time: 2.5666666
      value: {fileID: 21300000, guid: 829ff75402b0d37459195488e68cc832, type: 3}
    - time: 2.6
      value: {fileID: 21300000, guid: 46416a9fb1af9524d9a32d063848cce1, type: 3}
    - time: 2.6333334
      value: {fileID: 21300000, guid: 0fe0855d94ebffc49bcaf10c7d03301b, type: 3}
    - time: 2.6666667
      value: {fileID: 21300000, guid: 08ed9f516c909b44eba9026f02558b85, type: 3}
    - time: 2.7
      value: {fileID: 21300000, guid: 75ef4a5487f39e6459fb892cac0ed02e, type: 3}
    - time: 2.7333333
      value: {fileID: 21300000, guid: f8338a444062bed4fb6697c92f259500, type: 3}
    - time: 2.7666667
      value: {fileID: 21300000, guid: 1110706405e7eb944b6bdd3fcf39f102, type: 3}
    - time: 2.8
      value: {fileID: 21300000, guid: c4b99a388b650e54896f254b0b5d6e7f, type: 3}
    - time: 2.8333333
      value: {fileID: 21300000, guid: f8ce3a0c648241a459af8e6e18d7e41a, type: 3}
    - time: 2.8666666
      value: {fileID: 21300000, guid: 5903cad81b874264eb219e1428c55a3e, type: 3}
    - time: 2.9
      value: {fileID: 21300000, guid: 12b808be70aa93648b0b609559d6b63c, type: 3}
    - time: 2.9333334
      value: {fileID: 21300000, guid: 06030d2ed187f1240a4698cac7414812, type: 3}
    - time: 2.9666667
      value: {fileID: 21300000, guid: 25cb0e99ff03077419aa6a3d50c03162, type: 3}
    - time: 3
      value: {fileID: 21300000, guid: fb033edb9243d7e4eb76cd3b970c869f, type: 3}
    - time: 3.0333333
      value: {fileID: 21300000, guid: c604c5f0de8e09344a619f2cfb02d402, type: 3}
    - time: 3.0666666
      value: {fileID: 21300000, guid: 6e6cc4cdfa323dc419caa4a2362d4d0b, type: 3}
    - time: 3.1
      value: {fileID: 21300000, guid: ff24e90c2fbf5ab46bb72c5e9b0d9b89, type: 3}
    - time: 3.1333334
      value: {fileID: 21300000, guid: dc081f60180f1f74ca6679d20e506e15, type: 3}
    - time: 3.1666667
      value: {fileID: 21300000, guid: de2dc3b2bbd73594899aeee252ead52e, type: 3}
    - time: 3.2
      value: {fileID: 21300000, guid: c46bd4c5ca4c1754aa019daeb6e056c7, type: 3}
    - time: 3.2333333
      value: {fileID: 21300000, guid: ff9b0d6b79c484e419a32005dc016c63, type: 3}
    - time: 3.2666667
      value: {fileID: 21300000, guid: 434d54649dffca44fa60f0e268c0a310, type: 3}
    - time: 3.3
      value: {fileID: 21300000, guid: 6ccbd90ab12668743992e676242ed08b, type: 3}
    - time: 3.3333333
      value: {fileID: 21300000, guid: 284d14747815b6d41b6db52d4d247a11, type: 3}
    attribute: m_Sprite
    path: 
    classID: 212
    script: {fileID: 0}
  m_SampleRate: 30
  m_WrapMode: 0
  m_Bounds:
    m_Center: {x: 0, y: 0, z: 0}
    m_Extent: {x: 0, y: 0, z: 0}
  m_ClipBindingConstant:
    genericBindings:
    - serializedVersion: 2
      path: 0
      attribute: 0
      script: {fileID: 0}
      typeID: 212
      customType: 23
      isPPtrCurve: 1
    pptrCurveMapping:
    - {fileID: 21300000, guid: 3a3897ef925eec445a02e23aefbd421b, type: 3}
    - {fileID: 21300000, guid: 1622063d6b1fbe8498ea01821ec87be9, type: 3}
    - {fileID: 21300000, guid: dc20ae22f5df2fd4b99d0a018cfcee3f, type: 3}
    - {fileID: 21300000, guid: d4a6607f2ac2ed04a97e459c0efa29b0, type: 3}
    - {fileID: 21300000, guid: 0eaf0243adf0a80428d23109d530e04b, type: 3}
    - {fileID: 21300000, guid: 1f660ee8dea52044bbdccce0c8d877b8, type: 3}
    - {fileID: 21300000, guid: 49c9d77d01088b043860bd228f5305da, type: 3}
    - {fileID: 21300000, guid: b617277a03a50b6438a61bdce6f55074, type: 3}
    - {fileID: 21300000, guid: 25f89535853d5d84da418d5c9e6be496, type: 3}
    - {fileID: 21300000, guid: c3376d1eeab9c3b47a86331e1d9c7260, type: 3}
    - {fileID: 21300000, guid: 69abf5d71169efb4ebbd691d81c18893, type: 3}
    - {fileID: 21300000, guid: 0446d61b885b63d47aa149e1f4f5d6b6, type: 3}
    - {fileID: 21300000, guid: 7aa2dce187b28d74496e805a44af1b1f, type: 3}
    - {fileID: 21300000, guid: 2be6ff8df541be94ebfb702726bb1a30, type: 3}
    - {fileID: 21300000, guid: 183771d4c9ec2514d87951f0c96e16b8, type: 3}
    - {fileID: 21300000, guid: a6e0d10e0e6cfaf4883a7eb15c069e0a, type: 3}
    - {fileID: 21300000, guid: 4e8788e0de1ae7345bf8ab05a141d304, type: 3}
    - {fileID: 21300000, guid: c3e4bf588bd6db54b8134b3ac009e3f9, type: 3}
    - {fileID: 21300000, guid: c4b1695a29ceb434699296ac110e924b, type: 3}
    - {fileID: 21300000, guid: 4da087ccf4381f44a912f10bfce57a22, type: 3}
    - {fileID: 21300000, guid: f71b6ec60689f3a41b664ff69e78590e, type: 3}
    - {fileID: 21300000, guid: 1c7c284fd7a960e47901b55508c92756, type: 3}
    - {fileID: 21300000, guid: dd9b62fa250e3394cb22da4f7b197ce3, type: 3}
    - {fileID: 21300000, guid: b209b4e75c3567f4cbf054657e01ca1f, type: 3}
    - {fileID: 21300000, guid: 6ecbbdbd88ec3534798237cef539d12b, type: 3}
    - {fileID: 21300000, guid: 250f8e40ccebb0a48ae8327a941b5dcb, type: 3}
    - {fileID: 21300000, guid: a226319ccbf198540ba8fb408ee84f22, type: 3}
    - {fileID: 21300000, guid: 0efd0a7df961f7240b29825838868f5c, type: 3}
    - {fileID: 21300000, guid: 1f212031c409a114694faac823d5555a, type: 3}
    - {fileID: 21300000, guid: a57d06e243824ff439d10e5ce7bc8b85, type: 3}
    - {fileID: 21300000, guid: e9e9bcbbbea47704d909bb48d8817171, type: 3}
    - {fileID: 21300000, guid: 56c2f4a44e0fd1049acf47d82f4f3dde, type: 3}
    - {fileID: 21300000, guid: f25a8dfd88d8d9f4a96576c4489f0aea, type: 3}
    - {fileID: 21300000, guid: ae5f3c192c1603c4688dcc5d877c089a, type: 3}
    - {fileID: 21300000, guid: 30d60e36d25df734099164c0504cb1d8, type: 3}
    - {fileID: 21300000, guid: 6a10d67213dd2c343b1589f14ee226e1, type: 3}
    - {fileID: 21300000, guid: 5498ac40616da51478f72d14d743b496, type: 3}
    - {fileID: 21300000, guid: c586d20553abf9444bfdb75e493fb377, type: 3}
    - {fileID: 21300000, guid: cd025ac6239c52a4eab3f2145d93e449, type: 3}
    - {fileID: 21300000, guid: d971350601251ac429b97c42ff034b5c, type: 3}
    - {fileID: 21300000, guid: fe8cc882f0df7ee4d9e3e82d9e7ad949, type: 3}
    - {fileID: 21300000, guid: c53494e057a58ba438278566c7535bd0, type: 3}
    - {fileID: 21300000, guid: d108f4e8209e2894d814c7d5faac525f, type: 3}
    - {fileID: 21300000, guid: 0ddd5cfb1d1565947bbb490ab0fed952, type: 3}
    - {fileID: 21300000, guid: e10af70cc5bd58c45b1a28b448f4421b, type: 3}
    - {fileID: 21300000, guid: 43a9ea8f080e9c84ab9a1c1afc826ea8, type: 3}
    - {fileID: 21300000, guid: a77c7b93e6e59714f8579538d63d4c05, type: 3}
    - {fileID: 21300000, guid: 65212b34a6a629347a574a6b188fc814, type: 3}
    - {fileID: 21300000, guid: f731542c3f1b96e4fa8987ba30f86c8b, type: 3}
    - {fileID: 21300000, guid: 6ac47da907f7b634cb6978665c37fdf2, type: 3}
    - {fileID: 21300000, guid: b0c236e6deb126e4799d79138a6acf8f, type: 3}
    - {fileID: 21300000, guid: 1a5cd105ae871d04ebd08ad9c750e75c, type: 3}
    - {fileID: 21300000, guid: a45b317762589dc45b359a260a2d0e3a, type: 3}
    - {fileID: 21300000, guid: 6babe97eafd729e41b4b523eb51282bd, type: 3}
    - {fileID: 21300000, guid: 4156c6db2186de04eabea83dd2b839cd, type: 3}
    - {fileID: 21300000, guid: 60a7c7ef57e38af45a051deb3f0437a1, type: 3}
    - {fileID: 21300000, guid: 19c285a4a5aec8d40a591818d5cf90ea, type: 3}
    - {fileID: 21300000, guid: 9b523cad9c8d8d7499c621c2ff1edbbb, type: 3}
    - {fileID: 21300000, guid: 7e73a18d12606e044bbe2f60eeb51c5d, type: 3}
    - {fileID: 21300000, guid: 38d986ede27424540ac3a7123b2cce39, type: 3}
    - {fileID: 21300000, guid: f35f62576bf45c740b14cd1c031f4ee5, type: 3}
    - {fileID: 21300000, guid: fbab5199706898649bc17dd628380ea0, type: 3}
    - {fileID: 21300000, guid: c143e7bd588e9924c8d1c2e29fdfbec8, type: 3}
    - {fileID: 21300000, guid: d0fcbee87d0d62c4c853a440c033dac0, type: 3}
    - {fileID: 21300000, guid: 5fa4562e484f4814cb04918b74e588f4, type: 3}
    - {fileID: 21300000, guid: f9048cf17bba41047a27a634c9e83ce8, type: 3}
    - {fileID: 21300000, guid: ee35324452a084745b23c12578207627, type: 3}
    - {fileID: 21300000, guid: 5abb87553f195ba4e8d28e89c3fb6ac5, type: 3}
    - {fileID: 21300000, guid: 9449244287124a243902807ee84395c9, type: 3}
    - {fileID: 21300000, guid: 5ccfbc76b1534ad4dbe6383c0f1236c3, type: 3}
    - {fileID: 21300000, guid: 7a96a05fad312b94f989c5d1f72550f1, type: 3}
    - {fileID: 21300000, guid: cc48b2ee0b36068449b12bf9792251c7, type: 3}
    - {fileID: 21300000, guid: eeb47b490ce2d1341bfb210692661319, type: 3}
    - {fileID: 21300000, guid: 6a5aa9906b01e33418ab3666b6931d2d, type: 3}
    - {fileID: 21300000, guid: 73507b2a0fb51ec40b8da1896f1b0695, type: 3}
    - {fileID: 21300000, guid: 86c6043dd678cd148a9c3c7b6435f605, type: 3}
    - {fileID: 21300000, guid: 0e2618b4a98a3a549ac64c29e10c973c, type: 3}
    - {fileID: 21300000, guid: 829ff75402b0d37459195488e68cc832, type: 3}
    - {fileID: 21300000, guid: 46416a9fb1af9524d9a32d063848cce1, type: 3}
    - {fileID: 21300000, guid: 0fe0855d94ebffc49bcaf10c7d03301b, type: 3}
    - {fileID: 21300000, guid: 08ed9f516c909b44eba9026f02558b85, type: 3}
    - {fileID: 21300000, guid: 75ef4a5487f39e6459fb892cac0ed02e, type: 3}
    - {fileID: 21300000, guid: f8338a444062bed4fb6697c92f259500, type: 3}
    - {fileID: 21300000, guid: 1110706405e7eb944b6bdd3fcf39f102, type: 3}
    - {fileID: 21300000, guid: c4b99a388b650e54896f254b0b5d6e7f, type: 3}
    - {fileID: 21300000, guid: f8ce3a0c648241a459af8e6e18d7e41a, type: 3}
    - {fileID: 21300000, guid: 5903cad81b874264eb219e1428c55a3e, type: 3}
    - {fileID: 21300000, guid: 12b808be70aa93648b0b609559d6b63c, type: 3}
    - {fileID: 21300000, guid: 06030d2ed187f1240a4698cac7414812, type: 3}
    - {fileID: 21300000, guid: 25cb0e99ff03077419aa6a3d50c03162, type: 3}
    - {fileID: 21300000, guid: fb033edb9243d7e4eb76cd3b970c869f, type: 3}
    - {fileID: 21300000, guid: c604c5f0de8e09344a619f2cfb02d402, type: 3}
    - {fileID: 21300000, guid: 6e6cc4cdfa323dc419caa4a2362d4d0b, type: 3}
    - {fileID: 21300000, guid: ff24e90c2fbf5ab46bb72c5e9b0d9b89, type: 3}
    - {fileID: 21300000, guid: dc081f60180f1f74ca6679d20e506e15, type: 3}
    - {fileID: 21300000, guid: de2dc3b2bbd73594899aeee252ead52e, type: 3}
    - {fileID: 21300000, guid: c46bd4c5ca4c1754aa019daeb6e056c7, type: 3}
    - {fileID: 21300000, guid: ff9b0d6b79c484e419a32005dc016c63, type: 3}
    - {fileID: 21300000, guid: 434d54649dffca44fa60f0e268c0a310, type: 3}
    - {fileID: 21300000, guid: 6ccbd90ab12668743992e676242ed08b, type: 3}
    - {fileID: 21300000, guid: 284d14747815b6d41b6db52d4d247a11, type: 3}
  m_AnimationClipSettings:
    serializedVersion: 2
    m_AdditiveReferencePoseClip: {fileID: 0}
    m_AdditiveReferencePoseTime: 0
    m_StartTime: 0
    m_StopTime: 3.3666666
    m_OrientationOffsetY: 0
    m_Level: 0
    m_CycleOffset: 0
    m_HasAdditiveReferencePose: 0
    m_LoopTime: 1
    m_LoopBlend: 0
    m_LoopBlendOrientation: 0
    m_LoopBlendPositionY: 0
    m_LoopBlendPositionXZ: 0
    m_KeepOriginalOrientation: 0
    m_KeepOriginalPositionY: 1
    m_KeepOriginalPositionXZ: 0
    m_HeightFromFeet: 0
    m_Mirror: 0
  m_EditorCurves: []
  m_EulerEditorCurves: []
  m_HasGenericRootTransform: 0
  m_HasMotionFloatCurves: 0
  m_Events: []
