%YAML 1.1
%TAG !u! tag:unity3d.com,2011:
--- !u!74 &7400000
AnimationClip:
  m_ObjectHideFlags: 0
  m_CorrespondingSourceObject: {fileID: 0}
  m_PrefabInstance: {fileID: 0}
  m_PrefabAsset: {fileID: 0}
  m_Name: Trash_Plastic_Cap7
  serializedVersion: 6
  m_Legacy: 0
  m_Compressed: 0
  m_UseHighQualityCurve: 1
  m_RotationCurves: []
  m_CompressedRotationCurves: []
  m_EulerCurves: []
  m_PositionCurves: []
  m_ScaleCurves: []
  m_FloatCurves: []
  m_PPtrCurves:
  - curve:
    - time: 0
      value: {fileID: 21300000, guid: 0b343cf0ae6af1047b39e11c1b7aa69b, type: 3}
    - time: 0.033333335
      value: {fileID: 21300000, guid: 438638c50b3e4d14a8a31538bc96b2ba, type: 3}
    - time: 0.06666667
      value: {fileID: 21300000, guid: 6d9026a079d979e499fa1d3ebe5a8a6c, type: 3}
    - time: 0.1
      value: {fileID: 21300000, guid: ec48fdf24b2f28840b0f4b868b392902, type: 3}
    - time: 0.13333334
      value: {fileID: 21300000, guid: 0e4e56c4e5fa00145995cc07f6e04f47, type: 3}
    - time: 0.16666667
      value: {fileID: 21300000, guid: 8d17ddd655527dc4381fa0126112cf74, type: 3}
    - time: 0.2
      value: {fileID: 21300000, guid: 909570b08694119418ff625a9284aa9b, type: 3}
    - time: 0.23333333
      value: {fileID: 21300000, guid: fb58fe8b7affe1e49bd5f2b28960f7da, type: 3}
    - time: 0.26666668
      value: {fileID: 21300000, guid: f1f91bb4ddb85394ab2a910b0583a855, type: 3}
    - time: 0.3
      value: {fileID: 21300000, guid: 6bbc97adb9dc02045a34e2fcf88a533b, type: 3}
    - time: 0.33333334
      value: {fileID: 21300000, guid: f8852e816cf362e4385b6b7a280da69a, type: 3}
    - time: 0.36666667
      value: {fileID: 21300000, guid: 0c952e9fd5642234899912eaadad1db8, type: 3}
    - time: 0.4
      value: {fileID: 21300000, guid: edfd9b5f200e8df44bcf8e8a36cfc06a, type: 3}
    - time: 0.43333334
      value: {fileID: 21300000, guid: 5ec5b09aee5f32446994e054a150dff4, type: 3}
    - time: 0.46666667
      value: {fileID: 21300000, guid: 082238f9b5e412e4ea78624c64b32823, type: 3}
    - time: 0.5
      value: {fileID: 21300000, guid: 3a5b92144f6e21d4e835ea1746287a15, type: 3}
    - time: 0.53333336
      value: {fileID: 21300000, guid: 03931c4932603744a86dc447dbab9a42, type: 3}
    - time: 0.56666666
      value: {fileID: 21300000, guid: 0d8c4067596b0d14a84e3e8738a3a72a, type: 3}
    - time: 0.6
      value: {fileID: 21300000, guid: c0c42be2edf6a4c42a32ac9a4a77538a, type: 3}
    - time: 0.6333333
      value: {fileID: 21300000, guid: 6b43b704bdae8ee4586ae2032009e7d6, type: 3}
    - time: 0.6666667
      value: {fileID: 21300000, guid: d929bb8868c34dc46a74c14d06dbe0a8, type: 3}
    - time: 0.7
      value: {fileID: 21300000, guid: 0ad7003b940562a4ab7f5b444edae120, type: 3}
    - time: 0.73333335
      value: {fileID: 21300000, guid: 5d5b65106d075de43a5dbdec62769ca0, type: 3}
    - time: 0.76666665
      value: {fileID: 21300000, guid: 807c7d15c2f202e4dbcb7c04413aa97e, type: 3}
    - time: 0.8
      value: {fileID: 21300000, guid: 27df3a038ac492f4a8cdac5a53f572db, type: 3}
    - time: 0.8333333
      value: {fileID: 21300000, guid: 29fba8f9729759d49a320b4513467e58, type: 3}
    - time: 0.8666667
      value: {fileID: 21300000, guid: 16536e7edc22afe40bc20bb349be37c1, type: 3}
    - time: 0.9
      value: {fileID: 21300000, guid: 9eea575af17aef64e98822e5b1d63b39, type: 3}
    - time: 0.93333334
      value: {fileID: 21300000, guid: c40e5164c7f7bd54197dfb2cc0c66147, type: 3}
    - time: 0.96666664
      value: {fileID: 21300000, guid: f8a07b994bc15fe4f9c005f48b86e9d6, type: 3}
    - time: 1
      value: {fileID: 21300000, guid: 1d634473fe9485448bfa6c23d2e53814, type: 3}
    - time: 1.0333333
      value: {fileID: 21300000, guid: a2b267178dba7e24784426b0b2859216, type: 3}
    - time: 1.0666667
      value: {fileID: 21300000, guid: abdffe2e86c7be44eac6d1297255f0b0, type: 3}
    - time: 1.1
      value: {fileID: 21300000, guid: e16befe68313d5e40887618aa3264b76, type: 3}
    - time: 1.1333333
      value: {fileID: 21300000, guid: af78d7b214468ce44923d375a3183ca0, type: 3}
    - time: 1.1666666
      value: {fileID: 21300000, guid: c47adabd1498f384fb3beb287f0173c0, type: 3}
    - time: 1.2
      value: {fileID: 21300000, guid: 45e3782af7171cc47a1821e9bc31e174, type: 3}
    - time: 1.2333333
      value: {fileID: 21300000, guid: 46e453d0da1c0c348bd8fc3f39c2227f, type: 3}
    - time: 1.2666667
      value: {fileID: 21300000, guid: 0dd6cbd9352fbaa4db0631b9aaa35c15, type: 3}
    - time: 1.3
      value: {fileID: 21300000, guid: 770d1c98cb60d8d4ba7d624b8c813d97, type: 3}
    - time: 1.3333334
      value: {fileID: 21300000, guid: 576f01e6f5ad4fe47a614646d2020a03, type: 3}
    - time: 1.3666667
      value: {fileID: 21300000, guid: cda47ddda28d33b449833c314dd8b0ce, type: 3}
    - time: 1.4
      value: {fileID: 21300000, guid: 4d24b8aab81d8f54ca1d8c0f2ca114b2, type: 3}
    - time: 1.4333333
      value: {fileID: 21300000, guid: 637a18f26ebd33c4f9554bccaa5d5c59, type: 3}
    - time: 1.4666667
      value: {fileID: 21300000, guid: 563b9de4ba39faa4da065c6fb01ad621, type: 3}
    - time: 1.5
      value: {fileID: 21300000, guid: f0c7f5138dcede34fa436bc8fcf2dee3, type: 3}
    - time: 1.5333333
      value: {fileID: 21300000, guid: 693d03d45b3a13c4ea45d92825ae9a21, type: 3}
    - time: 1.5666667
      value: {fileID: 21300000, guid: f727909801d7dbd43bd1df3679f8f448, type: 3}
    - time: 1.6
      value: {fileID: 21300000, guid: 52ce06a820370fd4d968ebcb320597ef, type: 3}
    - time: 1.6333333
      value: {fileID: 21300000, guid: cbb0bf3fce2700e458679c6c07a32853, type: 3}
    - time: 1.6666666
      value: {fileID: 21300000, guid: d7cc5e5993b48b44caa33f682bd428a9, type: 3}
    - time: 1.7
      value: {fileID: 21300000, guid: faf2ac05f5a13d94eb29a4e31ee06423, type: 3}
    - time: 1.7333333
      value: {fileID: 21300000, guid: f9cb260f4094bab4789898ad6de5db93, type: 3}
    - time: 1.7666667
      value: {fileID: 21300000, guid: 8bbeeafb2a4f2cd47afc69d920eed51f, type: 3}
    - time: 1.8
      value: {fileID: 21300000, guid: 40c26efa97625834894e2ba791f7194f, type: 3}
    - time: 1.8333334
      value: {fileID: 21300000, guid: 0010a73aac1456a4e8c1cbd6302e32f8, type: 3}
    - time: 1.8666667
      value: {fileID: 21300000, guid: c11279d145fe53e4090ccd4cf0acad39, type: 3}
    - time: 1.9
      value: {fileID: 21300000, guid: 4a8f431bbc47b0048ba7ac47e558edb2, type: 3}
    - time: 1.9333333
      value: {fileID: 21300000, guid: 8c7ea97def1de484c88118098e409b6e, type: 3}
    - time: 1.9666667
      value: {fileID: 21300000, guid: e36cecfb543210545ace40b2df745627, type: 3}
    - time: 2
      value: {fileID: 21300000, guid: 93e56022660e2514fa255c16711d13c9, type: 3}
    - time: 2.0333333
      value: {fileID: 21300000, guid: d9c5456c266596c4ea10eac7af954568, type: 3}
    - time: 2.0666666
      value: {fileID: 21300000, guid: b849423c06202634c81b95edf597d967, type: 3}
    - time: 2.1
      value: {fileID: 21300000, guid: c7af3c671830e8e48bb76d64dd2541b9, type: 3}
    - time: 2.1333334
      value: {fileID: 21300000, guid: 6a1ad82fd39a9634499e28967ece74de, type: 3}
    - time: 2.1666667
      value: {fileID: 21300000, guid: 86529dc5922e90841a2db6444ff784bd, type: 3}
    - time: 2.2
      value: {fileID: 21300000, guid: 919f100895303d844b6678cd6bf1cee4, type: 3}
    - time: 2.2333333
      value: {fileID: 21300000, guid: 86765741afc3a154caa81a22a0d7df47, type: 3}
    - time: 2.2666667
      value: {fileID: 21300000, guid: 09f30c060e6320d47b3a98ffb6baab6f, type: 3}
    - time: 2.3
      value: {fileID: 21300000, guid: 7b87b76e3d13d91459b0bdcd00afde51, type: 3}
    - time: 2.3333333
      value: {fileID: 21300000, guid: 37a65f4026cabab4bb93b4223cb8bff2, type: 3}
    - time: 2.3666666
      value: {fileID: 21300000, guid: c279cdea23d944049b464cb33d53ebf9, type: 3}
    - time: 2.4
      value: {fileID: 21300000, guid: c6f5d4b1d573c0944b971c1e9a17437c, type: 3}
    - time: 2.4333334
      value: {fileID: 21300000, guid: 240e3f0d113245244a9d9c2a459a3b21, type: 3}
    - time: 2.4666667
      value: {fileID: 21300000, guid: 5f7182d10d57ddd4b9839eb3d91e5f55, type: 3}
    - time: 2.5
      value: {fileID: 21300000, guid: b663b48cf37966f4284d33112980dbdb, type: 3}
    - time: 2.5333333
      value: {fileID: 21300000, guid: 2772dbed0fa37474093ea74bbf829e34, type: 3}
    - time: 2.5666666
      value: {fileID: 21300000, guid: abc901fb2fe04434f88ed2d2dde1c3d3, type: 3}
    - time: 2.6
      value: {fileID: 21300000, guid: 87d7a6147107ce840b30aa2d5f31c322, type: 3}
    - time: 2.6333334
      value: {fileID: 21300000, guid: 3fdcb204b1b23bf4ba14c6a0e8d52242, type: 3}
    - time: 2.6666667
      value: {fileID: 21300000, guid: 9c44f56aab7a7e34180dabea7690f124, type: 3}
    - time: 2.7
      value: {fileID: 21300000, guid: aa288ed7405d25a42a7e1e9428a82303, type: 3}
    - time: 2.7333333
      value: {fileID: 21300000, guid: 0e66bf2a92d54fc4fabd77f59064d7dc, type: 3}
    - time: 2.7666667
      value: {fileID: 21300000, guid: 562a6a802d3c62c45a44439c567f6aa8, type: 3}
    - time: 2.8
      value: {fileID: 21300000, guid: 4b93d5a44d0e59c4b9f345b5fb49fef9, type: 3}
    - time: 2.8333333
      value: {fileID: 21300000, guid: 3abd45a57a2ed9a4da5c8a2b72dba1d9, type: 3}
    - time: 2.8666666
      value: {fileID: 21300000, guid: 3a6e4a2ef6ea37c458bc788c0775da0f, type: 3}
    - time: 2.9
      value: {fileID: 21300000, guid: ba0fe53e090c5734dbf38150939318dc, type: 3}
    - time: 2.9333334
      value: {fileID: 21300000, guid: 3bb6fb53e695a6a4a932fa036e8b5a03, type: 3}
    - time: 2.9666667
      value: {fileID: 21300000, guid: df46c7f1b9ebe7b499653590839e5113, type: 3}
    - time: 3
      value: {fileID: 21300000, guid: 6cf806c2e6fd3174289b8312ee166233, type: 3}
    - time: 3.0333333
      value: {fileID: 21300000, guid: 294d96ed7e31f7e459f35314c97bcd4b, type: 3}
    - time: 3.0666666
      value: {fileID: 21300000, guid: 29aa9c0d85194e54c8f86c71fb2a2ece, type: 3}
    - time: 3.1
      value: {fileID: 21300000, guid: f943dc46a82663f45ae21a8a32ba290f, type: 3}
    - time: 3.1333334
      value: {fileID: 21300000, guid: a78e74cae31ba7840bb4404526c93821, type: 3}
    - time: 3.1666667
      value: {fileID: 21300000, guid: f01f60aaacf9582499bbc1c48f1a4cfa, type: 3}
    - time: 3.2
      value: {fileID: 21300000, guid: 13824c7815144784997a9180b0557eed, type: 3}
    - time: 3.2333333
      value: {fileID: 21300000, guid: 63ef69e1049115946ac19aee9ad58039, type: 3}
    - time: 3.2666667
      value: {fileID: 21300000, guid: 0b80c281462b3f04bae65f0969b73dc5, type: 3}
    - time: 3.3
      value: {fileID: 21300000, guid: 7673b084401dc2d4fb3e56495747749a, type: 3}
    - time: 3.3333333
      value: {fileID: 21300000, guid: 08486fdad25011f49bc25140f5a6a5a8, type: 3}
    attribute: m_Sprite
    path: 
    classID: 212
    script: {fileID: 0}
  m_SampleRate: 30
  m_WrapMode: 0
  m_Bounds:
    m_Center: {x: 0, y: 0, z: 0}
    m_Extent: {x: 0, y: 0, z: 0}
  m_ClipBindingConstant:
    genericBindings:
    - serializedVersion: 2
      path: 0
      attribute: 0
      script: {fileID: 0}
      typeID: 212
      customType: 23
      isPPtrCurve: 1
    pptrCurveMapping:
    - {fileID: 21300000, guid: 0b343cf0ae6af1047b39e11c1b7aa69b, type: 3}
    - {fileID: 21300000, guid: 438638c50b3e4d14a8a31538bc96b2ba, type: 3}
    - {fileID: 21300000, guid: 6d9026a079d979e499fa1d3ebe5a8a6c, type: 3}
    - {fileID: 21300000, guid: ec48fdf24b2f28840b0f4b868b392902, type: 3}
    - {fileID: 21300000, guid: 0e4e56c4e5fa00145995cc07f6e04f47, type: 3}
    - {fileID: 21300000, guid: 8d17ddd655527dc4381fa0126112cf74, type: 3}
    - {fileID: 21300000, guid: 909570b08694119418ff625a9284aa9b, type: 3}
    - {fileID: 21300000, guid: fb58fe8b7affe1e49bd5f2b28960f7da, type: 3}
    - {fileID: 21300000, guid: f1f91bb4ddb85394ab2a910b0583a855, type: 3}
    - {fileID: 21300000, guid: 6bbc97adb9dc02045a34e2fcf88a533b, type: 3}
    - {fileID: 21300000, guid: f8852e816cf362e4385b6b7a280da69a, type: 3}
    - {fileID: 21300000, guid: 0c952e9fd5642234899912eaadad1db8, type: 3}
    - {fileID: 21300000, guid: edfd9b5f200e8df44bcf8e8a36cfc06a, type: 3}
    - {fileID: 21300000, guid: 5ec5b09aee5f32446994e054a150dff4, type: 3}
    - {fileID: 21300000, guid: 082238f9b5e412e4ea78624c64b32823, type: 3}
    - {fileID: 21300000, guid: 3a5b92144f6e21d4e835ea1746287a15, type: 3}
    - {fileID: 21300000, guid: 03931c4932603744a86dc447dbab9a42, type: 3}
    - {fileID: 21300000, guid: 0d8c4067596b0d14a84e3e8738a3a72a, type: 3}
    - {fileID: 21300000, guid: c0c42be2edf6a4c42a32ac9a4a77538a, type: 3}
    - {fileID: 21300000, guid: 6b43b704bdae8ee4586ae2032009e7d6, type: 3}
    - {fileID: 21300000, guid: d929bb8868c34dc46a74c14d06dbe0a8, type: 3}
    - {fileID: 21300000, guid: 0ad7003b940562a4ab7f5b444edae120, type: 3}
    - {fileID: 21300000, guid: 5d5b65106d075de43a5dbdec62769ca0, type: 3}
    - {fileID: 21300000, guid: 807c7d15c2f202e4dbcb7c04413aa97e, type: 3}
    - {fileID: 21300000, guid: 27df3a038ac492f4a8cdac5a53f572db, type: 3}
    - {fileID: 21300000, guid: 29fba8f9729759d49a320b4513467e58, type: 3}
    - {fileID: 21300000, guid: 16536e7edc22afe40bc20bb349be37c1, type: 3}
    - {fileID: 21300000, guid: 9eea575af17aef64e98822e5b1d63b39, type: 3}
    - {fileID: 21300000, guid: c40e5164c7f7bd54197dfb2cc0c66147, type: 3}
    - {fileID: 21300000, guid: f8a07b994bc15fe4f9c005f48b86e9d6, type: 3}
    - {fileID: 21300000, guid: 1d634473fe9485448bfa6c23d2e53814, type: 3}
    - {fileID: 21300000, guid: a2b267178dba7e24784426b0b2859216, type: 3}
    - {fileID: 21300000, guid: abdffe2e86c7be44eac6d1297255f0b0, type: 3}
    - {fileID: 21300000, guid: e16befe68313d5e40887618aa3264b76, type: 3}
    - {fileID: 21300000, guid: af78d7b214468ce44923d375a3183ca0, type: 3}
    - {fileID: 21300000, guid: c47adabd1498f384fb3beb287f0173c0, type: 3}
    - {fileID: 21300000, guid: 45e3782af7171cc47a1821e9bc31e174, type: 3}
    - {fileID: 21300000, guid: 46e453d0da1c0c348bd8fc3f39c2227f, type: 3}
    - {fileID: 21300000, guid: 0dd6cbd9352fbaa4db0631b9aaa35c15, type: 3}
    - {fileID: 21300000, guid: 770d1c98cb60d8d4ba7d624b8c813d97, type: 3}
    - {fileID: 21300000, guid: 576f01e6f5ad4fe47a614646d2020a03, type: 3}
    - {fileID: 21300000, guid: cda47ddda28d33b449833c314dd8b0ce, type: 3}
    - {fileID: 21300000, guid: 4d24b8aab81d8f54ca1d8c0f2ca114b2, type: 3}
    - {fileID: 21300000, guid: 637a18f26ebd33c4f9554bccaa5d5c59, type: 3}
    - {fileID: 21300000, guid: 563b9de4ba39faa4da065c6fb01ad621, type: 3}
    - {fileID: 21300000, guid: f0c7f5138dcede34fa436bc8fcf2dee3, type: 3}
    - {fileID: 21300000, guid: 693d03d45b3a13c4ea45d92825ae9a21, type: 3}
    - {fileID: 21300000, guid: f727909801d7dbd43bd1df3679f8f448, type: 3}
    - {fileID: 21300000, guid: 52ce06a820370fd4d968ebcb320597ef, type: 3}
    - {fileID: 21300000, guid: cbb0bf3fce2700e458679c6c07a32853, type: 3}
    - {fileID: 21300000, guid: d7cc5e5993b48b44caa33f682bd428a9, type: 3}
    - {fileID: 21300000, guid: faf2ac05f5a13d94eb29a4e31ee06423, type: 3}
    - {fileID: 21300000, guid: f9cb260f4094bab4789898ad6de5db93, type: 3}
    - {fileID: 21300000, guid: 8bbeeafb2a4f2cd47afc69d920eed51f, type: 3}
    - {fileID: 21300000, guid: 40c26efa97625834894e2ba791f7194f, type: 3}
    - {fileID: 21300000, guid: 0010a73aac1456a4e8c1cbd6302e32f8, type: 3}
    - {fileID: 21300000, guid: c11279d145fe53e4090ccd4cf0acad39, type: 3}
    - {fileID: 21300000, guid: 4a8f431bbc47b0048ba7ac47e558edb2, type: 3}
    - {fileID: 21300000, guid: 8c7ea97def1de484c88118098e409b6e, type: 3}
    - {fileID: 21300000, guid: e36cecfb543210545ace40b2df745627, type: 3}
    - {fileID: 21300000, guid: 93e56022660e2514fa255c16711d13c9, type: 3}
    - {fileID: 21300000, guid: d9c5456c266596c4ea10eac7af954568, type: 3}
    - {fileID: 21300000, guid: b849423c06202634c81b95edf597d967, type: 3}
    - {fileID: 21300000, guid: c7af3c671830e8e48bb76d64dd2541b9, type: 3}
    - {fileID: 21300000, guid: 6a1ad82fd39a9634499e28967ece74de, type: 3}
    - {fileID: 21300000, guid: 86529dc5922e90841a2db6444ff784bd, type: 3}
    - {fileID: 21300000, guid: 919f100895303d844b6678cd6bf1cee4, type: 3}
    - {fileID: 21300000, guid: 86765741afc3a154caa81a22a0d7df47, type: 3}
    - {fileID: 21300000, guid: 09f30c060e6320d47b3a98ffb6baab6f, type: 3}
    - {fileID: 21300000, guid: 7b87b76e3d13d91459b0bdcd00afde51, type: 3}
    - {fileID: 21300000, guid: 37a65f4026cabab4bb93b4223cb8bff2, type: 3}
    - {fileID: 21300000, guid: c279cdea23d944049b464cb33d53ebf9, type: 3}
    - {fileID: 21300000, guid: c6f5d4b1d573c0944b971c1e9a17437c, type: 3}
    - {fileID: 21300000, guid: 240e3f0d113245244a9d9c2a459a3b21, type: 3}
    - {fileID: 21300000, guid: 5f7182d10d57ddd4b9839eb3d91e5f55, type: 3}
    - {fileID: 21300000, guid: b663b48cf37966f4284d33112980dbdb, type: 3}
    - {fileID: 21300000, guid: 2772dbed0fa37474093ea74bbf829e34, type: 3}
    - {fileID: 21300000, guid: abc901fb2fe04434f88ed2d2dde1c3d3, type: 3}
    - {fileID: 21300000, guid: 87d7a6147107ce840b30aa2d5f31c322, type: 3}
    - {fileID: 21300000, guid: 3fdcb204b1b23bf4ba14c6a0e8d52242, type: 3}
    - {fileID: 21300000, guid: 9c44f56aab7a7e34180dabea7690f124, type: 3}
    - {fileID: 21300000, guid: aa288ed7405d25a42a7e1e9428a82303, type: 3}
    - {fileID: 21300000, guid: 0e66bf2a92d54fc4fabd77f59064d7dc, type: 3}
    - {fileID: 21300000, guid: 562a6a802d3c62c45a44439c567f6aa8, type: 3}
    - {fileID: 21300000, guid: 4b93d5a44d0e59c4b9f345b5fb49fef9, type: 3}
    - {fileID: 21300000, guid: 3abd45a57a2ed9a4da5c8a2b72dba1d9, type: 3}
    - {fileID: 21300000, guid: 3a6e4a2ef6ea37c458bc788c0775da0f, type: 3}
    - {fileID: 21300000, guid: ba0fe53e090c5734dbf38150939318dc, type: 3}
    - {fileID: 21300000, guid: 3bb6fb53e695a6a4a932fa036e8b5a03, type: 3}
    - {fileID: 21300000, guid: df46c7f1b9ebe7b499653590839e5113, type: 3}
    - {fileID: 21300000, guid: 6cf806c2e6fd3174289b8312ee166233, type: 3}
    - {fileID: 21300000, guid: 294d96ed7e31f7e459f35314c97bcd4b, type: 3}
    - {fileID: 21300000, guid: 29aa9c0d85194e54c8f86c71fb2a2ece, type: 3}
    - {fileID: 21300000, guid: f943dc46a82663f45ae21a8a32ba290f, type: 3}
    - {fileID: 21300000, guid: a78e74cae31ba7840bb4404526c93821, type: 3}
    - {fileID: 21300000, guid: f01f60aaacf9582499bbc1c48f1a4cfa, type: 3}
    - {fileID: 21300000, guid: 13824c7815144784997a9180b0557eed, type: 3}
    - {fileID: 21300000, guid: 63ef69e1049115946ac19aee9ad58039, type: 3}
    - {fileID: 21300000, guid: 0b80c281462b3f04bae65f0969b73dc5, type: 3}
    - {fileID: 21300000, guid: 7673b084401dc2d4fb3e56495747749a, type: 3}
    - {fileID: 21300000, guid: 08486fdad25011f49bc25140f5a6a5a8, type: 3}
  m_AnimationClipSettings:
    serializedVersion: 2
    m_AdditiveReferencePoseClip: {fileID: 0}
    m_AdditiveReferencePoseTime: 0
    m_StartTime: 0
    m_StopTime: 3.3666666
    m_OrientationOffsetY: 0
    m_Level: 0
    m_CycleOffset: 0
    m_HasAdditiveReferencePose: 0
    m_LoopTime: 1
    m_LoopBlend: 0
    m_LoopBlendOrientation: 0
    m_LoopBlendPositionY: 0
    m_LoopBlendPositionXZ: 0
    m_KeepOriginalOrientation: 0
    m_KeepOriginalPositionY: 1
    m_KeepOriginalPositionXZ: 0
    m_HeightFromFeet: 0
    m_Mirror: 0
  m_EditorCurves: []
  m_EulerEditorCurves: []
  m_HasGenericRootTransform: 0
  m_HasMotionFloatCurves: 0
  m_Events: []
