%YAML 1.1
%TAG !u! tag:unity3d.com,2011:
--- !u!114 &11400000
MonoBehaviour:
  m_ObjectHideFlags: 0
  m_CorrespondingSourceObject: {fileID: 0}
  m_PrefabInstance: {fileID: 0}
  m_PrefabAsset: {fileID: 0}
  m_GameObject: {fileID: 0}
  m_Enabled: 1
  m_EditorHideFlags: 0
  m_Script: {fileID: 11500000, guid: a461a1582c1e67c4b8cf1ff7f5752718, type: 3}
  m_Name: Scene5_3_Equlity_Failed
  m_EditorClassIdentifier: 
  movieName: 011B
  sceneLength: 9
  loop: 0
  waitForOperator: 0
  minimumCorrectAnswersForRoundSuccess: 1
  nextMovies:
  - {fileID: 11400000, guid: b32bb1c20c8700c458c86ec0d4b04494, type: 2}
  prefabToCreate: {fileID: 0}
  delayInPrefabCreation: -1
  useScoreToDetermindBranch: 0
  triviaInfo:
    questionId: 
    maxYearsToReduce: 0
    totalQuestionsInRound: 0
    totalQuestionTime: 0
