%YAML 1.1
%TAG !u! tag:unity3d.com,2011:
--- !u!114 &11400000
MonoBehaviour:
  m_ObjectHideFlags: 0
  m_CorrespondingSourceObject: {fileID: 0}
  m_PrefabInstance: {fileID: 0}
  m_PrefabAsset: {fileID: 0}
  m_GameObject: {fileID: 0}
  m_Enabled: 1
  m_EditorHideFlags: 0
  m_Script: {fileID: 11500000, guid: a461a1582c1e67c4b8cf1ff7f5752718, type: 3}
  m_Name: Scene4_1_HyperLoop
  m_EditorClassIdentifier: 
  movieName: 007+C+009
  sceneLength: 73
  loop: 0
  waitForOperator: 0
  minimumCorrectAnswersForRoundSuccess: 1
  nextMovies:
  - {fileID: 11400000, guid: 84c283650eb9a1349ba74884c6e05192, type: 2}
  - {fileID: 11400000, guid: 84c283650eb9a1349ba74884c6e05192, type: 2}
  prefabToCreate: {fileID: 972225922058522350, guid: 133b51a7cd599bc4183cb0cf5a2b8338,
    type: 3}
  delayInPrefabCreation: -1
  useScoreToDetermindBranch: 0
  triviaInfo:
    questionId: 
    maxYearsToReduce: 0
    totalQuestionsInRound: 0
    totalQuestionTime: 0
