%YAML 1.1
%TAG !u! tag:unity3d.com,2011:
--- !u!114 &11400000
MonoBehaviour:
  m_ObjectHideFlags: 0
  m_CorrespondingSourceObject: {fileID: 0}
  m_PrefabInstance: {fileID: 0}
  m_PrefabAsset: {fileID: 0}
  m_GameObject: {fileID: 0}
  m_Enabled: 1
  m_EditorHideFlags: 0
  m_Script: {fileID: 11500000, guid: a461a1582c1e67c4b8cf1ff7f5752718, type: 3}
  m_Name: Scene2_AiTalking
  m_EditorClassIdentifier: 
  movieName: 2A_4A
  sceneLength: 145
  loop: 0
  waitForOperator: 0
  minimumCorrectAnswersForRoundSuccess: 1
  nextMovies:
  - {fileID: 11400000, guid: 99575a19e7badd54787b7c9b92d8a07b, type: 2}
  - {fileID: 11400000, guid: 99575a19e7badd54787b7c9b92d8a07b, type: 2}
  prefabToCreate: {fileID: 6863092069356100348, guid: d56d1dcafa9043849a473482fa70d465,
    type: 3}
  delayInPrefabCreation: -1
  useScoreToDetermindBranch: 0
  triviaInfo:
    questionId: 
    maxYearsToReduce: 0
    totalQuestionsInRound: 0
    totalQuestionTime: 0
