%YAML 1.1
%TAG !u! tag:unity3d.com,2011:
--- !u!114 &11400000
MonoBehaviour:
  m_ObjectHideFlags: 0
  m_CorrespondingSourceObject: {fileID: 0}
  m_PrefabInstance: {fileID: 0}
  m_PrefabAsset: {fileID: 0}
  m_GameObject: {fileID: 0}
  m_Enabled: 1
  m_EditorHideFlags: 0
  m_Script: {fileID: 11500000, guid: a461a1582c1e67c4b8cf1ff7f5752718, type: 3}
  m_Name: Scene3_3_Climate_Won2
  m_EditorClassIdentifier: 
  movieName: 005A
  sceneLength: 11.5
  loop: 0
  waitForOperator: 0
  minimumCorrectAnswersForRoundSuccess: 1
  nextMovies:
  - {fileID: 11400000, guid: 31bb4930d053c9a43a8be3c51799db6b, type: 2}
  - {fileID: 11400000, guid: 31bb4930d053c9a43a8be3c51799db6b, type: 2}
  prefabToCreate: {fileID: 2233920139218138759, guid: 826b4e0d36c105945ac8770c87e26937,
    type: 3}
  delayInPrefabCreation: -1
  useScoreToDetermindBranch: 0
  triviaInfo:
    questionId: 
    maxYearsToReduce: 0
    totalQuestionsInRound: 0
    totalQuestionTime: 0
