%YAML 1.1
%TAG !u! tag:unity3d.com,2011:
--- !u!1001 &99196209548428214
PrefabInstance:
  m_ObjectHideFlags: 0
  serializedVersion: 2
  m_Modification:
    m_TransformParent: {fileID: 0}
    m_Modifications:
    - target: {fileID: 4007652648146903231, guid: b531381bd74305640804d5222bce4f97,
        type: 3}
      propertyPath: m_Name
      value: KidsNewBonusRound Variant
      objectReference: {fileID: 0}
    - target: {fileID: 4007652648146903231, guid: b531381bd74305640804d5222bce4f97,
        type: 3}
      propertyPath: m_IsActive
      value: 1
      objectReference: {fileID: 0}
    - target: {fileID: 8232233047561783362, guid: b531381bd74305640804d5222bce4f97,
        type: 3}
      propertyPath: m_RootOrder
      value: 0
      objectReference: {fileID: 0}
    - target: {fileID: 8232233047561783362, guid: b531381bd74305640804d5222bce4f97,
        type: 3}
      propertyPath: m_LocalRotation.x
      value: -0
      objectReference: {fileID: 0}
    - target: {fileID: 8232233047561783362, guid: b531381bd74305640804d5222bce4f97,
        type: 3}
      propertyPath: m_LocalRotation.y
      value: -0
      objectReference: {fileID: 0}
    - target: {fileID: 8232233047561783362, guid: b531381bd74305640804d5222bce4f97,
        type: 3}
      propertyPath: m_LocalRotation.z
      value: -0
      objectReference: {fileID: 0}
    - target: {fileID: 4425733565653157792, guid: b531381bd74305640804d5222bce4f97,
        type: 3}
      propertyPath: m_IsActive
      value: 1
      objectReference: {fileID: 0}
    - target: {fileID: 4425733565653157792, guid: b531381bd74305640804d5222bce4f97,
        type: 3}
      propertyPath: m_Name
      value: AudioGameEnds_mute
      objectReference: {fileID: 0}
    - target: {fileID: 8158728316005136760, guid: b531381bd74305640804d5222bce4f97,
        type: 3}
      propertyPath: m_IsActive
      value: 1
      objectReference: {fileID: 0}
    - target: {fileID: 8158728316005136760, guid: b531381bd74305640804d5222bce4f97,
        type: 3}
      propertyPath: m_Name
      value: AudioSceneEndNarration_mute
      objectReference: {fileID: 0}
    - target: {fileID: 2598154325134267880, guid: b531381bd74305640804d5222bce4f97,
        type: 3}
      propertyPath: Mute
      value: 1
      objectReference: {fileID: 0}
    - target: {fileID: 6930799009339351463, guid: b531381bd74305640804d5222bce4f97,
        type: 3}
      propertyPath: Mute
      value: 1
      objectReference: {fileID: 0}
    - target: {fileID: 5996295869645544844, guid: b531381bd74305640804d5222bce4f97,
        type: 3}
      propertyPath: useYearsAsScore
      value: 1
      objectReference: {fileID: 0}
    - target: {fileID: 19428541406362775, guid: b531381bd74305640804d5222bce4f97,
        type: 3}
      propertyPath: m_Mesh
      value: 
      objectReference: {fileID: 0}
    - target: {fileID: 467939781262541724, guid: b531381bd74305640804d5222bce4f97,
        type: 3}
      propertyPath: m_havePropertiesChanged
      value: 0
      objectReference: {fileID: 0}
    - target: {fileID: 467939781262541724, guid: b531381bd74305640804d5222bce4f97,
        type: 3}
      propertyPath: m_isInputParsingRequired
      value: 0
      objectReference: {fileID: 0}
    - target: {fileID: 2527903931450913703, guid: b531381bd74305640804d5222bce4f97,
        type: 3}
      propertyPath: m_Mesh
      value: 
      objectReference: {fileID: 0}
    - target: {fileID: 2527903931450913753, guid: b531381bd74305640804d5222bce4f97,
        type: 3}
      propertyPath: m_havePropertiesChanged
      value: 0
      objectReference: {fileID: 0}
    - target: {fileID: 2527903931450913753, guid: b531381bd74305640804d5222bce4f97,
        type: 3}
      propertyPath: m_isInputParsingRequired
      value: 0
      objectReference: {fileID: 0}
    - target: {fileID: 3948812575837954295, guid: b531381bd74305640804d5222bce4f97,
        type: 3}
      propertyPath: m_havePropertiesChanged
      value: 0
      objectReference: {fileID: 0}
    - target: {fileID: 3948812575837954295, guid: b531381bd74305640804d5222bce4f97,
        type: 3}
      propertyPath: m_isInputParsingRequired
      value: 0
      objectReference: {fileID: 0}
    - target: {fileID: 4882268068001376217, guid: b531381bd74305640804d5222bce4f97,
        type: 3}
      propertyPath: m_Mesh
      value: 
      objectReference: {fileID: 0}
    - target: {fileID: 5342402892736302957, guid: b531381bd74305640804d5222bce4f97,
        type: 3}
      propertyPath: m_havePropertiesChanged
      value: 0
      objectReference: {fileID: 0}
    - target: {fileID: 5342402892736302957, guid: b531381bd74305640804d5222bce4f97,
        type: 3}
      propertyPath: m_isInputParsingRequired
      value: 0
      objectReference: {fileID: 0}
    - target: {fileID: 9161871661891529767, guid: b531381bd74305640804d5222bce4f97,
        type: 3}
      propertyPath: m_Mesh
      value: 
      objectReference: {fileID: 0}
    - target: {fileID: 512222624192695921, guid: b531381bd74305640804d5222bce4f97,
        type: 3}
      propertyPath: m_Mesh
      value: 
      objectReference: {fileID: 0}
    - target: {fileID: 459506853811428354, guid: b531381bd74305640804d5222bce4f97,
        type: 3}
      propertyPath: onAnyStop.m_PersistentCalls.m_Calls.Array.size
      value: 2
      objectReference: {fileID: 0}
    - target: {fileID: 459506853811428354, guid: b531381bd74305640804d5222bce4f97,
        type: 3}
      propertyPath: onAnyStop.m_PersistentCalls.m_Calls.Array.data[1].m_Mode
      value: 4
      objectReference: {fileID: 0}
    - target: {fileID: 459506853811428354, guid: b531381bd74305640804d5222bce4f97,
        type: 3}
      propertyPath: onAnyStop.m_PersistentCalls.m_Calls.Array.data[1].m_CallState
      value: 2
      objectReference: {fileID: 0}
    - target: {fileID: 459506853811428354, guid: b531381bd74305640804d5222bce4f97,
        type: 3}
      propertyPath: onAnyStop.m_PersistentCalls.m_Calls.Array.data[1].m_Target
      value: 
      objectReference: {fileID: 5871115701669694082}
    - target: {fileID: 459506853811428354, guid: b531381bd74305640804d5222bce4f97,
        type: 3}
      propertyPath: onAnyStop.m_PersistentCalls.m_Calls.Array.data[1].m_MethodName
      value: SetLength
      objectReference: {fileID: 0}
    - target: {fileID: 459506853811428354, guid: b531381bd74305640804d5222bce4f97,
        type: 3}
      propertyPath: onAnyStop.m_PersistentCalls.m_Calls.Array.data[1].m_Arguments.m_ObjectArgumentAssemblyTypeName
      value: UnityEngine.Object, UnityEngine
      objectReference: {fileID: 0}
    - target: {fileID: 459506853811428354, guid: b531381bd74305640804d5222bce4f97,
        type: 3}
      propertyPath: onAnyStop.m_PersistentCalls.m_Calls.Array.data[1].m_Arguments.m_FloatArgument
      value: 0.1
      objectReference: {fileID: 0}
    - target: {fileID: 459506853811428354, guid: b531381bd74305640804d5222bce4f97,
        type: 3}
      propertyPath: onAnyStop.m_PersistentCalls.m_Calls.Array.data[2].m_Mode
      value: 4
      objectReference: {fileID: 0}
    - target: {fileID: 459506853811428354, guid: b531381bd74305640804d5222bce4f97,
        type: 3}
      propertyPath: onAnyStop.m_PersistentCalls.m_Calls.Array.data[2].m_CallState
      value: 2
      objectReference: {fileID: 0}
    - target: {fileID: 459506853811428354, guid: b531381bd74305640804d5222bce4f97,
        type: 3}
      propertyPath: onAnyStop.m_PersistentCalls.m_Calls.Array.data[2].m_Target
      value: 
      objectReference: {fileID: 657786622250027075}
    - target: {fileID: 459506853811428354, guid: b531381bd74305640804d5222bce4f97,
        type: 3}
      propertyPath: onAnyStop.m_PersistentCalls.m_Calls.Array.data[2].m_MethodName
      value: SetLength
      objectReference: {fileID: 0}
    - target: {fileID: 459506853811428354, guid: b531381bd74305640804d5222bce4f97,
        type: 3}
      propertyPath: onAnyStop.m_PersistentCalls.m_Calls.Array.data[2].m_Arguments.m_ObjectArgumentAssemblyTypeName
      value: UnityEngine.Object, UnityEngine
      objectReference: {fileID: 0}
    - target: {fileID: 459506853811428354, guid: b531381bd74305640804d5222bce4f97,
        type: 3}
      propertyPath: onAnyStop.m_PersistentCalls.m_Calls.Array.data[2].m_Arguments.m_FloatArgument
      value: 0.05
      objectReference: {fileID: 0}
    - target: {fileID: 1146873987822031975, guid: b531381bd74305640804d5222bce4f97,
        type: 3}
      propertyPath: m_havePropertiesChanged
      value: 0
      objectReference: {fileID: 0}
    - target: {fileID: 1146873987822031975, guid: b531381bd74305640804d5222bce4f97,
        type: 3}
      propertyPath: m_isInputParsingRequired
      value: 0
      objectReference: {fileID: 0}
    - target: {fileID: 2255308088929598562, guid: b531381bd74305640804d5222bce4f97,
        type: 3}
      propertyPath: m_Mesh
      value: 
      objectReference: {fileID: 0}
    - target: {fileID: 2290237806866590687, guid: b531381bd74305640804d5222bce4f97,
        type: 3}
      propertyPath: m_IsActive
      value: 0
      objectReference: {fileID: 0}
    - target: {fileID: 3126033699749632948, guid: b531381bd74305640804d5222bce4f97,
        type: 3}
      propertyPath: m_havePropertiesChanged
      value: 0
      objectReference: {fileID: 0}
    - target: {fileID: 3126033699749632948, guid: b531381bd74305640804d5222bce4f97,
        type: 3}
      propertyPath: m_isInputParsingRequired
      value: 0
      objectReference: {fileID: 0}
    - target: {fileID: 5395276605352054711, guid: b531381bd74305640804d5222bce4f97,
        type: 3}
      propertyPath: m_Mesh
      value: 
      objectReference: {fileID: 0}
    - target: {fileID: 5907105903183385769, guid: b531381bd74305640804d5222bce4f97,
        type: 3}
      propertyPath: m_Mesh
      value: 
      objectReference: {fileID: 0}
    - target: {fileID: 5782260854322701548, guid: b531381bd74305640804d5222bce4f97,
        type: 3}
      propertyPath: m_havePropertiesChanged
      value: 0
      objectReference: {fileID: 0}
    - target: {fileID: 5782260854322701548, guid: b531381bd74305640804d5222bce4f97,
        type: 3}
      propertyPath: m_isInputParsingRequired
      value: 0
      objectReference: {fileID: 0}
    - target: {fileID: 6966793048523524919, guid: b531381bd74305640804d5222bce4f97,
        type: 3}
      propertyPath: m_havePropertiesChanged
      value: 0
      objectReference: {fileID: 0}
    - target: {fileID: 6966793048523524919, guid: b531381bd74305640804d5222bce4f97,
        type: 3}
      propertyPath: m_isInputParsingRequired
      value: 0
      objectReference: {fileID: 0}
    - target: {fileID: 7211817180530414276, guid: b531381bd74305640804d5222bce4f97,
        type: 3}
      propertyPath: length
      value: 0.01
      objectReference: {fileID: 0}
    - target: {fileID: 4998329962781044870, guid: b531381bd74305640804d5222bce4f97,
        type: 3}
      propertyPath: length
      value: -1
      objectReference: {fileID: 0}
    - target: {fileID: 4998329962781044870, guid: b531381bd74305640804d5222bce4f97,
        type: 3}
      propertyPath: m_Enabled
      value: 0
      objectReference: {fileID: 0}
    - target: {fileID: 5371254848332595472, guid: b531381bd74305640804d5222bce4f97,
        type: 3}
      propertyPath: length
      value: 1
      objectReference: {fileID: 0}
    - target: {fileID: 4829440542455731830, guid: b531381bd74305640804d5222bce4f97,
        type: 3}
      propertyPath: length
      value: -1
      objectReference: {fileID: 0}
    - target: {fileID: 6241272205901628194, guid: b531381bd74305640804d5222bce4f97,
        type: 3}
      propertyPath: length
      value: -1
      objectReference: {fileID: 0}
    - target: {fileID: 65797782345452972, guid: b531381bd74305640804d5222bce4f97,
        type: 3}
      propertyPath: length
      value: -1
      objectReference: {fileID: 0}
    - target: {fileID: 6327978371129422745, guid: b531381bd74305640804d5222bce4f97,
        type: 3}
      propertyPath: length
      value: 0.5
      objectReference: {fileID: 0}
    - target: {fileID: 594623722120580085, guid: b531381bd74305640804d5222bce4f97,
        type: 3}
      propertyPath: length
      value: 0.3
      objectReference: {fileID: 0}
    - target: {fileID: 594623722120580085, guid: b531381bd74305640804d5222bce4f97,
        type: 3}
      propertyPath: onStart.m_PersistentCalls.m_Calls.Array.data[0].m_CallState
      value: 2
      objectReference: {fileID: 0}
    m_RemovedComponents: []
  m_SourcePrefab: {fileID: 100100000, guid: b531381bd74305640804d5222bce4f97, type: 3}
--- !u!114 &5871115701669694082 stripped
MonoBehaviour:
  m_CorrespondingSourceObject: {fileID: 5771942307524675892, guid: b531381bd74305640804d5222bce4f97,
    type: 3}
  m_PrefabInstance: {fileID: 99196209548428214}
  m_PrefabAsset: {fileID: 0}
  m_GameObject: {fileID: 0}
  m_Enabled: 1
  m_EditorHideFlags: 0
  m_Script: {fileID: 11500000, guid: 306658aa5a0c1c74ba64e6780f797cb3, type: 3}
  m_Name: 
  m_EditorClassIdentifier: 
--- !u!114 &657786622250027075 stripped
MonoBehaviour:
  m_CorrespondingSourceObject: {fileID: 594623722120580085, guid: b531381bd74305640804d5222bce4f97,
    type: 3}
  m_PrefabInstance: {fileID: 99196209548428214}
  m_PrefabAsset: {fileID: 0}
  m_GameObject: {fileID: 0}
  m_Enabled: 1
  m_EditorHideFlags: 0
  m_Script: {fileID: 11500000, guid: b137ecf98538c4f4b9917cda6aa73f24, type: 3}
  m_Name: 
  m_EditorClassIdentifier: 
