%YAML 1.1
%TAG !u! tag:unity3d.com,2011:
--- !u!1 &5125470558499631868
GameObject:
  m_ObjectHideFlags: 0
  m_CorrespondingSourceObject: {fileID: 0}
  m_PrefabInstance: {fileID: 0}
  m_PrefabAsset: {fileID: 0}
  serializedVersion: 6
  m_Component:
  - component: {fileID: 5125470558499631871}
  - component: {fileID: 5125470558499631870}
  m_Layer: 0
  m_Name: KidsStreamingAssetLoader
  m_TagString: Untagged
  m_Icon: {fileID: 0}
  m_NavMeshLayer: 0
  m_StaticEditorFlags: 0
  m_IsActive: 1
--- !u!4 &5125470558499631871
Transform:
  m_ObjectHideFlags: 0
  m_CorrespondingSourceObject: {fileID: 0}
  m_PrefabInstance: {fileID: 0}
  m_PrefabAsset: {fileID: 0}
  m_GameObject: {fileID: 5125470558499631868}
  m_LocalRotation: {x: 0, y: 0, z: 0, w: 1}
  m_LocalPosition: {x: 0, y: 0, z: 0}
  m_LocalScale: {x: 1, y: 1, z: 1}
  m_Children: []
  m_Father: {fileID: 0}
  m_RootOrder: 0
  m_LocalEulerAnglesHint: {x: 0, y: 0, z: 0}
--- !u!114 &5125470558499631870
MonoBehaviour:
  m_ObjectHideFlags: 0
  m_CorrespondingSourceObject: {fileID: 0}
  m_PrefabInstance: {fileID: 0}
  m_PrefabAsset: {fileID: 0}
  m_GameObject: {fileID: 5125470558499631868}
  m_Enabled: 1
  m_EditorHideFlags: 0
  m_Script: {fileID: 11500000, guid: b20b1c5ceebdef14f801382f129309ca, type: 3}
  m_Name: 
  m_EditorClassIdentifier: 
  dontDestoryOnLoad: 1
  eventToRaise: StreamingAssetLoaderComplete
  preloadComplete:
    m_PersistentCalls:
      m_Calls: []
    m_TypeName: Dweiss.EventEmpty, Assembly-CSharp, Version=0.0.0.0, Culture=neutral,
      PublicKeyToken=null
  preloadClips: []
  prewarmVideoClips:
  - 012_E_black
  - Earth_Dome_1min_Loop
  - RoofTop_Kids_Editing_Online_180_Dome
  - Sh_002AB_To_4AB
  - Sh_005_006
  - Sh_007_F_008_E
  - sh_009_And_010
  - sh_014_End_For_Kids_Ver
  preCompiled: []
  optionalPath: RoofTopPcKids
  defaultMovieSuffix: .mp4
  defaultAudioClipSuffix: .wav
  folderPrefix: 
